%!PS-Adobe-3.0 EPSF-3.0
%%Creator: (MATLAB, The Mathworks, Inc. Version 8.4.0.150421 \(R2014b\). Operating System: Windows 8)
%%Title: C:/Projects/SD_MICCAI_paper/tex/images/AverageROCs.eps
%%CreationDate: 2015-03-07T00:12:14
%%Pages: (atend)
%%BoundingBox: 0 0 525 525
%%LanguageLevel: 2
%%EndComments
%%BeginProlog
%%BeginResource: procset (Apache XML Graphics Std ProcSet) 1.2 0
%%Version: 1.2 0
%%Copyright: (Copyright 2001-2003,2010 The Apache Software Foundation. License terms: http://www.apache.org/licenses/LICENSE-2.0)
/bd{bind def}bind def
/ld{load def}bd
/GR/grestore ld
/M/moveto ld
/LJ/setlinejoin ld
/C/curveto ld
/f/fill ld
/LW/setlinewidth ld
/GC/setgray ld
/t/show ld
/N/newpath ld
/CT/concat ld
/cp/closepath ld
/S/stroke ld
/L/lineto ld
/CC/setcmykcolor ld
/A/ashow ld
/GS/gsave ld
/RC/setrgbcolor ld
/RM/rmoveto ld
/ML/setmiterlimit ld
/re {4 2 roll M
1 index 0 rlineto
0 exch rlineto
neg 0 rlineto
cp } bd
/_ctm matrix def
/_tm matrix def
/BT { _ctm currentmatrix pop matrix _tm copy pop 0 0 moveto } bd
/ET { _ctm setmatrix } bd
/iTm { _ctm setmatrix _tm concat } bd
/Tm { _tm astore pop iTm 0 0 moveto } bd
/ux 0.0 def
/uy 0.0 def
/F {
  /Tp exch def
  /Tf exch def
  Tf findfont Tp scalefont setfont
  /cf Tf def  /cs Tp def
} bd
/ULS {currentpoint /uy exch def /ux exch def} bd
/ULE {
  /Tcx currentpoint pop def
  gsave
  newpath
  cf findfont cs scalefont dup
  /FontMatrix get 0 get /Ts exch def /FontInfo get dup
  /UnderlinePosition get Ts mul /To exch def
  /UnderlineThickness get Ts mul /Tt exch def
  ux uy To add moveto  Tcx uy To add lineto
  Tt setlinewidth stroke
  grestore
} bd
/OLE {
  /Tcx currentpoint pop def
  gsave
  newpath
  cf findfont cs scalefont dup
  /FontMatrix get 0 get /Ts exch def /FontInfo get dup
  /UnderlinePosition get Ts mul /To exch def
  /UnderlineThickness get Ts mul /Tt exch def
  ux uy To add cs add moveto Tcx uy To add cs add lineto
  Tt setlinewidth stroke
  grestore
} bd
/SOE {
  /Tcx currentpoint pop def
  gsave
  newpath
  cf findfont cs scalefont dup
  /FontMatrix get 0 get /Ts exch def /FontInfo get dup
  /UnderlinePosition get Ts mul /To exch def
  /UnderlineThickness get Ts mul /Tt exch def
  ux uy To add cs 10 mul 26 idiv add moveto Tcx uy To add cs 10 mul 26 idiv add lineto
  Tt setlinewidth stroke
  grestore
} bd
/QT {
/Y22 exch store
/X22 exch store
/Y21 exch store
/X21 exch store
currentpoint
/Y21 load 2 mul add 3 div exch
/X21 load 2 mul add 3 div exch
/X21 load 2 mul /X22 load add 3 div
/Y21 load 2 mul /Y22 load add 3 div
/X22 load /Y22 load curveto
} bd
/SSPD {
dup length /d exch dict def
{
/v exch def
/k exch def
currentpagedevice k known {
/cpdv currentpagedevice k get def
v cpdv ne {
/upd false def
/nullv v type /nulltype eq def
/nullcpdv cpdv type /nulltype eq def
nullv nullcpdv or
{
/upd true def
} {
/sametype v type cpdv type eq def
sametype {
v type /arraytype eq {
/vlen v length def
/cpdvlen cpdv length def
vlen cpdvlen eq {
0 1 vlen 1 sub {
/i exch def
/obj v i get def
/cpdobj cpdv i get def
obj cpdobj ne {
/upd true def
exit
} if
} for
} {
/upd true def
} ifelse
} {
v type /dicttype eq {
v {
/dv exch def
/dk exch def
/cpddv cpdv dk get def
dv cpddv ne {
/upd true def
exit
} if
} forall
} {
/upd true def
} ifelse
} ifelse
} if
} ifelse
upd true eq {
d k v put
} if
} if
} if
} forall
d length 0 gt {
d setpagedevice
} if
} bd
%%EndResource
%%BeginResource: procset (Apache XML Graphics EPS ProcSet) 1.0 0
%%Version: 1.0 0
%%Copyright: (Copyright 2002-2003 The Apache Software Foundation. License terms: http://www.apache.org/licenses/LICENSE-2.0)
/BeginEPSF { %def
/b4_Inc_state save def         % Save state for cleanup
/dict_count countdictstack def % Count objects on dict stack
/op_count count 1 sub def      % Count objects on operand stack
userdict begin                 % Push userdict on dict stack
/showpage { } def              % Redefine showpage, { } = null proc
0 setgray 0 setlinecap         % Prepare graphics state
1 setlinewidth 0 setlinejoin
10 setmiterlimit [ ] 0 setdash newpath
/languagelevel where           % If level not equal to 1 then
{pop languagelevel             % set strokeadjust and
1 ne                           % overprint to their defaults.
{false setstrokeadjust false setoverprint
} if
} if
} bd
/EndEPSF { %def
count op_count sub {pop} repeat            % Clean up stacks
countdictstack dict_count sub {end} repeat
b4_Inc_state restore
} bd
%%EndResource
%FOPBeginFontDict
%%IncludeResource: font Courier-Bold
%%IncludeResource: font Helvetica
%%IncludeResource: font Courier-BoldOblique
%%IncludeResource: font Courier-Oblique
%%IncludeResource: font Times-Roman
%%IncludeResource: font Helvetica-BoldOblique
%%IncludeResource: font Helvetica-Bold
%%IncludeResource: font Helvetica-Oblique
%%IncludeResource: font Times-BoldItalic
%%IncludeResource: font Courier
%%IncludeResource: font Times-Italic
%%IncludeResource: font Times-Bold
%%IncludeResource: font Symbol
%%IncludeResource: font ZapfDingbats
%FOPEndFontDict
%%BeginResource: encoding WinAnsiEncoding
/WinAnsiEncoding [
/.notdef /.notdef /.notdef /.notdef /.notdef
/.notdef /.notdef /.notdef /.notdef /.notdef
/.notdef /.notdef /.notdef /.notdef /.notdef
/.notdef /.notdef /.notdef /.notdef /.notdef
/.notdef /.notdef /.notdef /.notdef /.notdef
/.notdef /.notdef /.notdef /.notdef /.notdef
/.notdef /.notdef /space /exclam /quotedbl
/numbersign /dollar /percent /ampersand /quotesingle
/parenleft /parenright /asterisk /plus /comma
/hyphen /period /slash /zero /one
/two /three /four /five /six
/seven /eight /nine /colon /semicolon
/less /equal /greater /question /at
/A /B /C /D /E
/F /G /H /I /J
/K /L /M /N /O
/P /Q /R /S /T
/U /V /W /X /Y
/Z /bracketleft /backslash /bracketright /asciicircum
/underscore /quoteleft /a /b /c
/d /e /f /g /h
/i /j /k /l /m
/n /o /p /q /r
/s /t /u /v /w
/x /y /z /braceleft /bar
/braceright /asciitilde /bullet /Euro /bullet
/quotesinglbase /florin /quotedblbase /ellipsis /dagger
/daggerdbl /circumflex /perthousand /Scaron /guilsinglleft
/OE /bullet /Zcaron /bullet /bullet
/quoteleft /quoteright /quotedblleft /quotedblright /bullet
/endash /emdash /asciitilde /trademark /scaron
/guilsinglright /oe /bullet /zcaron /Ydieresis
/space /exclamdown /cent /sterling /currency
/yen /brokenbar /section /dieresis /copyright
/ordfeminine /guillemotleft /logicalnot /sfthyphen /registered
/macron /degree /plusminus /twosuperior /threesuperior
/acute /mu /paragraph /middot /cedilla
/onesuperior /ordmasculine /guillemotright /onequarter /onehalf
/threequarters /questiondown /Agrave /Aacute /Acircumflex
/Atilde /Adieresis /Aring /AE /Ccedilla
/Egrave /Eacute /Ecircumflex /Edieresis /Igrave
/Iacute /Icircumflex /Idieresis /Eth /Ntilde
/Ograve /Oacute /Ocircumflex /Otilde /Odieresis
/multiply /Oslash /Ugrave /Uacute /Ucircumflex
/Udieresis /Yacute /Thorn /germandbls /agrave
/aacute /acircumflex /atilde /adieresis /aring
/ae /ccedilla /egrave /eacute /ecircumflex
/edieresis /igrave /iacute /icircumflex /idieresis
/eth /ntilde /ograve /oacute /ocircumflex
/otilde /odieresis /divide /oslash /ugrave
/uacute /ucircumflex /udieresis /yacute /thorn
/ydieresis
] def
%%EndResource
%FOPBeginFontReencode
/Courier-Bold findfont
dup length dict begin
  {1 index /FID ne {def} {pop pop} ifelse} forall
  /Encoding WinAnsiEncoding def
  currentdict
end
/Courier-Bold exch definefont pop
/Helvetica findfont
dup length dict begin
  {1 index /FID ne {def} {pop pop} ifelse} forall
  /Encoding WinAnsiEncoding def
  currentdict
end
/Helvetica exch definefont pop
/Courier-BoldOblique findfont
dup length dict begin
  {1 index /FID ne {def} {pop pop} ifelse} forall
  /Encoding WinAnsiEncoding def
  currentdict
end
/Courier-BoldOblique exch definefont pop
/Courier-Oblique findfont
dup length dict begin
  {1 index /FID ne {def} {pop pop} ifelse} forall
  /Encoding WinAnsiEncoding def
  currentdict
end
/Courier-Oblique exch definefont pop
/Times-Roman findfont
dup length dict begin
  {1 index /FID ne {def} {pop pop} ifelse} forall
  /Encoding WinAnsiEncoding def
  currentdict
end
/Times-Roman exch definefont pop
/Helvetica-BoldOblique findfont
dup length dict begin
  {1 index /FID ne {def} {pop pop} ifelse} forall
  /Encoding WinAnsiEncoding def
  currentdict
end
/Helvetica-BoldOblique exch definefont pop
/Helvetica-Bold findfont
dup length dict begin
  {1 index /FID ne {def} {pop pop} ifelse} forall
  /Encoding WinAnsiEncoding def
  currentdict
end
/Helvetica-Bold exch definefont pop
/Helvetica-Oblique findfont
dup length dict begin
  {1 index /FID ne {def} {pop pop} ifelse} forall
  /Encoding WinAnsiEncoding def
  currentdict
end
/Helvetica-Oblique exch definefont pop
/Times-BoldItalic findfont
dup length dict begin
  {1 index /FID ne {def} {pop pop} ifelse} forall
  /Encoding WinAnsiEncoding def
  currentdict
end
/Times-BoldItalic exch definefont pop
/Courier findfont
dup length dict begin
  {1 index /FID ne {def} {pop pop} ifelse} forall
  /Encoding WinAnsiEncoding def
  currentdict
end
/Courier exch definefont pop
/Times-Italic findfont
dup length dict begin
  {1 index /FID ne {def} {pop pop} ifelse} forall
  /Encoding WinAnsiEncoding def
  currentdict
end
/Times-Italic exch definefont pop
/Times-Bold findfont
dup length dict begin
  {1 index /FID ne {def} {pop pop} ifelse} forall
  /Encoding WinAnsiEncoding def
  currentdict
end
/Times-Bold exch definefont pop
%FOPEndFontReencode
%%EndProlog
%%Page: 1 1
%%PageBoundingBox: 0 0 525 525
%%BeginPageSetup
[1 0 0 -1 0 525] CT
%%EndPageSetup
GS
[0.75 0 0 0.75 0 0] CT
1 GC
N
0 0 700 700 re
f
GR
GS
[0.75 0 0 0.75 0 0] CT
1 GC
N
0 0 700 700 re
f
GR
GS
[0.75 0 0 0.75 0 0] CT
1 GC
N
91 609 M
634 609 L
634 66 L
91 66 L
cp
f
GR
GS
[0.75 0 0 0.75 0 0] CT
0.873 GC
2 setlinecap
10.0 ML
N
91 609 M
91 66 L
S
GR
GS
[0.75 0 0 0.75 0 0] CT
0.873 GC
2 setlinecap
10.0 ML
N
199.6 609 M
199.6 66 L
S
GR
GS
[0.75 0 0 0.75 0 0] CT
0.873 GC
2 setlinecap
10.0 ML
N
308.2 609 M
308.2 66 L
S
GR
GS
[0.75 0 0 0.75 0 0] CT
0.873 GC
2 setlinecap
10.0 ML
N
416.8 609 M
416.8 66 L
S
GR
GS
[0.75 0 0 0.75 0 0] CT
0.873 GC
2 setlinecap
10.0 ML
N
525.4 609 M
525.4 66 L
S
GR
GS
[0.75 0 0 0.75 0 0] CT
0.873 GC
2 setlinecap
10.0 ML
N
634 609 M
634 66 L
S
GR
GS
[0.75 0 0 0.75 0 0] CT
0.873 GC
2 setlinecap
10.0 ML
N
634 609 M
91 609 L
S
GR
GS
[0.75 0 0 0.75 0 0] CT
0.873 GC
2 setlinecap
10.0 ML
N
634 500.4 M
91 500.4 L
S
GR
GS
[0.75 0 0 0.75 0 0] CT
0.873 GC
2 setlinecap
10.0 ML
N
634 391.8 M
91 391.8 L
S
GR
GS
[0.75 0 0 0.75 0 0] CT
0.873 GC
2 setlinecap
10.0 ML
N
634 283.2 M
91 283.2 L
S
GR
GS
[0.75 0 0 0.75 0 0] CT
0.873 GC
2 setlinecap
10.0 ML
N
634 174.6 M
91 174.6 L
S
GR
GS
[0.75 0 0 0.75 0 0] CT
0.873 GC
2 setlinecap
10.0 ML
N
634 66 M
91 66 L
S
GR
GS
[0.75 0 0 0.75 271.875 488.47069] CT
0.149 GC
/Helvetica 29 F
GS
[1 0 0 1 0 0] CT
-75.743 29.156 moveto 
1 -1 scale
(1-specificity) t 
GR
GR
GS
[0.75 0 0 0.75 0 0] CT
0.149 GC
2 setlinecap
10.0 ML
N
91 609 M
634 609 L
S
GR
GS
[0.75 0 0 0.75 0 0] CT
0.149 GC
2 setlinecap
10.0 ML
N
91 609 M
91 603.57 L
S
GR
GS
[0.75 0 0 0.75 0 0] CT
0.149 GC
2 setlinecap
10.0 ML
N
199.6 609 M
199.6 603.57 L
S
GR
GS
[0.75 0 0 0.75 0 0] CT
0.149 GC
2 setlinecap
10.0 ML
N
308.2 609 M
308.2 603.57 L
S
GR
GS
[0.75 0 0 0.75 0 0] CT
0.149 GC
2 setlinecap
10.0 ML
N
416.8 609 M
416.8 603.57 L
S
GR
GS
[0.75 0 0 0.75 0 0] CT
0.149 GC
2 setlinecap
10.0 ML
N
525.4 609 M
525.4 603.57 L
S
GR
GS
[0.75 0 0 0.75 0 0] CT
0.149 GC
2 setlinecap
10.0 ML
N
634 609 M
634 603.57 L
S
GR
GS
[0.75 0 0 0.75 68.25 462.75] CT
0.149 GC
/Helvetica 27 F
GS
[1 0 0 1 0 0] CT
-7.508 27.145 moveto 
1 -1 scale
(0) t 
GR
GR
GS
[0.75 0 0 0.75 149.7 462.75] CT
0.149 GC
/Helvetica 27 F
GS
[1 0 0 1 0 0] CT
-18.767 27.145 moveto 
1 -1 scale
(0.2) t 
GR
GR
GS
[0.75 0 0 0.75 231.15001 462.75] CT
0.149 GC
/Helvetica 27 F
GS
[1 0 0 1 0 0] CT
-18.767 27.145 moveto 
1 -1 scale
(0.4) t 
GR
GR
GS
[0.75 0 0 0.75 312.60001 462.75] CT
0.149 GC
/Helvetica 27 F
GS
[1 0 0 1 0 0] CT
-18.767 27.145 moveto 
1 -1 scale
(0.6) t 
GR
GR
GS
[0.75 0 0 0.75 394.05002 462.75] CT
0.149 GC
/Helvetica 27 F
GS
[1 0 0 1 0 0] CT
-18.767 27.145 moveto 
1 -1 scale
(0.8) t 
GR
GR
GS
[0.75 0 0 0.75 475.5 462.75] CT
0.149 GC
/Helvetica 27 F
GS
[1 0 0 1 0 0] CT
-7.508 27.145 moveto 
1 -1 scale
(1) t 
GR
GR
GS
[0 -0.75 0.75 0 31.09973 253.125] CT
0.149 GC
/Helvetica 29 F
GS
[1 0 0 1 0 0] CT
-62.85 -6.321 moveto 
1 -1 scale
(sensitivity) t 
GR
GR
GS
[0.75 0 0 0.75 0 0] CT
0.149 GC
2 setlinecap
10.0 ML
N
91 609 M
91 66 L
S
GR
GS
[0.75 0 0 0.75 0 0] CT
0.149 GC
2 setlinecap
10.0 ML
N
91 609 M
96.43 609 L
S
GR
GS
[0.75 0 0 0.75 0 0] CT
0.149 GC
2 setlinecap
10.0 ML
N
91 500.4 M
96.43 500.4 L
S
GR
GS
[0.75 0 0 0.75 0 0] CT
0.149 GC
2 setlinecap
10.0 ML
N
91 391.8 M
96.43 391.8 L
S
GR
GS
[0.75 0 0 0.75 0 0] CT
0.149 GC
2 setlinecap
10.0 ML
N
91 283.2 M
96.43 283.2 L
S
GR
GS
[0.75 0 0 0.75 0 0] CT
0.149 GC
2 setlinecap
10.0 ML
N
91 174.6 M
96.43 174.6 L
S
GR
GS
[0.75 0 0 0.75 0 0] CT
0.149 GC
2 setlinecap
10.0 ML
N
91 66 M
96.43 66 L
S
GR
GS
[0.75 0 0 0.75 62.25 456.75] CT
0.149 GC
/Helvetica 27 F
GS
[1 0 0 1 0 0] CT
-15.016 10.665 moveto 
1 -1 scale
(0) t 
GR
GR
GS
[0.75 0 0 0.75 62.25 375.3] CT
0.149 GC
/Helvetica 27 F
GS
[1 0 0 1 0 0] CT
-37.534 10.665 moveto 
1 -1 scale
(0.2) t 
GR
GR
GS
[0.75 0 0 0.75 62.25 293.84999] CT
0.149 GC
/Helvetica 27 F
GS
[1 0 0 1 0 0] CT
-37.534 10.665 moveto 
1 -1 scale
(0.4) t 
GR
GR
GS
[0.75 0 0 0.75 62.25 212.39999] CT
0.149 GC
/Helvetica 27 F
GS
[1 0 0 1 0 0] CT
-37.534 10.665 moveto 
1 -1 scale
(0.6) t 
GR
GR
GS
[0.75 0 0 0.75 62.25 130.94999] CT
0.149 GC
/Helvetica 27 F
GS
[1 0 0 1 0 0] CT
-37.534 10.665 moveto 
1 -1 scale
(0.8) t 
GR
GR
GS
[0.75 0 0 0.75 62.25 49.5] CT
0.149 GC
/Helvetica 27 F
GS
[1 0 0 1 0 0] CT
-15.016 10.665 moveto 
1 -1 scale
(1) t 
GR
GR
GS
[0.75 0 0 0.75 0 0] CT
0 0.447 0.741 RC
[16 4 8 4] 0 setdash
2 LJ
4 LW
N
634 66 M
621.376 66 L
619.417 66 L
616.691 66 L
615.236 66 L
614.548 66 L
613.912 66 L
613.118 66 L
611.583 66 L
611.16 66 L
610.551 66 L
609.943 66.097 L
609.096 66.097 L
608.196 66.193 L
607.322 66.193 L
606.687 66.29 L
606.131 66.29 L
605.417 66.29 L
604.967 66.29 L
604.438 66.29 L
604.12 66.29 L
603.697 66.386 L
603.353 66.386 L
603.088 66.483 L
602.929 66.483 L
602.638 66.483 L
602.4 66.579 L
602.056 66.579 L
601.659 66.579 L
601.103 66.676 L
600.203 66.772 L
599.33 66.869 L
598.827 66.869 L
598.456 67.062 L
598.059 67.062 L
597.689 67.062 L
597.371 67.062 L
597.239 67.062 L
596.921 67.062 L
596.71 67.062 L
596.551 67.062 L
596.339 67.158 L
596.101 67.158 L
595.942 67.255 L
595.916 67.255 L
595.863 67.255 L
595.836 67.255 L
595.783 67.255 L
595.757 67.255 L
595.677 67.255 L
595.519 67.255 L
595.386 67.255 L
595.28 67.255 L
595.122 67.255 L
595.122 67.255 L
595.069 67.255 L
594.963 67.255 L
594.831 67.255 L
594.831 67.351 L
594.804 67.351 L
594.725 67.448 L
594.725 67.448 L
594.725 67.448 L
594.645 67.448 L
594.592 67.545 L
594.592 67.545 L
594.566 67.545 L
594.566 67.545 L
594.513 67.545 L
594.513 67.545 L
594.513 67.545 L
594.513 67.545 L
594.46 67.545 L
594.46 67.641 L
594.434 67.641 L
594.354 67.641 L
594.301 67.641 L
594.222 67.738 L
594.195 67.738 L
594.142 67.834 L
594.089 67.834 L
593.984 67.834 L
593.904 67.834 L
593.825 67.834 L
593.719 67.834 L
593.613 67.931 L
593.587 67.931 L
593.534 67.931 L
593.454 67.931 L
593.348 67.931 L
593.243 68.027 L
593.19 68.027 L
593.084 68.027 L
592.872 68.027 L
592.766 68.124 L
592.687 68.22 L
592.502 68.317 L
592.29 68.317 L
591.787 68.317 L
591.469 68.317 L
591.284 68.317 L
590.861 68.317 L
590.517 68.413 L
589.855 68.413 L
589.617 68.51 L
589.167 68.606 L
588.823 68.606 L
588.452 68.606 L
588.108 68.606 L
587.685 68.606 L
587.341 68.606 L
587.102 68.606 L
586.891 68.606 L
586.732 68.606 L
586.6 68.606 L
586.414 68.703 L
586.15 68.703 L
586.07 68.993 L
585.964 68.993 L
585.859 69.089 L
585.806 69.089 L
585.806 69.089 L
585.753 69.089 L
585.726 69.186 L
585.7 69.186 L
585.673 69.186 L
585.62 69.186 L
585.568 69.186 L
585.488 69.282 L
585.462 69.475 L
585.356 69.475 L
585.276 69.572 L
585.223 69.572 L
585.065 69.572 L
584.932 69.668 L
584.879 69.668 L
584.773 69.668 L
584.641 69.668 L
584.403 69.668 L
584.271 69.668 L
584.059 69.668 L
583.927 69.668 L
583.741 69.668 L
583.635 69.668 L
583.503 69.668 L
583.397 69.765 L
583.265 69.765 L
583.133 69.861 L
583.08 69.861 L
583.08 69.861 L
582.947 69.861 L
582.947 69.861 L
582.868 69.861 L
582.815 69.861 L
582.762 69.861 L
582.762 69.861 L
582.709 69.861 L
582.709 69.861 L
582.683 69.861 L
582.683 70.054 L
582.656 70.054 L
582.63 70.054 L
582.603 70.054 L
582.524 70.054 L
582.524 70.054 L
582.471 70.054 L
582.471 70.247 L
582.418 70.344 L
582.392 70.344 L
582.365 70.344 L
582.339 70.441 L
582.312 70.441 L
582.259 70.441 L
582.233 70.441 L
582.18 70.441 L
582.127 70.441 L
582.127 70.441 L
582.1 70.441 L
582.047 70.441 L
581.995 70.441 L
581.968 70.441 L
581.968 70.441 L
581.942 70.441 L
581.915 70.441 L
581.809 70.441 L
581.703 70.441 L
581.571 70.537 L
581.545 70.537 L
581.545 70.634 L
581.518 70.634 L
581.333 70.634 L
581.28 70.73 L
581.174 70.73 L
581.148 70.73 L
581.095 70.73 L
581.015 70.73 L
580.909 70.73 L
580.751 70.73 L
580.618 70.73 L
580.539 70.73 L
580.46 70.73 L
580.354 70.827 L
580.168 70.827 L
580.063 70.827 L
580.01 70.827 L
579.904 70.827 L
579.824 70.827 L
579.639 70.827 L
579.454 70.827 L
579.136 70.923 L
578.845 70.923 L
578.633 70.923 L
578.475 70.923 L
578.051 70.923 L
577.866 71.02 L
577.628 71.02 L
577.125 71.02 L
576.834 71.02 L
576.41 71.02 L
576.093 71.02 L
575.854 71.02 L
575.669 71.02 L
575.246 71.02 L
574.981 71.02 L
574.637 71.02 L
574.425 71.02 L
574.028 71.02 L
573.737 71.02 L
573.658 71.02 L
573.473 71.02 L
573.287 71.02 L
573.076 71.02 L
572.89 71.02 L
572.837 71.02 L
572.732 71.02 L
572.573 71.02 L
572.388 71.02 L
572.282 71.02 L
572.229 71.02 L
572.096 71.116 L
572.07 71.116 L
572.017 71.213 L
572.017 71.213 L
571.99 71.213 L
571.964 71.213 L
571.938 71.213 L
571.911 71.213 L
571.885 71.213 L
571.832 71.213 L
571.805 71.213 L
571.779 71.213 L
571.779 71.213 L
571.752 71.213 L
571.752 71.213 L
571.673 71.213 L
571.62 71.213 L
571.62 71.213 L
571.62 71.309 L
571.541 71.309 L
571.514 71.309 L
571.514 71.309 L
571.488 71.406 L
571.488 71.406 L
571.408 71.502 L
571.382 71.502 L
571.355 71.502 L
571.329 71.502 L
571.329 71.502 L
571.302 71.502 L
571.223 71.502 L
571.223 71.695 L
571.17 71.695 L
571.091 71.792 L
571.091 71.792 L
571.038 71.792 L
570.958 71.792 L
570.932 71.792 L
570.905 71.792 L
570.852 71.792 L
570.799 71.792 L
570.72 71.792 L
570.667 71.792 L
570.667 71.792 L
570.667 71.792 L
570.667 71.792 L
570.641 71.792 L
570.588 71.792 L
570.535 71.792 L
570.535 71.792 L
570.535 71.792 L
570.456 71.792 L
570.456 71.792 L
570.429 71.792 L
570.403 71.792 L
570.35 71.792 L
570.244 71.985 L
570.191 71.985 L
570.191 71.985 L
570.058 71.985 L
569.953 71.985 L
569.926 71.985 L
569.926 72.178 L
569.9 72.275 L
569.847 72.468 L
569.609 72.564 L
569.529 72.564 L
569.37 72.564 L
569.185 72.661 L
568.788 72.854 L
568.523 72.95 L
568.285 72.95 L
567.994 72.95 L
567.809 72.95 L
567.412 73.047 L
567.147 73.337 L
566.83 73.53 L
566.353 73.53 L
565.797 73.53 L
565.03 73.53 L
564.527 73.819 L
564.077 73.819 L
563.442 73.916 L
562.78 74.012 L
562.251 74.012 L
561.51 74.109 L
560.584 74.205 L
559.896 74.495 L
559.155 74.495 L
558.837 74.688 L
558.308 74.881 L
557.831 74.978 L
557.461 74.978 L
556.905 75.171 L
556.429 75.46 L
556.005 75.46 L
555.688 75.653 L
555.317 75.653 L
555.026 75.75 L
554.841 75.846 L
554.682 76.233 L
554.549 76.522 L
554.364 76.619 L
554.179 76.619 L
553.941 76.619 L
553.808 76.812 L
553.729 76.908 L
553.623 77.005 L
553.544 77.101 L
553.517 77.294 L
553.491 77.294 L
553.411 77.391 L
553.385 77.391 L
553.359 77.584 L
553.306 77.681 L
553.306 78.026 L
553.279 78.026 L
553.253 78.484 L
553.2 78.982 L
553.173 79.231 L
553.173 79.425 L
553.12 79.963 L
553.12 80.212 L
553.12 80.365 L
553.067 80.365 L
553.014 80.96 L
552.988 80.96 L
552.962 81.056 L
552.882 81.153 L
552.856 81.346 L
552.829 81.443 L
552.67 81.748 L
552.512 82.093 L
552.485 82.439 L
552.485 82.439 L
552.432 82.439 L
552.353 82.536 L
552.3 82.632 L
552.247 83.018 L
552.115 83.115 L
552.088 83.308 L
551.982 83.308 L
551.929 83.903 L
551.876 84.192 L
551.797 84.538 L
551.718 84.635 L
551.638 84.828 L
551.4 84.924 L
551.321 84.924 L
551.082 85.117 L
550.95 85.214 L
550.871 85.503 L
550.633 85.793 L
550.421 85.986 L
550.103 86.083 L
549.891 86.083 L
549.547 86.179 L
549.23 86.179 L
548.727 86.276 L
548.409 86.372 L
548.171 86.469 L
547.662 86.565 L
546.59 87.104 L
544.546 87.658 L
538.221 89.128 L
529.82 91.265 L
519.751 94.149 L
514.716 95.314 L
511.594 95.619 L
510.707 96.519 L
510.198 96.865 L
508.961 97.154 L
508.18 97.154 L
506.996 97.5 L
505.759 97.597 L
504.978 97.983 L
504.522 98.369 L
504.118 98.465 L
504.092 98.908 L
504.039 99.253 L
503.986 99.253 L
503.933 99.35 L
503.933 99.696 L
503.933 100.178 L
503.907 100.331 L
503.88 100.427 L
503.503 100.62 L
503.073 100.717 L
503.047 100.717 L
502.669 101.119 L
502.266 101.215 L
501.485 101.408 L
501.108 101.601 L
501.055 101.794 L
500.625 102.044 L
500.625 102.389 L
500.572 102.679 L
500.546 102.969 L
500.519 103.065 L
500.089 103.162 L
500.063 103.411 L
500.036 103.797 L
500.036 103.893 L
500.01 104.046 L
499.957 104.239 L
499.931 104.239 L
499.554 104.432 L
497.615 104.529 L
493.791 104.529 L
491.8 104.722 L
484.933 104.818 L
476.637 104.915 L
472.41 105.011 L
468.937 105.301 L
467.753 105.454 L
466.999 105.55 L
465.761 105.743 L
464.227 105.936 L
463.823 106.378 L
463.042 106.475 L
462.639 106.724 L
461.805 106.821 L
461.025 106.821 L
460.244 106.917 L
458.683 106.917 L
454.886 107.207 L
449.931 107.4 L
441.231 107.593 L
432.558 107.689 L
427.98 107.939 L
426.393 108.035 L
425.936 108.132 L
425.91 108.132 L
425.777 108.437 L
425.698 108.63 L
424.381 108.879 L
422.794 108.976 L
421.96 109.169 L
421.398 109.265 L
420.915 109.362 L
420.703 109.362 L
419.764 109.651 L
418.474 109.748 L
417.911 110.038 L
417.594 110.48 L
417.355 110.48 L
416.958 110.769 L
416.747 110.866 L
416.509 110.962 L
416.164 111.155 L
415.688 111.445 L
415.423 111.542 L
415.106 111.791 L
414.524 111.791 L
414.232 111.984 L
413.703 112.177 L
413.386 112.466 L
413.094 112.66 L
412.592 113.061 L
412.036 113.31 L
411.48 113.407 L
410.977 113.56 L
410.421 113.753 L
409.813 113.905 L
409.469 114.251 L
408.939 114.5 L
408.331 114.846 L
407.828 115.288 L
407.219 115.441 L
406.743 115.593 L
406.372 115.883 L
406.002 116.132 L
403.962 116.936 L
403.221 117.53 L
402.877 117.864 L
400.785 118.655 L
400.599 119.235 L
400.308 120.364 L
399.779 121.34 L
397.739 121.927 L
397.501 122.96 L
397.104 123.8 L
393.607 125.332 L
391.568 126.409 L
391.277 127.317 L
386.27 128.237 L
382.905 129.315 L
381.051 130.669 L
371.222 132.18 L
371.116 133.454 L
366.189 134.604 L
362.798 135.178 L
356.095 136.842 L
354.426 138.004 L
352.731 138.98 L
349.446 140.713 L
347.697 142.304 L
344.386 144.016 L
344.253 144.868 L
340.942 145.833 L
336.041 147.215 L
331.113 147.649 L
322.927 148.22 L
319.536 148.863 L
319.51 149.478 L
317.841 149.968 L
317.761 150.623 L
317.682 151.009 L
317.602 151.371 L
315.96 151.874 L
314.264 152.224 L
312.622 152.754 L
310.9 153.008 L
310.847 153.563 L
309.204 153.912 L
309.151 154.178 L
309.099 154.777 L
309.046 155.042 L
308.94 155.235 L
308.887 155.762 L
308.728 155.858 L
308.649 156.204 L
308.543 156.385 L
308.41 156.674 L
308.252 156.759 L
308.172 157.036 L
308.013 157.442 L
307.96 157.539 L
307.881 157.539 L
307.775 157.539 L
307.669 157.691 L
307.537 158.025 L
307.405 158.122 L
307.246 158.552 L
307.008 159.09 L
306.822 159.492 L
306.637 159.729 L
306.478 159.729 L
306.373 160.019 L
305.976 160.019 L
305.737 160.352 L
305.526 160.602 L
305.155 160.698 L
304.626 160.935 L
304.229 161.184 L
303.62 161.626 L
303.302 161.626 L
302.667 161.723 L
302.244 161.819 L
301.662 162.013 L
301.106 162.206 L
300.444 162.648 L
299.65 162.925 L
298.83 163.01 L
298.062 163.01 L
297.215 163.106 L
296.58 163.701 L
295.601 163.95 L
294.807 164.143 L
293.987 164.433 L
293.193 164.682 L
292.425 164.875 L
291.525 165.068 L
290.837 165.346 L
290.202 165.346 L
289.514 165.981 L
288.879 166.174 L
288.217 166.423 L
287.555 166.616 L
287.026 166.809 L
286.603 167.099 L
286.047 167.485 L
285.597 167.775 L
285.253 168.217 L
284.856 168.41 L
284.088 168.852 L
283.533 169.335 L
283.241 169.914 L
282.712 170.356 L
282.474 170.992 L
282.103 172.109 L
281.733 172.552 L
281.468 173.517 L
281.018 174.193 L
280.648 174.925 L
280.383 175.214 L
279.748 175.986 L
279.404 176.899 L
279.033 177.728 L
278.53 178.596 L
277.975 179.465 L
277.234 180.004 L
276.625 180.68 L
275.857 182.128 L
274.852 182.9 L
274.217 183.672 L
273.158 184.734 L
272.337 185.217 L
271.517 185.603 L
270.617 186.472 L
269.664 187.051 L
268.897 187.244 L
268.023 188.072 L
267.256 188.458 L
266.753 188.651 L
266.091 188.844 L
265.298 189.231 L
264.901 189.81 L
264.371 190.099 L
263.842 190.679 L
263.313 191.065 L
263.101 191.314 L
262.73 191.604 L
262.439 192.42 L
262.122 192.918 L
261.91 193.208 L
261.725 193.69 L
261.513 193.787 L
261.328 194.326 L
261.301 194.808 L
261.116 195.194 L
260.904 196.063 L
260.719 196.437 L
260.587 197.266 L
260.481 197.941 L
260.269 198.424 L
260.216 198.81 L
260.084 199.1 L
259.951 199.679 L
259.846 199.872 L
259.687 200.065 L
259.634 200.451 L
259.634 201.223 L
259.581 201.513 L
259.554 201.899 L
259.528 202.575 L
259.501 203.154 L
259.475 203.596 L
259.396 204.135 L
259.369 205.004 L
259.343 205.293 L
259.29 205.487 L
259.29 205.776 L
259.29 206.355 L
259.263 206.645 L
259.237 206.935 L
259.21 207.321 L
259.21 207.514 L
259.21 208.093 L
259.184 208.576 L
259.131 208.672 L
259.131 208.672 L
259.131 209.058 L
259.078 209.541 L
259.025 209.831 L
259.025 210.41 L
258.972 210.603 L
258.919 211.101 L
258.866 211.35 L
258.813 211.64 L
258.734 211.917 L
258.708 212.11 L
258.655 212.4 L
258.575 212.593 L
258.337 212.786 L
258.231 213.076 L
258.099 213.558 L
257.94 213.655 L
257.834 213.945 L
257.675 214.331 L
257.517 214.524 L
257.305 214.62 L
257.278 215.449 L
257.146 215.642 L
256.961 216.028 L
256.908 216.414 L
256.802 216.993 L
256.617 217.532 L
256.537 217.628 L
256.379 217.918 L
256.193 218.304 L
256.167 218.594 L
256.034 218.746 L
255.823 219.229 L
255.743 219.671 L
255.558 220.25 L
255.452 221.079 L
255.346 221.618 L
255.32 221.907 L
255.32 222.1 L
255.108 222.486 L
255.029 222.792 L
254.923 223.29 L
254.844 223.676 L
254.791 223.676 L
254.764 224.062 L
254.711 224.448 L
254.711 225.277 L
254.658 225.566 L
254.579 226.049 L
254.473 226.821 L
254.42 227.593 L
254.394 228.808 L
253.911 229.677 L
253.884 230.449 L
253.831 231.181 L
253.831 231.663 L
253.831 232.037 L
253.831 232.81 L
253.831 233.445 L
253.805 234.177 L
253.752 234.522 L
253.725 234.909 L
253.699 235.584 L
253.62 236.413 L
253.567 236.799 L
253.567 237.145 L
253.54 237.724 L
253.514 237.82 L
253.461 237.917 L
253.381 238.166 L
253.328 238.166 L
253.275 238.552 L
253.249 238.649 L
253.249 239.147 L
253.223 239.686 L
253.223 240.393 L
253.196 241.028 L
253.143 241.221 L
253.09 241.719 L
253.037 241.912 L
252.931 242.563 L
252.905 243.351 L
252.905 243.544 L
252.826 244.083 L
252.746 244.469 L
252.667 244.718 L
252.64 244.871 L
252.534 245.578 L
252.481 245.827 L
252.402 246.783 L
252.296 247.129 L
252.217 247.571 L
252.137 247.917 L
252.111 248.11 L
252.084 248.512 L
251.873 248.913 L
251.82 249.219 L
251.793 249.894 L
251.74 250.433 L
251.74 250.517 L
251.714 250.96 L
251.582 251.651 L
251.529 252.398 L
251.449 252.897 L
251.37 253.09 L
251.317 253.435 L
251.317 253.781 L
251.291 254.32 L
251.132 254.32 L
251.105 254.404 L
251.079 254.738 L
251.026 254.822 L
251.026 254.907 L
250.649 255.172 L
250.649 255.767 L
250.622 255.767 L
250.596 255.96 L
250.596 256.113 L
250.596 256.446 L
250.516 256.699 L
250.516 256.949 L
250.516 257.254 L
250.49 258.086 L
250.464 258.335 L
250.437 258.878 L
250.411 259.421 L
250.384 260.217 L
250.384 260.76 L
250.358 262.119 L
250.305 262.566 L
250.278 262.566 L
250.278 263.096 L
250.278 263.615 L
250.278 264.146 L
250.278 265.034 L
250.252 265.645 L
250.252 265.995 L
250.252 266.345 L
250.252 266.876 L
250.199 267.225 L
250.119 267.406 L
250.093 267.491 L
250.014 267.925 L
249.961 268.432 L
249.881 268.697 L
249.828 269.433 L
249.749 269.855 L
249.643 270.374 L
249.59 270.695 L
249.484 271.479 L
249.352 271.841 L
249.273 272.529 L
249.193 273.578 L
249.087 274.153 L
249.034 274.925 L
249.034 275.443 L
248.823 275.974 L
248.796 276.48 L
248.77 277.156 L
248.664 277.602 L
248.558 278.374 L
248.505 279.158 L
248.102 279.411 L
248.102 280.473 L
247.996 281.052 L
247.943 281.342 L
247.837 281.704 L
247.757 282.271 L
247.705 282.536 L
247.625 282.995 L
247.572 283.453 L
247.546 283.924 L
247.519 284.478 L
247.493 285.033 L
247.413 285.214 L
247.387 285.576 L
247.36 285.673 L
247.334 286.445 L
247.281 287.181 L
247.255 287.555 L
247.175 287.652 L
247.096 287.748 L
247.096 288.219 L
247.069 288.87 L
247.043 289.256 L
247.016 289.546 L
247.016 290.125 L
246.963 290.958 L
246.911 291.416 L
246.911 292.152 L
246.831 292.249 L
246.805 292.429 L
246.805 292.888 L
246.805 293.455 L
246.778 293.938 L
246.725 294.034 L
246.672 294.481 L
246.672 294.83 L
246.646 295.216 L
246.646 295.591 L
246.646 295.687 L
246.646 296.049 L
246.646 296.23 L
246.646 296.688 L
246.646 296.881 L
246.619 297.171 L
246.619 297.81 L
246.619 297.907 L
246.619 298.16 L
246.593 298.607 L
246.566 299.149 L
246.54 299.427 L
246.514 299.608 L
246.514 300.416 L
246.514 300.585 L
246.514 300.681 L
246.487 301.128 L
246.434 301.683 L
246.434 302.226 L
246.408 302.648 L
246.381 303.082 L
246.381 303.89 L
246.328 304.481 L
246.328 305.615 L
246.328 306.833 L
246.275 308.039 L
246.275 308.908 L
246.249 309.776 L
246.249 310.717 L
246.222 312.261 L
246.222 314.13 L
246.222 315.807 L
246.222 317.628 L
246.222 319.437 L
246.196 321.09 L
246.169 322.718 L
246.143 323.852 L
246.117 324.539 L
246.064 325.818 L
246.011 327.362 L
245.984 328.737 L
245.984 330.051 L
245.984 331.245 L
245.984 332.681 L
245.984 334.43 L
245.931 336.142 L
245.905 338.47 L
245.905 339.664 L
245.905 340.93 L
245.878 341.606 L
245.878 342.727 L
245.878 343.318 L
245.852 344.344 L
245.773 345.14 L
245.773 345.743 L
245.746 346.382 L
245.614 347.633 L
232.685 348.694 L
201.98 350.057 L
164.757 352.976 L
153.392 359.484 L
153.312 366.769 L
153.286 378.23 L
152.022 388.706 L
151.566 398.832 L
150.785 404.923 L
148.767 407.227 L
144.19 409.108 L
143.76 411.146 L
143.144 413.45 L
142.827 415.822 L
142.086 419.295 L
140.676 422.274 L
139.485 425.133 L
137.997 427.979 L
137.679 429.801 L
137.441 431.011 L
136.905 431.747 L
136.316 432.29 L
135.701 434.099 L
134.709 434.883 L
133.068 435.953 L
132.638 436.945 L
132.559 440.201 L
132.532 443.235 L
132.155 445.71 L
132.155 448.137 L
132.129 451.982 L
132.129 455.627 L
132.129 458.536 L
131.725 461.888 L
131.725 466.143 L
131.725 468.787 L
131.725 470.081 L
130.971 473.058 L
130.217 477.145 L
128.331 481.701 L
125.692 488.036 L
124.183 497.857 L
122.298 511.631 L
119.658 521.998 L
118.904 529.671 L
118.527 535.346 L
118.15 540.399 L
101.935 544.702 L
96.656 548.087 L
93.262 550.032 L
92.131 553.394 L
91.754 561.292 L
91 578.944 L
91 609 L
91 609 L
S
GR
GS
[0.75 0 0 0.75 0 0] CT
0.851 0.325 0.098 RC
[16 4 8 4] 0 setdash
2 LJ
4 LW
N
634 66 M
622.514 66 L
620.608 66 L
618.623 66 L
616.956 66 L
616.136 66 L
615.553 66 L
614.759 66 L
614.336 66 L
613.621 66 L
613.198 66 L
612.536 66 L
612.06 66 L
611.53 66 L
610.922 66 L
610.207 66 L
609.228 66 L
607.719 66 L
606.74 66 L
606.079 66 L
605.523 66 L
605.099 66 L
604.914 66 L
604.782 66 L
604.596 66 L
604.332 66 L
604.094 66 L
603.908 66 L
603.723 66 L
603.644 66 L
603.379 66 L
603.194 66 L
603.141 66 L
602.956 66 L
602.823 66 L
602.559 66 L
602.426 66 L
602.029 66 L
601.606 66 L
600.918 66 L
600.468 66 L
599.78 66 L
599.012 66 L
598.403 66 L
597.662 66 L
597.212 66.097 L
596.921 66.097 L
596.71 66.097 L
596.524 66.097 L
596.286 66.193 L
596.074 66.193 L
595.81 66.193 L
595.466 66.193 L
595.122 66.193 L
594.936 66.193 L
594.751 66.193 L
594.513 66.193 L
594.434 66.193 L
594.301 66.193 L
594.142 66.193 L
593.957 66.193 L
593.878 66.193 L
593.745 66.193 L
593.64 66.193 L
593.534 66.193 L
593.428 66.193 L
593.348 66.193 L
593.296 66.193 L
593.216 66.193 L
593.163 66.193 L
593.137 66.193 L
593.11 66.193 L
593.084 66.193 L
593.084 66.29 L
593.004 66.29 L
592.978 66.29 L
592.846 66.29 L
592.846 66.29 L
592.819 66.386 L
592.74 66.386 L
592.713 66.386 L
592.687 66.386 L
592.66 66.386 L
592.66 66.386 L
592.581 66.386 L
592.554 66.386 L
592.554 66.386 L
592.528 66.483 L
592.475 66.483 L
592.369 66.579 L
592.316 66.579 L
592.29 66.579 L
592.29 66.579 L
592.184 66.579 L
592.184 66.579 L
592.052 66.579 L
591.999 66.579 L
591.972 66.579 L
591.919 66.579 L
591.893 66.579 L
591.866 66.579 L
591.866 66.579 L
591.866 66.579 L
591.813 66.579 L
591.787 66.579 L
591.76 66.579 L
591.76 66.579 L
591.734 66.579 L
591.734 66.579 L
591.708 66.579 L
591.708 66.579 L
591.681 66.579 L
591.655 66.579 L
591.469 66.772 L
591.416 66.772 L
591.311 66.869 L
591.284 66.869 L
591.258 66.869 L
591.231 66.869 L
591.046 66.869 L
591.046 66.869 L
590.993 66.869 L
590.887 66.869 L
590.861 66.869 L
590.834 66.869 L
590.702 66.869 L
590.702 66.869 L
590.675 66.869 L
590.649 66.965 L
590.622 66.965 L
590.517 67.062 L
590.437 67.158 L
590.411 67.158 L
590.358 67.158 L
590.331 67.158 L
590.278 67.255 L
590.225 67.255 L
590.173 67.255 L
590.093 67.255 L
590.04 67.255 L
589.987 67.255 L
589.961 67.255 L
589.881 67.255 L
589.855 67.255 L
589.802 67.351 L
589.67 67.351 L
589.59 67.448 L
589.564 67.545 L
589.484 67.545 L
589.379 67.545 L
589.326 67.545 L
589.193 67.545 L
589.087 67.545 L
589.008 67.545 L
588.849 67.641 L
588.532 67.738 L
588.32 67.738 L
588.002 67.834 L
587.791 67.834 L
587.579 67.834 L
587.42 67.834 L
587.314 67.834 L
587.05 67.834 L
586.679 67.834 L
586.388 67.834 L
586.176 67.931 L
586.044 67.931 L
585.806 68.027 L
585.462 68.027 L
585.144 68.027 L
584.668 68.027 L
584.085 68.027 L
583.768 68.027 L
583.344 68.124 L
582.947 68.124 L
582.445 68.124 L
581.942 68.124 L
581.333 68.22 L
580.909 68.22 L
580.618 68.317 L
580.063 68.317 L
579.798 68.317 L
579.507 68.317 L
579.163 68.317 L
578.872 68.317 L
578.422 68.317 L
578.184 68.317 L
577.945 68.413 L
577.416 68.413 L
577.072 68.413 L
576.543 68.413 L
576.172 68.413 L
575.722 68.413 L
575.325 68.51 L
574.981 68.51 L
574.558 68.51 L
574.214 68.51 L
573.79 68.703 L
573.473 68.896 L
573.181 69.186 L
572.996 69.186 L
572.864 69.186 L
572.652 69.186 L
572.414 69.186 L
572.202 69.282 L
572.043 69.282 L
571.964 69.379 L
571.832 69.379 L
571.673 69.379 L
571.594 69.572 L
571.461 69.668 L
571.329 69.765 L
571.276 69.765 L
571.223 69.861 L
571.17 69.958 L
571.144 70.054 L
571.117 70.054 L
570.852 70.054 L
570.747 70.054 L
570.72 70.054 L
570.641 70.054 L
570.588 70.054 L
570.482 70.151 L
570.403 70.151 L
570.244 70.344 L
570.217 70.344 L
570.058 70.537 L
569.926 70.73 L
569.873 70.923 L
569.714 71.116 L
569.556 71.406 L
569.397 71.502 L
569.344 71.599 L
569.185 71.695 L
569.026 71.985 L
568.868 72.082 L
568.762 72.275 L
568.682 72.371 L
568.497 72.468 L
568.391 72.564 L
568.179 72.564 L
567.968 72.854 L
567.756 73.047 L
567.518 73.143 L
567.147 73.143 L
566.591 73.143 L
566.142 73.337 L
565.401 73.433 L
564.739 73.626 L
564.077 73.916 L
563.283 74.398 L
562.489 74.495 L
561.404 74.591 L
560.69 74.978 L
559.578 75.364 L
558.758 75.46 L
557.911 75.557 L
557.223 75.75 L
556.323 75.943 L
555.635 75.943 L
555.052 76.329 L
554.629 76.522 L
554.311 76.619 L
554.02 76.619 L
553.65 76.908 L
553.438 77.005 L
553.147 77.294 L
552.962 77.294 L
552.697 77.487 L
552.459 77.681 L
552.273 77.874 L
552.168 77.97 L
552.035 78.163 L
551.956 78.356 L
551.85 78.356 L
551.771 78.453 L
551.718 78.453 L
551.691 78.839 L
551.612 79.129 L
551.585 79.129 L
551.506 79.225 L
551.4 79.225 L
551.374 79.322 L
551.215 79.322 L
550.95 79.322 L
550.765 79.322 L
550.685 79.322 L
550.58 79.322 L
550.394 79.418 L
550.289 79.611 L
550.103 79.611 L
549.971 79.804 L
549.733 79.901 L
549.442 79.997 L
549.283 80.094 L
548.992 80.094 L
548.806 80.48 L
548.648 80.673 L
548.462 80.963 L
548.356 80.963 L
548.198 80.963 L
548.092 81.059 L
547.96 81.059 L
547.854 81.156 L
547.827 81.252 L
547.668 81.252 L
547.615 81.252 L
547.536 81.252 L
547.51 81.252 L
547.483 81.252 L
547.377 81.252 L
547.271 81.252 L
547.245 81.252 L
547.245 81.252 L
547.245 81.252 L
547.218 81.252 L
547.218 81.349 L
547.166 81.349 L
547.166 81.349 L
547.139 81.445 L
547.139 81.542 L
547.113 81.735 L
547.113 81.831 L
547.113 81.831 L
547.086 82.025 L
547.033 82.025 L
547.033 82.218 L
547.033 82.411 L
546.954 82.507 L
546.927 82.797 L
546.927 82.99 L
546.848 83.086 L
546.769 83.183 L
546.716 83.279 L
546.716 83.376 L
546.663 83.473 L
546.583 83.666 L
546.53 83.666 L
546.477 84.052 L
546.451 84.245 L
546.398 84.438 L
546.345 84.438 L
546.292 84.631 L
546.292 84.631 L
546.239 84.727 L
546.239 84.824 L
546.186 84.824 L
546.08 84.824 L
546.08 84.921 L
546.027 84.921 L
545.975 85.266 L
545.816 85.724 L
545.683 86.014 L
545.63 86.014 L
545.578 86.11 L
545.578 86.11 L
545.551 86.456 L
545.525 86.552 L
545.525 87.259 L
545.445 87.549 L
545.392 87.549 L
545.26 87.991 L
545.154 88.088 L
545.128 88.433 L
545.075 88.53 L
545.022 89.069 L
544.916 89.551 L
544.889 89.897 L
544.81 89.994 L
544.731 90.283 L
544.678 90.283 L
544.598 90.532 L
544.492 90.781 L
544.387 90.975 L
544.281 90.975 L
544.228 91.168 L
544.095 91.417 L
543.963 91.417 L
543.804 91.513 L
543.778 91.762 L
543.646 92.052 L
543.513 92.342 L
543.302 92.591 L
543.116 92.743 L
543.01 92.936 L
542.746 93.13 L
542.481 93.516 L
542.243 93.612 L
541.952 93.998 L
541.793 94.191 L
541.422 94.191 L
541.078 94.674 L
540.814 94.964 L
540.232 95.35 L
539.914 95.639 L
539.411 95.736 L
538.829 95.929 L
538.326 96.315 L
537.797 96.605 L
537.453 96.701 L
536.659 97.184 L
535.865 97.474 L
535.229 97.57 L
534.647 97.86 L
534.038 98.149 L
533.297 98.535 L
532.259 98.728 L
528.475 99.227 L
522.805 100.142 L
513.768 102.569 L
505.889 105.204 L
497.282 107.574 L
493.28 107.975 L
491.837 108.875 L
490.957 109.125 L
489.138 109.47 L
488.04 109.76 L
487.59 110.049 L
485.526 110.299 L
483.567 110.492 L
482.82 110.685 L
482.072 111.224 L
481.464 111.224 L
480.987 111.61 L
480.564 111.706 L
480.326 111.899 L
480.034 112.398 L
479.69 112.591 L
479.293 112.784 L
479.082 112.784 L
478.843 112.936 L
478.605 113.033 L
478.208 113.282 L
477.136 113.628 L
476.925 113.724 L
476.204 113.724 L
475.377 113.821 L
474.305 113.917 L
473.207 114.11 L
472.704 114.303 L
472.122 114.303 L
471.592 114.4 L
471.116 114.69 L
469.131 114.786 L
465.612 114.786 L
458.89 114.786 L
451.004 114.979 L
445.169 115.269 L
440.519 115.365 L
435.742 115.462 L
433.843 115.751 L
432.375 115.944 L
429.669 116.234 L
428.471 116.717 L
427.624 116.91 L
426.189 117.103 L
424.019 117.392 L
422.821 117.779 L
420.625 118.165 L
417.674 118.454 L
409.524 118.897 L
400.513 119.628 L
390.583 119.918 L
386.396 120.208 L
383.551 120.497 L
382.777 120.843 L
381.553 121.132 L
379.839 121.422 L
378.311 122.001 L
377.186 122.54 L
376.71 122.733 L
376.042 123.505 L
374.487 124.471 L
373.634 125.05 L
372.456 125.919 L
371.517 126.401 L
371.331 126.594 L
371.067 126.981 L
370.776 127.656 L
370.458 128.485 L
370.167 128.871 L
370.008 129.45 L
369.902 129.836 L
369.611 130.512 L
369.346 130.994 L
369.055 131.767 L
368.738 132.9 L
368.447 133.286 L
368.05 133.962 L
367.758 134.445 L
367.256 135.121 L
366.753 135.41 L
366.356 136.239 L
365.959 136.914 L
365.429 137.493 L
364.953 138.169 L
364.106 138.845 L
363.524 139.231 L
363.127 140.1 L
362.571 140.776 L
361.698 141.797 L
361.01 142.28 L
360.401 143.494 L
359.819 143.591 L
359.263 144.17 L
358.654 144.846 L
358.284 145.811 L
357.622 146.583 L
357.066 147.742 L
356.722 148.224 L
356.166 148.803 L
355.769 149.19 L
355.425 150.155 L
354.87 150.541 L
354.473 151.217 L
354.102 151.603 L
353.864 152.086 L
353.414 152.472 L
352.911 153.244 L
352.223 153.727 L
351.905 154.692 L
351.667 155.271 L
351.297 155.657 L
350.9 156.623 L
350.661 157.105 L
350.238 157.202 L
350.026 157.491 L
349.682 157.685 L
349.206 157.974 L
349.074 158.167 L
348.835 159.036 L
348.624 159.326 L
348.253 159.422 L
347.909 159.905 L
347.671 160.194 L
347.459 160.581 L
347.168 161.16 L
346.983 161.642 L
346.797 161.932 L
346.453 162.318 L
346.215 163.283 L
346.003 164.264 L
345.818 164.457 L
345.659 165.189 L
345.527 165.768 L
345.368 167.369 L
345.262 167.908 L
345.157 168.543 L
345.024 169.315 L
344.918 170.088 L
344.733 170.667 L
344.68 171.455 L
344.548 172.532 L
344.336 173.264 L
344.23 173.803 L
344.177 174.342 L
344.098 175.78 L
344.019 176.568 L
343.992 177.341 L
343.966 178.723 L
343.939 179.511 L
343.886 180.564 L
343.701 181.464 L
343.648 182.71 L
343.489 183.569 L
343.436 183.915 L
343.41 184.261 L
343.357 184.799 L
343.304 185.587 L
343.278 186.833 L
343.251 187.275 L
343.198 187.717 L
343.172 188.063 L
343.145 188.674 L
343.039 188.979 L
342.986 189.38 L
342.907 190.144 L
342.881 190.449 L
342.828 191.156 L
342.801 191.558 L
342.775 191.959 L
342.775 192.417 L
342.748 192.915 L
342.722 193.165 L
342.695 193.47 L
342.669 194.024 L
342.616 194.024 L
342.536 194.177 L
342.484 194.563 L
342.484 194.756 L
342.431 195.005 L
342.431 195.102 L
342.378 195.198 L
342.378 195.295 L
342.351 195.488 L
342.325 195.681 L
342.272 195.777 L
342.219 196.067 L
342.219 196.55 L
342.192 196.743 L
342.139 196.936 L
342.139 197.032 L
342.139 197.418 L
342.034 197.612 L
342.034 197.901 L
342.007 198.191 L
341.901 198.287 L
341.875 198.73 L
341.795 199.324 L
341.795 199.807 L
341.742 200.056 L
341.716 200.402 L
341.637 200.402 L
341.637 200.498 L
341.557 201.037 L
341.504 201.19 L
341.504 201.383 L
341.451 202.074 L
341.451 202.379 L
341.293 202.781 L
341.24 202.878 L
341.213 203.03 L
341.134 203.223 L
341.081 203.32 L
341.028 203.859 L
341.028 204.148 L
341.028 204.148 L
341.001 204.245 L
341.001 204.438 L
340.975 204.438 L
340.975 204.687 L
340.949 204.936 L
340.922 205.282 L
340.922 205.434 L
340.896 205.434 L
340.869 205.434 L
340.869 205.74 L
340.843 206.415 L
340.79 206.608 L
340.79 206.608 L
340.79 206.705 L
340.79 206.705 L
340.79 206.705 L
340.79 207.091 L
340.763 207.381 L
340.763 207.477 L
340.71 207.574 L
340.71 207.574 L
340.71 207.574 L
340.684 207.767 L
340.657 208.016 L
340.631 208.209 L
340.631 208.306 L
340.631 208.555 L
340.552 208.651 L
340.552 209.15 L
340.552 209.15 L
340.552 209.399 L
340.552 209.551 L
340.552 209.648 L
340.525 209.648 L
340.525 209.744 L
340.525 210.09 L
340.499 210.283 L
340.499 210.283 L
340.472 210.669 L
340.472 211.168 L
340.446 211.168 L
340.446 211.666 L
340.393 211.859 L
340.393 212.149 L
340.393 212.438 L
340.393 212.535 L
340.393 212.728 L
340.393 212.824 L
340.393 212.824 L
340.34 213.017 L
340.34 213.017 L
340.34 213.114 L
340.313 213.114 L
340.287 213.114 L
340.26 213.114 L
340.26 213.114 L
340.234 213.5 L
340.207 213.5 L
340.128 213.5 L
340.102 213.693 L
340.075 213.693 L
340.075 213.79 L
340.049 213.983 L
340.049 214.369 L
340.049 214.465 L
340.049 214.811 L
340.022 215.004 L
339.996 215.39 L
339.943 215.776 L
339.943 215.873 L
339.916 216.315 L
339.863 216.315 L
339.863 217.2 L
339.433 217.698 L
339.407 217.794 L
339.407 217.987 L
339.407 218.47 L
339.407 218.47 L
339.354 218.912 L
339.354 218.912 L
339.301 218.912 L
339.301 219.218 L
339.301 219.507 L
339.275 219.7 L
339.222 219.99 L
339.222 220.376 L
339.195 220.915 L
339.169 221.108 L
339.169 221.26 L
339.169 221.646 L
339.142 221.743 L
339.142 221.936 L
339.089 221.936 L
339.036 222.129 L
339.036 222.515 L
339.036 222.708 L
339.036 222.805 L
339.036 222.901 L
339.01 223.288 L
339.01 223.481 L
338.931 223.481 L
338.904 223.674 L
338.904 223.674 L
338.904 223.867 L
338.878 224.156 L
338.878 224.502 L
338.878 225.081 L
338.851 225.274 L
338.825 225.66 L
338.798 226.047 L
338.772 226.143 L
338.719 226.143 L
338.719 226.143 L
338.639 226.143 L
338.613 226.529 L
338.613 226.529 L
338.586 226.915 L
338.507 227.108 L
338.507 227.205 L
338.481 227.454 L
338.454 227.454 L
338.428 227.454 L
338.348 227.454 L
338.348 227.647 L
338.295 227.84 L
338.295 228.226 L
338.295 228.379 L
338.269 228.379 L
338.242 228.476 L
338.242 228.476 L
338.242 228.765 L
338.216 228.862 L
338.216 229.248 L
338.19 229.344 L
338.19 229.441 L
338.19 229.883 L
338.163 230.188 L
338.137 230.671 L
338.084 230.92 L
338.057 231.266 L
337.978 231.571 L
337.978 231.764 L
337.978 232.11 L
337.951 232.206 L
337.951 232.592 L
337.951 232.745 L
337.574 233.091 L
337.521 233.187 L
337.521 233.34 L
337.521 233.782 L
337.521 233.782 L
337.495 234.072 L
337.442 234.458 L
337.415 234.554 L
337.362 234.707 L
337.362 234.707 L
337.31 235.093 L
337.283 235.093 L
337.257 235.093 L
337.23 235.19 L
337.177 235.342 L
337.151 235.535 L
337.124 235.632 L
336.966 235.881 L
336.939 236.171 L
336.86 236.364 L
336.78 236.557 L
336.727 236.653 L
336.542 236.846 L
336.383 237.232 L
336.092 237.426 L
335.616 237.426 L
335.298 237.715 L
335.06 238.101 L
334.637 238.101 L
334.24 238.198 L
334.081 238.294 L
333.79 238.584 L
333.419 238.93 L
332.996 239.026 L
332.757 239.275 L
332.413 239.275 L
332.255 239.372 L
332.043 239.468 L
331.831 239.758 L
331.699 240.104 L
331.593 240.353 L
331.566 241.085 L
331.514 241.085 L
331.408 241.085 L
331.275 241.278 L
331.196 241.567 L
331.117 241.816 L
331.117 241.816 L
331.037 242.523 L
331.011 242.925 L
330.984 243.576 L
330.984 244.171 L
330.958 244.959 L
330.931 245.457 L
330.931 245.859 L
330.554 245.955 L
330.528 246.108 L
330.528 246.51 L
330.501 246.968 L
330.475 247.369 L
330.475 248.02 L
330.448 248.976 L
330.422 249.683 L
330.395 250.278 L
330.342 251.234 L
330.342 251.427 L
330.316 251.62 L
330.29 251.966 L
330.237 251.966 L
330.184 252.256 L
330.131 252.891 L
330.104 253.044 L
330.078 253.389 L
330.051 253.486 L
329.972 253.639 L
329.972 253.984 L
329.919 254.274 L
329.893 254.37 L
329.866 254.37 L
329.84 254.925 L
329.813 255.118 L
329.787 255.311 L
329.681 255.311 L
329.681 255.6 L
329.654 256.083 L
329.575 256.18 L
329.496 256.429 L
329.443 256.815 L
329.416 257.201 L
329.363 257.643 L
329.31 258.085 L
329.204 258.085 L
329.178 258.528 L
329.125 258.624 L
329.072 258.97 L
329.046 259.066 L
329.019 259.163 L
328.966 259.453 L
328.94 259.742 L
328.887 259.742 L
328.807 259.839 L
328.807 260.128 L
328.807 260.225 L
328.807 260.418 L
328.807 260.86 L
328.781 261.15 L
328.755 261.15 L
328.728 261.439 L
328.728 261.536 L
328.675 261.922 L
328.675 262.018 L
328.675 262.115 L
328.596 262.212 L
328.569 262.308 L
328.543 262.694 L
328.49 262.694 L
328.49 262.791 L
328.49 263.08 L
328.49 263.273 L
328.49 263.37 L
328.41 263.37 L
328.41 263.563 L
328.41 263.66 L
328.41 264.142 L
328.41 264.239 L
328.41 264.721 L
328.41 264.721 L
328.384 264.818 L
328.384 264.915 L
328.358 264.915 L
328.358 264.915 L
328.331 264.915 L
328.331 265.108 L
328.305 265.301 L
328.252 265.301 L
328.252 265.397 L
328.252 265.494 L
328.252 265.59 L
328.252 265.687 L
328.252 265.976 L
328.252 266.169 L
328.252 266.363 L
328.252 266.459 L
328.225 266.556 L
328.199 266.652 L
328.199 266.749 L
328.199 266.749 L
328.199 266.942 L
328.199 266.942 L
328.199 267.135 L
328.199 267.231 L
328.199 267.328 L
328.199 267.521 L
328.119 267.617 L
328.119 267.811 L
328.093 268.486 L
328.093 268.583 L
328.093 268.776 L
328.066 269.025 L
328.013 269.025 L
327.987 269.411 L
327.961 269.508 L
327.934 269.797 L
327.908 269.99 L
327.908 270.087 L
327.881 270.376 L
327.881 270.57 L
327.881 270.57 L
327.828 270.666 L
327.775 270.763 L
327.749 270.859 L
327.696 271.052 L
327.696 271.438 L
327.696 271.631 L
327.696 271.728 L
327.696 271.728 L
327.696 271.921 L
327.696 272.114 L
327.696 272.307 L
327.669 272.404 L
327.669 272.597 L
327.669 272.983 L
327.669 273.466 L
327.669 273.948 L
327.669 274.527 L
327.669 274.817 L
327.669 275.203 L
327.669 275.879 L
327.669 276.168 L
327.643 276.555 L
327.643 276.748 L
327.643 276.941 L
327.643 277.52 L
327.643 277.906 L
327.643 278.196 L
326.135 278.847 L
319.321 279.385 L
318.189 279.538 L
317.812 279.924 L
317.786 280.463 L
317.409 281.332 L
317.382 282.353 L
317.005 283.029 L
317.005 283.415 L
316.602 284.05 L
316.225 285.112 L
315.093 285.981 L
313.585 286.367 L
313.585 287.195 L
313.208 288.024 L
313.208 288.313 L
313.208 288.812 L
313.208 289.198 L
312.831 291.054 L
312.831 294.091 L
312.831 298.526 L
312.454 303.169 L
312.454 306.552 L
311.323 308.993 L
308.306 311.725 L
306.017 315.026 L
302.623 329.011 L
301.465 349.694 L
299.58 364.354 L
279.595 370.926 L
274.289 376.654 L
272.754 387.757 L
183.116 446.657 L
91 609 L
S
GR
GS
[0.75 0 0 0.75 0 0] CT
0.929 0.694 0.125 RC
[16 4 8 4] 0 setdash
2 LJ
4 LW
N
634 66 M
613.065 66 L
609.572 66 L
607.693 66 L
607.058 66 L
606.29 66 L
605.761 66 L
604.729 66 L
602.85 66 L
601.923 66 L
601.765 66 L
601.606 66 L
601.447 66 L
601.209 66 L
600.997 66 L
600.812 66 L
600.6 66 L
600.388 66 L
600.282 66 L
600.124 66 L
599.965 66 L
599.885 66 L
599.833 66 L
599.78 66 L
599.674 66 L
599.594 66 L
599.409 66 L
599.171 66 L
599.092 66 L
599.012 66 L
599.012 66 L
598.986 66 L
598.853 66 L
598.642 66 L
598.43 66 L
598.245 66 L
598.165 66 L
598.059 66 L
598.006 66 L
597.848 66 L
597.742 66 L
597.636 66 L
597.557 66 L
597.424 66 L
597.265 66 L
597.054 66.386 L
597.001 66.676 L
596.789 66.772 L
596.498 66.772 L
596.366 66.869 L
596.127 66.869 L
595.942 66.965 L
595.651 67.062 L
595.36 67.158 L
594.857 67.351 L
594.539 67.545 L
594.195 67.641 L
593.825 67.738 L
593.481 67.834 L
593.004 67.931 L
592.899 68.027 L
592.687 68.22 L
592.502 68.413 L
592.263 68.413 L
592.052 68.413 L
591.893 68.413 L
591.708 68.51 L
591.549 68.51 L
591.39 68.606 L
591.337 68.606 L
591.178 68.799 L
591.072 68.993 L
590.993 69.186 L
590.966 69.186 L
590.887 69.186 L
590.808 69.475 L
590.702 69.668 L
590.702 69.668 L
590.543 69.765 L
590.411 69.861 L
590.331 70.054 L
590.278 70.247 L
590.173 70.441 L
590.093 70.537 L
589.934 70.537 L
589.828 70.634 L
589.776 70.634 L
589.59 70.73 L
589.432 70.73 L
589.352 70.73 L
589.193 70.73 L
589.034 70.923 L
588.929 70.923 L
588.69 71.02 L
588.532 71.213 L
588.346 71.213 L
588.108 71.213 L
587.817 71.309 L
587.685 71.406 L
587.473 71.406 L
587.314 71.406 L
587.155 71.406 L
586.838 71.502 L
586.494 71.599 L
586.097 71.695 L
585.859 71.985 L
585.435 72.275 L
584.906 72.275 L
584.562 72.371 L
584.218 72.564 L
583.953 72.661 L
583.662 72.757 L
583.133 72.95 L
582.868 73.047 L
582.656 73.143 L
582.365 73.143 L
582.127 73.24 L
581.968 73.24 L
581.809 73.24 L
581.703 73.433 L
581.571 73.53 L
581.465 73.53 L
581.333 73.723 L
581.201 73.916 L
581.015 74.205 L
580.751 74.302 L
580.645 74.302 L
580.433 74.495 L
580.089 74.591 L
579.745 74.591 L
579.48 74.591 L
579.136 74.688 L
578.845 74.688 L
578.633 74.688 L
578.395 74.881 L
578.21 74.978 L
577.945 75.46 L
577.813 75.557 L
577.681 75.75 L
577.469 75.943 L
577.363 76.039 L
577.337 76.039 L
577.337 76.039 L
577.31 76.136 L
577.284 76.233 L
577.178 76.329 L
577.125 76.426 L
577.072 76.522 L
577.019 76.522 L
576.993 76.908 L
576.966 77.101 L
576.94 77.101 L
576.86 77.294 L
576.754 77.487 L
576.596 77.681 L
576.41 77.874 L
576.304 77.874 L
576.251 77.874 L
576.225 77.874 L
576.199 77.97 L
576.172 77.97 L
576.093 77.97 L
576.04 77.97 L
575.987 77.97 L
575.96 78.163 L
575.907 78.163 L
575.828 78.26 L
575.775 78.356 L
575.722 78.356 L
575.643 78.549 L
575.616 78.549 L
575.563 78.549 L
575.484 78.646 L
575.484 78.646 L
575.484 78.646 L
575.484 78.646 L
575.484 78.742 L
575.458 78.742 L
575.431 78.839 L
575.431 78.839 L
575.405 78.839 L
575.378 78.935 L
575.352 78.935 L
575.325 79.032 L
575.272 79.032 L
575.219 79.032 L
575.166 79.032 L
575.061 79.032 L
575.034 79.129 L
575.034 79.129 L
575.008 79.225 L
574.955 79.225 L
574.902 79.225 L
574.822 79.322 L
574.822 79.322 L
574.769 79.418 L
574.769 79.515 L
574.743 79.611 L
574.716 79.708 L
574.69 79.804 L
574.69 79.804 L
574.664 80.094 L
574.531 80.19 L
574.505 80.287 L
574.452 80.287 L
574.425 80.287 L
574.372 80.48 L
574.319 80.673 L
574.267 80.673 L
574.187 80.77 L
574.187 80.77 L
574.134 80.77 L
574.081 80.77 L
574.002 80.866 L
573.923 80.866 L
573.923 80.866 L
573.923 80.866 L
573.896 80.866 L
573.87 80.866 L
573.87 80.866 L
573.79 80.963 L
573.711 80.963 L
573.684 80.963 L
573.631 81.059 L
573.578 81.059 L
573.526 81.156 L
573.499 81.252 L
573.499 81.349 L
573.499 81.445 L
573.446 81.542 L
573.367 81.542 L
573.34 81.638 L
573.34 81.638 L
573.287 81.638 L
573.261 81.638 L
573.208 81.638 L
573.155 81.638 L
573.023 81.831 L
572.943 82.121 L
572.89 82.218 L
572.864 82.218 L
572.864 82.218 L
572.784 82.218 L
572.758 82.218 L
572.679 82.218 L
572.626 82.218 L
572.599 82.218 L
572.546 82.314 L
572.467 82.411 L
572.308 82.411 L
572.229 82.411 L
572.176 82.604 L
572.043 82.604 L
571.99 82.7 L
571.911 82.7 L
571.885 82.893 L
571.885 83.086 L
571.752 83.086 L
571.673 83.279 L
571.408 83.569 L
571.302 83.762 L
571.276 83.955 L
571.117 84.052 L
570.932 84.052 L
570.799 84.245 L
570.667 84.341 L
570.614 84.341 L
570.429 84.438 L
570.244 84.534 L
570.138 84.824 L
570.006 84.824 L
569.82 84.824 L
569.635 84.921 L
569.344 84.921 L
568.973 84.921 L
568.682 85.114 L
568.418 85.307 L
568.1 85.403 L
567.677 85.5 L
567.147 85.596 L
566.618 85.886 L
565.983 85.982 L
565.401 85.982 L
564.739 85.982 L
564.051 86.079 L
563.521 86.272 L
562.78 86.562 L
562.092 86.755 L
561.007 86.948 L
560.451 87.044 L
559.737 87.237 L
559.128 87.623 L
558.017 87.72 L
557.064 87.913 L
556.482 88.106 L
555.502 88.299 L
554.682 88.396 L
553.967 88.685 L
553.332 88.782 L
552.512 88.975 L
551.823 89.265 L
551.347 89.361 L
550.712 89.747 L
550.05 89.94 L
549.706 90.037 L
549.283 90.326 L
548.859 90.423 L
548.409 90.713 L
548.171 90.906 L
548.012 90.906 L
547.721 91.846 L
547.218 92.095 L
546.795 92.481 L
546.689 92.578 L
546.345 92.98 L
546.133 93.366 L
546.08 93.961 L
545.948 93.961 L
545.789 94.306 L
545.683 94.692 L
545.551 95.038 L
545.366 95.384 L
545.181 95.384 L
545.101 95.577 L
545.022 95.673 L
544.863 95.77 L
544.757 96.116 L
544.731 96.365 L
544.492 96.365 L
544.307 96.461 L
544.095 96.751 L
544.043 97.097 L
543.884 97.29 L
543.857 97.925 L
543.751 97.925 L
543.725 98.118 L
543.593 98.118 L
543.407 98.311 L
543.302 98.504 L
543.249 98.753 L
543.222 99.043 L
543.143 99.236 L
543.01 99.236 L
542.905 99.236 L
542.852 99.526 L
542.666 99.719 L
542.508 99.912 L
542.322 100.257 L
542.216 100.354 L
542.084 100.45 L
541.978 100.45 L
541.872 100.547 L
541.793 100.893 L
541.608 100.989 L
541.396 101.086 L
541.343 101.086 L
541.158 101.279 L
541.078 101.375 L
540.999 101.472 L
540.946 101.721 L
540.814 101.721 L
540.787 101.818 L
540.734 101.914 L
540.628 102.204 L
540.602 102.3 L
540.496 102.397 L
540.39 102.493 L
540.284 102.686 L
540.099 102.879 L
539.967 102.976 L
539.755 103.266 L
539.517 103.459 L
539.279 103.652 L
538.935 103.941 L
538.643 104.038 L
538.432 104.134 L
538.061 104.327 L
537.77 104.424 L
537.426 104.907 L
537.029 105.003 L
536.632 105.1 L
536.288 105.389 L
535.865 105.582 L
535.441 105.582 L
534.753 106.258 L
534.25 106.644 L
533.615 106.741 L
533.165 106.741 L
532.133 106.934 L
531.18 106.934 L
530.386 107.223 L
529.619 107.416 L
527.369 107.513 L
522.884 108.525 L
512.769 110.799 L
500.285 114.085 L
492.432 116.76 L
490.13 117.965 L
489.091 118.407 L
486.2 118.697 L
485.188 118.987 L
484.017 119.276 L
483.084 119.469 L
482.231 119.718 L
479.035 120.201 L
477.97 120.394 L
477.414 120.74 L
477.044 121.029 L
476.541 121.126 L
476.223 121.319 L
475.588 121.665 L
475.297 121.858 L
475.032 122.051 L
474.635 122.244 L
474.397 122.742 L
473.65 123.337 L
472.875 123.53 L
471.698 124.013 L
471.407 124.302 L
471.036 124.399 L
470.394 124.689 L
470.05 124.882 L
469.733 125.075 L
469.012 125.364 L
468.721 125.654 L
468.403 125.654 L
466.604 125.847 L
459.796 125.943 L
453.121 126.233 L
443.998 126.579 L
439.182 126.675 L
434.392 126.868 L
433.023 127.061 L
432.031 127.254 L
430.284 127.351 L
428.941 127.448 L
428.405 127.641 L
428.273 127.834 L
427.982 128.123 L
425.508 128.22 L
415.736 128.316 L
406.018 128.509 L
395.116 128.606 L
392.238 128.702 L
391.193 128.992 L
389.499 129.089 L
388.857 129.282 L
387.918 129.531 L
386.846 130.11 L
386.257 130.207 L
385.616 130.745 L
385.43 131.228 L
384.762 131.228 L
383.796 131.518 L
383.155 131.67 L
382.056 131.67 L
380.958 131.823 L
379.966 132.016 L
379.35 132.209 L
379.059 132.458 L
378.927 132.804 L
378.715 132.997 L
378.371 133.19 L
378.054 133.19 L
377.842 133.286 L
377.604 133.383 L
377.418 133.576 L
377.286 133.576 L
376.942 133.673 L
376.651 133.673 L
376.519 134.018 L
376.386 134.46 L
376.148 134.654 L
375.963 134.943 L
375.804 135.289 L
375.619 135.482 L
375.407 135.675 L
375.301 135.965 L
375.169 136.061 L
375.01 136.254 L
374.772 136.254 L
374.64 136.351 L
374.534 136.447 L
374.348 136.544 L
374.216 136.737 L
374.031 136.833 L
373.74 136.93 L
373.607 136.93 L
373.554 137.316 L
373.316 137.606 L
373.131 137.606 L
373.025 137.606 L
372.84 137.992 L
372.681 138.088 L
372.602 138.088 L
372.522 138.474 L
372.311 138.571 L
372.152 138.667 L
372.125 138.764 L
372.046 138.957 L
371.887 139.15 L
371.834 139.247 L
371.675 139.343 L
371.517 139.343 L
371.384 139.44 L
371.173 139.536 L
371.067 139.729 L
370.881 140.019 L
370.802 140.019 L
370.484 140.019 L
370.405 140.115 L
370.326 140.309 L
370.193 140.598 L
370.114 140.888 L
369.982 141.177 L
369.982 141.563 L
369.796 141.563 L
369.664 141.66 L
369.611 141.66 L
369.558 141.66 L
369.452 141.757 L
369.452 141.95 L
369.346 141.95 L
369.293 141.95 L
369.214 142.143 L
369.108 142.239 L
369.029 142.625 L
368.949 142.915 L
368.87 142.915 L
368.791 143.108 L
368.711 143.205 L
368.605 143.205 L
368.096 143.301 L
368.069 143.743 L
367.99 144.242 L
367.858 144.435 L
367.699 144.435 L
367.646 145.029 L
367.567 145.335 L
367.487 146.042 L
367.408 146.235 L
367.328 146.387 L
367.276 146.58 L
367.249 146.58 L
367.117 146.733 L
366.958 146.83 L
366.931 147.44 L
366.931 147.842 L
366.852 148.34 L
366.773 149.408 L
366.72 150.573 L
366.587 152.043 L
366.508 152.694 L
366.508 154.261 L
366.429 155.37 L
366.429 155.964 L
366.349 156.808 L
366.243 157.21 L
366.111 158.721 L
366.058 159.926 L
366.005 160.231 L
365.926 160.633 L
365.873 161.131 L
365.767 161.879 L
365.688 162.321 L
365.661 162.61 L
365.661 162.997 L
365.582 163.535 L
365.502 163.535 L
365.396 163.881 L
365.343 163.881 L
365.291 164.557 L
365.264 164.653 L
365.238 164.75 L
365.211 165.039 L
365.158 165.385 L
365.105 165.482 L
365.105 165.578 L
365.079 165.868 L
365.079 166.061 L
365.052 166.64 L
364.999 166.833 L
364.999 167.026 L
364.973 167.316 L
364.973 167.412 L
364.947 167.605 L
364.947 168.088 L
364.92 168.667 L
364.894 168.957 L
364.841 169.053 L
364.841 169.343 L
364.814 169.785 L
364.814 169.978 L
364.788 170.227 L
364.761 170.324 L
364.735 170.766 L
364.682 171.554 L
364.682 171.956 L
364.655 172.398 L
364.629 172.881 L
364.602 173.282 L
364.602 173.379 L
364.549 173.821 L
364.523 174.263 L
364.497 174.665 L
364.47 175.067 L
364.47 175.163 L
364.391 175.356 L
364.364 175.509 L
364.311 175.606 L
364.311 175.895 L
364.285 176.241 L
364.285 176.394 L
364.285 176.394 L
364.285 176.587 L
364.232 176.988 L
364.205 177.487 L
363.775 177.736 L
363.723 178.081 L
363.696 178.178 L
363.67 178.371 L
363.617 178.468 L
363.59 178.813 L
363.59 179.103 L
363.564 179.392 L
363.537 179.682 L
363.511 180.165 L
363.484 180.261 L
363.458 180.551 L
363.405 180.551 L
363.378 180.84 L
363.326 181.379 L
363.326 181.379 L
363.326 181.669 L
363.326 181.862 L
363.299 182.152 L
363.246 182.441 L
363.22 182.69 L
363.22 182.883 L
363.193 183.076 L
363.193 183.615 L
363.193 184.057 L
363.167 184.443 L
363.167 184.733 L
363.167 185.023 L
363.167 185.368 L
363.167 185.811 L
363.14 186.1 L
363.114 186.542 L
363.087 186.735 L
363.034 186.929 L
363.008 187.218 L
362.929 187.411 L
362.876 187.853 L
362.849 187.95 L
362.823 188.448 L
362.77 188.448 L
362.743 188.738 L
362.69 188.738 L
362.69 188.987 L
362.637 189.084 L
362.637 189.084 L
362.611 189.277 L
362.558 189.47 L
362.505 189.566 L
362.452 189.952 L
362.399 190.201 L
362.373 190.201 L
362.373 190.395 L
362.346 190.491 L
362.293 190.684 L
362.293 190.877 L
362.267 190.877 L
362.214 191.167 L
362.187 191.36 L
362.187 191.456 L
362.108 191.746 L
362.108 191.746 L
362.108 191.939 L
362.082 192.036 L
362.002 192.229 L
361.949 192.864 L
361.949 193.017 L
361.949 193.266 L
361.923 193.708 L
361.923 193.997 L
361.896 194.287 L
361.817 194.384 L
361.79 194.673 L
361.79 194.922 L
361.79 194.922 L
361.79 195.019 L
361.79 195.115 L
361.711 195.365 L
361.658 195.847 L
361.658 196.33 L
361.658 196.33 L
361.632 196.426 L
361.605 196.716 L
361.579 197.102 L
361.526 197.199 L
361.149 197.392 L
361.149 197.585 L
361.122 197.971 L
361.043 198.164 L
360.99 198.647 L
360.99 199.033 L
360.964 199.033 L
360.937 199.322 L
360.937 199.612 L
360.937 199.612 L
360.937 199.709 L
360.884 199.709 L
360.805 199.902 L
360.752 200.633 L
360.672 200.827 L
360.646 201.02 L
360.566 201.213 L
360.54 201.309 L
360.461 201.406 L
360.355 201.599 L
360.328 201.599 L
360.275 201.792 L
360.249 201.888 L
360.17 201.985 L
360.143 201.985 L
360.037 202.275 L
359.958 202.468 L
359.852 202.564 L
359.799 202.661 L
359.746 202.757 L
359.614 202.854 L
359.508 203.143 L
359.428 203.24 L
356.09 203.433 L
356.011 203.517 L
354.263 203.602 L
347.693 204.108 L
341.175 205.483 L
326.445 207.449 L
318.18 209.403 L
308.457 211.526 L
293.912 214.842 L
284.189 217.459 L
279.262 219.076 L
275.95 220.511 L
272.612 222.098 L
269.38 222.81 L
269.327 224.068 L
269.301 224.78 L
269.221 225.198 L
269.168 225.849 L
269.089 226.03 L
269.036 226.352 L
269.036 226.738 L
268.983 227.072 L
268.93 227.309 L
268.798 227.727 L
268.718 228.185 L
268.639 228.559 L
268.613 228.812 L
268.454 229.062 L
268.189 229.062 L
268.057 229.697 L
267.898 229.697 L
267.713 229.793 L
267.475 230.276 L
267.13 230.65 L
266.972 230.996 L
266.601 231.59 L
266.363 231.59 L
265.939 231.687 L
265.49 232.419 L
265.251 232.998 L
264.696 233.44 L
264.219 233.786 L
263.69 234.381 L
263.134 234.767 L
262.658 235.253 L
261.943 235.558 L
261.334 236.209 L
261.096 236.997 L
260.514 237.19 L
259.905 237.688 L
259.455 237.938 L
258.767 238.532 L
258.053 238.726 L
257.232 239.168 L
256.809 239.168 L
256.359 239.264 L
255.697 239.361 L
255.221 239.984 L
254.877 240.177 L
254.48 240.177 L
254.242 240.426 L
253.924 241.077 L
253.553 241.326 L
253.368 241.672 L
253.262 243.335 L
253.051 243.946 L
252.918 244.596 L
252.786 245.665 L
252.707 246.468 L
252.601 247.119 L
252.521 247.397 L
252.442 247.397 L
252.362 247.493 L
252.336 247.686 L
252.31 247.783 L
252.257 247.976 L
252.23 248.362 L
252.23 248.555 L
252.177 248.555 L
252.177 248.901 L
252.151 248.901 L
252.151 249.094 L
252.151 249.19 L
252.151 249.439 L
252.151 249.826 L
252.151 249.978 L
252.151 249.978 L
252.124 250.324 L
252.071 250.42 L
251.992 250.505 L
251.992 250.851 L
251.966 250.851 L
251.966 250.947 L
251.913 250.947 L
251.886 251.044 L
251.86 251.14 L
251.807 251.486 L
251.807 251.679 L
251.807 251.872 L
251.807 251.872 L
251.754 252.065 L
251.648 252.162 L
251.621 252.7 L
251.569 252.893 L
251.542 253.086 L
251.542 253.473 L
251.516 253.473 L
251.489 253.762 L
251.436 253.762 L
251.436 253.762 L
251.41 253.943 L
251.357 253.943 L
251.33 254.233 L
251.277 254.329 L
251.198 254.619 L
251.172 254.908 L
251.145 255.102 L
251.092 255.447 L
251.092 255.64 L
251.039 255.833 L
251.039 255.833 L
251.039 255.833 L
251.013 256.179 L
251.013 256.179 L
251.013 256.276 L
251.013 256.372 L
251.013 256.372 L
250.986 256.746 L
250.986 257.036 L
250.96 257.229 L
250.96 257.325 L
250.96 257.615 L
250.96 258.001 L
250.96 258.001 L
250.96 258.25 L
250.933 258.636 L
250.933 258.636 L
250.907 258.733 L
250.907 258.829 L
250.88 259.022 L
250.854 259.216 L
250.827 259.312 L
250.801 259.602 L
250.801 260.181 L
250.775 260.47 L
250.748 260.567 L
250.748 261.146 L
250.722 261.436 L
250.722 261.713 L
250.695 262.099 L
250.669 262.775 L
250.669 262.968 L
250.669 263.161 L
250.669 263.354 L
250.669 263.354 L
250.669 263.547 L
250.642 263.74 L
250.642 263.74 L
250.563 264.03 L
250.563 264.127 L
250.563 264.223 L
250.563 264.32 L
250.536 264.416 L
250.483 264.609 L
250.483 264.802 L
250.457 265.08 L
250.457 265.369 L
250.457 265.466 L
250.43 265.466 L
250.404 265.659 L
250.404 266.13 L
250.404 266.214 L
250.404 266.214 L
250.404 266.914 L
250.378 267.444 L
250.378 268.035 L
250.351 268.566 L
250.351 269.35 L
250.351 269.784 L
250.325 270.375 L
250.325 271.581 L
250.325 272.1 L
250.298 272.952 L
250.245 273.652 L
250.245 274.424 L
250.245 275.618 L
250.192 276.136 L
250.192 276.764 L
250.113 277.282 L
250.113 278.669 L
250.086 280.466 L
250.06 283.048 L
250.033 284.591 L
249.981 285.098 L
249.954 285.749 L
249.901 286.461 L
249.848 287.257 L
249.795 287.704 L
249.795 288.259 L
249.716 288.693 L
249.716 289.392 L
249.663 289.827 L
249.663 290.189 L
249.61 290.804 L
249.557 291.081 L
249.531 291.334 L
249.504 292.709 L
249.451 295.037 L
249.425 297.847 L
249.425 301.321 L
249.372 302.792 L
249.345 303.661 L
249.213 304.529 L
249.16 305.916 L
249.107 307.569 L
249.028 308.944 L
248.975 310.934 L
248.895 312.803 L
248.763 316.144 L
248.446 319.316 L
248.128 321.447 L
247.519 323.268 L
246.699 325.27 L
245.614 326.983 L
244.555 328.032 L
243.735 328.841 L
243.073 329.926 L
242.65 330.542 L
242.385 331.313 L
242.253 332.375 L
242.12 333.352 L
242.094 335.414 L
241.961 336.44 L
240.05 338.321 L
236.226 341.662 L
234.559 343.037 L
233.322 344.593 L
232.382 345.739 L
232.276 346.603 L
231.443 347.717 L
230.503 349.462 L
229.941 351.656 L
229.809 353.015 L
164.577 355.279 L
136.568 369.698 L
135.734 400.516 L
134.901 414.996 L
134.067 423.997 L
133.611 434.896 L
133.207 440.623 L
133.181 448.819 L
133.101 455.618 L
132.671 461.889 L
132.618 466.884 L
132.215 473.825 L
132.215 479.662 L
131.838 490.106 L
131.408 508.614 L
130.653 520.74 L
127.61 526.007 L
123.462 530.446 L
122.331 535.512 L
120.419 539.8 L
99.653 548.951 L
94.189 557.781 L
92.714 569.886 L
91 609 L
91 609 L
S
GR
GS
[0.75 0 0 0.75 0 0] CT
0.494 0.184 0.557 RC
[16 4 8 4] 0 setdash
2 LJ
4 LW
N
634 66 M
608.249 66 L
606.634 66 L
606.184 66 L
605.761 66 L
605.337 66 L
604.993 66 L
604.305 66 L
603.908 66 L
603.485 66 L
602.559 66 L
601.553 66 L
600.785 66 L
599.912 66 L
599.092 66 L
597.742 66 L
596.604 66 L
595.572 66 L
594.831 66 L
594.195 66.097 L
593.719 66.29 L
593.269 66.676 L
593.057 66.772 L
592.819 66.772 L
592.554 67.062 L
592.263 67.351 L
591.946 67.738 L
591.549 67.738 L
591.258 67.931 L
590.834 68.027 L
590.517 68.22 L
590.146 68.51 L
589.855 68.993 L
589.405 69.282 L
589.167 69.475 L
588.876 69.861 L
588.585 70.247 L
588.373 70.634 L
588.241 70.923 L
587.976 71.213 L
587.791 71.502 L
587.235 71.889 L
586.732 71.985 L
586.123 72.178 L
585.197 72.371 L
583.9 72.661 L
582.947 72.757 L
581.095 73.143 L
578.925 73.24 L
576.172 73.433 L
573.367 73.819 L
571.17 74.495 L
569.265 74.881 L
567.571 75.074 L
566.38 75.267 L
565.612 75.364 L
564.924 75.75 L
564.712 75.943 L
564.527 76.426 L
564.342 77.005 L
564.157 77.294 L
563.971 77.584 L
563.892 77.777 L
563.733 77.874 L
563.574 78.163 L
563.442 78.453 L
563.283 78.742 L
563.098 78.935 L
562.966 79.129 L
562.727 79.418 L
562.622 79.515 L
562.489 79.708 L
562.278 79.708 L
562.092 79.901 L
561.907 80.577 L
561.722 80.866 L
561.616 80.963 L
561.457 81.252 L
561.378 81.638 L
561.06 81.735 L
560.875 82.121 L
560.531 82.604 L
560.24 82.797 L
559.922 83.183 L
559.499 83.376 L
558.916 83.666 L
558.308 83.762 L
557.54 83.955 L
556.508 84.341 L
555.423 84.824 L
554.258 85.114 L
552.935 85.403 L
551.718 85.693 L
550.315 85.789 L
548.78 85.886 L
547.324 86.465 L
545.71 86.948 L
544.492 87.044 L
543.46 87.527 L
542.64 87.623 L
541.978 87.817 L
541.105 88.299 L
540.708 88.782 L
540.337 88.782 L
539.861 88.878 L
539.517 89.168 L
539.305 89.747 L
539.12 89.94 L
538.829 90.037 L
538.591 90.326 L
538.432 90.423 L
538.326 90.616 L
538.061 90.713 L
537.797 91.002 L
537.638 91.002 L
537.453 91.195 L
537.267 91.195 L
537.003 91.292 L
536.844 91.581 L
536.579 91.581 L
536.315 91.678 L
536.076 91.871 L
535.812 91.871 L
535.6 92.064 L
535.335 92.064 L
535.071 92.257 L
534.753 92.643 L
534.488 92.933 L
534.224 93.222 L
533.827 93.319 L
533.377 93.415 L
532.98 93.802 L
532.715 93.995 L
532.318 93.995 L
531.842 94.091 L
531.551 94.188 L
531.207 94.574 L
530.783 94.863 L
530.439 95.153 L
530.148 95.153 L
529.989 95.443 L
529.645 95.539 L
529.301 95.829 L
528.931 96.118 L
528.745 96.215 L
528.348 96.311 L
528.137 96.311 L
527.819 96.505 L
527.607 96.698 L
527.396 96.698 L
527.131 96.698 L
526.999 96.987 L
526.654 97.277 L
526.39 97.566 L
525.993 97.759 L
525.622 97.856 L
525.199 98.146 L
524.855 98.242 L
524.484 98.242 L
524.246 98.339 L
523.981 98.628 L
523.584 98.918 L
523.187 98.918 L
523.002 99.014 L
522.685 99.207 L
522.341 99.207 L
522.049 99.401 L
521.891 99.401 L
521.732 99.497 L
521.441 99.497 L
521.15 99.594 L
520.911 99.69 L
520.753 99.69 L
520.647 99.69 L
520.541 99.787 L
520.409 99.883 L
520.276 99.883 L
520.091 100.076 L
520.012 100.269 L
519.932 100.269 L
519.853 100.366 L
519.773 100.559 L
519.667 100.559 L
519.588 100.655 L
519.271 100.752 L
519.112 100.945 L
518.926 100.945 L
518.821 101.042 L
518.688 101.042 L
518.582 101.138 L
518.503 101.138 L
518.318 101.138 L
518.238 101.138 L
517.974 101.235 L
517.868 101.235 L
517.841 101.428 L
517.683 101.428 L
517.471 101.428 L
517.365 101.621 L
517.286 101.621 L
517.206 101.621 L
517.1 101.621 L
517.1 101.717 L
516.942 101.717 L
516.915 101.814 L
516.862 101.91 L
516.73 102.103 L
516.65 102.2 L
516.597 102.297 L
516.518 102.297 L
516.386 102.297 L
516.333 102.297 L
516.2 102.393 L
516.121 102.393 L
515.962 102.393 L
515.936 102.393 L
515.777 102.393 L
515.724 102.393 L
515.512 102.49 L
515.433 102.49 L
515.406 102.586 L
515.354 102.683 L
515.195 102.876 L
514.983 102.876 L
514.877 102.972 L
514.824 102.972 L
514.745 102.972 L
514.639 102.972 L
514.586 102.972 L
514.586 103.165 L
514.507 103.262 L
514.48 103.262 L
514.427 103.358 L
514.401 103.358 L
514.374 103.358 L
514.321 103.358 L
514.189 103.455 L
514.083 103.551 L
514.004 103.551 L
514.004 103.745 L
513.951 103.841 L
513.951 103.841 L
513.898 103.841 L
513.845 103.938 L
513.845 104.034 L
513.819 104.131 L
513.792 104.227 L
513.792 104.227 L
513.766 104.324 L
513.739 104.324 L
513.686 104.517 L
513.66 104.613 L
513.66 104.71 L
513.633 104.71 L
513.58 104.71 L
513.58 104.71 L
513.58 104.71 L
513.58 104.903 L
513.58 105.289 L
513.58 105.386 L
513.58 105.482 L
513.527 105.675 L
513.501 105.965 L
513.474 106.061 L
513.474 106.351 L
513.474 106.447 L
513.422 106.641 L
513.369 107.027 L
513.316 107.316 L
513.289 107.606 L
513.21 107.799 L
513.157 107.895 L
513.13 108.185 L
513.078 108.185 L
513.051 108.185 L
512.972 108.282 L
512.945 108.378 L
512.945 108.475 L
512.892 108.764 L
512.866 109.054 L
512.733 109.15 L
512.707 109.15 L
512.628 109.247 L
512.548 109.343 L
512.548 109.343 L
512.522 109.343 L
512.495 109.44 L
512.416 109.537 L
512.389 109.537 L
512.31 109.537 L
512.31 109.633 L
512.31 109.73 L
512.284 109.73 L
512.231 109.826 L
512.178 110.116 L
512.178 110.116 L
512.178 110.309 L
512.178 110.309 L
512.125 110.502 L
512.098 110.598 L
512.019 110.695 L
511.939 110.695 L
511.86 110.888 L
511.834 111.081 L
511.701 111.178 L
511.622 111.274 L
511.542 111.467 L
511.49 111.467 L
511.437 111.564 L
511.278 111.66 L
511.172 111.757 L
511.04 111.95 L
510.881 112.046 L
510.749 112.336 L
510.643 112.722 L
510.352 112.819 L
510.087 112.819 L
509.743 113.012 L
509.505 113.108 L
509.293 113.301 L
509.055 113.398 L
508.684 113.881 L
508.234 113.881 L
507.97 114.17 L
507.626 114.46 L
507.255 114.749 L
506.99 114.942 L
506.673 115.232 L
506.249 115.425 L
505.985 115.618 L
505.588 116.101 L
505.191 116.487 L
504.741 116.583 L
504.211 116.777 L
503.523 117.066 L
503.206 117.356 L
502.676 117.356 L
501.829 117.549 L
501.274 117.935 L
500.4 118.321 L
499.897 118.611 L
499.183 118.804 L
498.548 119.093 L
497.886 119.19 L
497.383 119.383 L
496.589 119.576 L
495.663 119.673 L
495.054 119.673 L
493.784 119.962 L
492.778 120.155 L
492.064 120.541 L
491.296 120.734 L
490.529 120.734 L
489.496 120.734 L
488.702 120.927 L
488.041 120.927 L
487.194 121.024 L
486.479 121.314 L
485.659 121.7 L
484.786 121.7 L
484.124 121.989 L
483.595 122.086 L
482.853 122.472 L
481.954 122.665 L
481.345 123.051 L
480.895 123.341 L
480.339 123.534 L
479.81 123.823 L
479.492 124.017 L
478.91 124.403 L
478.487 124.499 L
477.957 124.885 L
477.56 125.078 L
477.243 125.078 L
476.846 125.368 L
476.66 125.465 L
476.343 125.561 L
476.052 125.658 L
475.946 125.851 L
475.761 125.947 L
475.39 125.947 L
475.178 126.237 L
474.834 126.623 L
474.57 127.009 L
474.331 127.202 L
474.12 127.395 L
473.961 127.781 L
473.802 127.781 L
473.59 127.878 L
473.458 128.071 L
473.299 128.167 L
473.114 128.264 L
472.876 128.747 L
472.691 128.843 L
472.426 129.036 L
472.241 129.036 L
471.87 129.133 L
471.553 129.326 L
471.394 129.326 L
471.235 129.326 L
471.023 129.712 L
470.864 129.809 L
470.653 130.098 L
470.415 130.098 L
470.229 130.195 L
470.123 130.195 L
470.07 130.388 L
469.912 130.388 L
469.779 130.581 L
469.621 130.581 L
469.488 130.774 L
469.409 130.774 L
469.25 130.967 L
469.065 130.967 L
469.012 131.063 L
468.906 131.16 L
468.8 131.257 L
468.721 131.546 L
468.694 131.643 L
468.615 131.932 L
468.509 131.932 L
468.35 132.125 L
468.218 132.318 L
468.112 132.511 L
468.059 132.608 L
467.953 132.994 L
467.821 132.994 L
467.741 133.284 L
467.741 133.766 L
467.689 134.153 L
467.609 134.442 L
467.609 134.828 L
467.609 135.118 L
467.556 135.214 L
467.53 135.407 L
467.53 136.083 L
467.53 136.083 L
467.477 136.18 L
467.45 136.566 L
467.397 136.855 L
467.397 137.049 L
467.397 137.242 L
467.397 137.338 L
467.397 137.531 L
467.397 137.724 L
467.397 138.11 L
467.292 138.207 L
467.292 138.705 L
467.265 139.204 L
467.265 139.356 L
467.212 139.702 L
467.159 139.895 L
467.133 140.434 L
467.106 140.932 L
467.106 141.125 L
467.106 141.608 L
467.106 141.953 L
467.027 142.452 L
467.027 142.99 L
467 143.722 L
467 144.068 L
467 144.414 L
467 144.51 L
467 144.703 L
467 144.993 L
467 145.089 L
466.974 145.588 L
466.974 146.086 L
466.974 146.584 L
466.948 147.332 L
466.921 147.428 L
466.921 148.079 L
466.895 149.091 L
464.983 149.493 L
458.572 152.891 L
444.243 159.453 L
437.833 162.755 L
431.799 165.044 L
429.537 168.747 L
428.783 171.27 L
426.897 172.572 L
425.362 173.223 L
424.985 173.833 L
424.985 174.372 L
424.959 175.063 L
424.959 175.312 L
424.959 175.699 L
424.959 175.948 L
424.959 176.39 L
424.582 176.736 L
424.582 177.137 L
423.828 177.692 L
423.451 178.134 L
422.696 178.48 L
421.188 178.576 L
415.532 178.673 L
402.711 179.324 L
395.169 179.822 L
390.644 180.32 L
389.513 181.124 L
387.251 181.581 L
385.365 181.887 L
382.349 182.441 L
374.807 182.731 L
358.189 183.02 L
349.866 183.712 L
347.604 184.154 L
345.341 184.347 L
343.833 184.789 L
342.325 185.424 L
341.571 185.714 L
341.571 185.811 L
341.571 186.349 L
341.194 186.832 L
341.167 187.025 L
341.167 187.757 L
341.167 187.95 L
341.167 188.296 L
341.167 188.392 L
341.167 188.738 L
341.167 189.18 L
341.167 189.622 L
341.141 190.024 L
341.141 190.314 L
341.141 190.659 L
341.141 190.659 L
341.141 190.756 L
341.141 191.005 L
341.141 191.005 L
341.141 191.254 L
341.141 191.254 L
341.141 191.447 L
341.114 191.64 L
341.114 191.64 L
341.114 191.889 L
341.114 192.139 L
341.114 192.581 L
341.088 192.581 L
341.088 192.677 L
341.088 192.774 L
341.088 192.967 L
341.088 192.967 L
341.061 193.16 L
341.061 193.45 L
341.061 193.795 L
341.061 194.044 L
341.035 194.39 L
341.008 194.39 L
340.982 194.736 L
340.982 195.234 L
340.982 195.234 L
340.982 195.234 L
340.982 195.58 L
340.955 195.676 L
340.955 195.925 L
340.955 196.022 L
340.955 196.118 L
340.929 196.215 L
340.902 196.464 L
340.902 196.769 L
340.876 197.252 L
340.849 197.694 L
340.823 197.791 L
340.77 198.136 L
340.77 198.482 L
340.744 198.828 L
340.664 199.616 L
340.611 200.114 L
340.532 200.821 L
340.479 201.625 L
340.4 202.179 L
340.32 202.581 L
340.214 203.175 L
340.188 203.577 L
340.108 204.533 L
339.976 205.907 L
339.791 206.96 L
339.553 207.498 L
339.314 208.053 L
339.182 208.398 L
339.023 208.398 L
338.732 208.881 L
338.6 209.074 L
338.441 209.653 L
338.388 209.943 L
338.203 210.136 L
338.071 210.385 L
338.018 210.538 L
337.753 210.634 L
337.621 210.731 L
337.462 210.827 L
337.329 211.02 L
337.171 211.173 L
337.065 211.27 L
337.038 211.519 L
336.906 211.712 L
336.827 211.808 L
336.721 212.001 L
336.668 212.098 L
336.562 212.291 L
336.483 212.733 L
336.483 213.038 L
336.43 213.288 L
336.403 213.481 L
336.403 213.867 L
336.35 214.019 L
336.297 214.116 L
336.271 214.212 L
336.271 214.309 L
336.271 214.502 L
336.244 214.599 L
336.165 214.792 L
336.139 215.29 L
336.112 215.539 L
336.086 215.788 L
336.059 215.885 L
336.006 216.037 L
335.98 216.037 L
335.98 216.343 L
335.98 216.439 L
335.98 216.688 L
335.98 216.881 L
335.98 217.074 L
335.98 217.227 L
335.98 217.476 L
335.98 217.573 L
335.98 217.918 L
335.953 218.015 L
335.927 218.015 L
335.927 218.208 L
335.927 218.401 L
335.927 218.498 L
335.927 218.65 L
335.927 218.803 L
335.927 218.803 L
335.927 218.899 L
335.927 218.899 L
335.927 218.996 L
335.927 218.996 L
335.874 218.996 L
335.847 218.996 L
335.821 219.092 L
335.821 219.285 L
335.821 219.575 L
335.821 219.672 L
335.821 219.672 L
335.821 219.672 L
335.768 219.672 L
335.768 219.768 L
335.662 219.865 L
335.636 219.961 L
335.609 219.961 L
335.609 220.058 L
335.609 220.251 L
335.583 220.347 L
335.583 220.347 L
335.583 220.54 L
335.53 220.637 L
335.503 220.637 L
335.477 220.637 L
335.45 220.637 L
335.424 220.637 L
335.371 220.83 L
335.345 220.927 L
335.318 220.927 L
335.318 221.023 L
335.318 221.12 L
335.265 221.12 L
335.239 221.272 L
335.239 221.272 L
335.212 221.562 L
335.212 221.658 L
335.186 221.755 L
335.186 221.755 L
335.159 222.045 L
335.08 222.045 L
335.027 222.045 L
335.027 222.045 L
335.027 222.045 L
334.974 222.045 L
334.921 222.141 L
334.895 222.141 L
334.868 222.238 L
334.842 222.238 L
334.815 222.238 L
334.736 222.238 L
334.736 222.334 L
334.656 222.334 L
334.604 222.431 L
334.524 222.431 L
334.524 222.431 L
334.471 222.624 L
334.418 222.72 L
334.392 222.72 L
334.392 222.72 L
334.392 222.817 L
334.365 222.913 L
334.365 222.913 L
334.339 222.913 L
334.339 223.01 L
334.286 223.299 L
334.259 223.299 L
334.233 223.396 L
334.18 223.396 L
334.18 223.396 L
334.101 223.396 L
334.101 223.493 L
334.101 223.493 L
334.048 223.493 L
333.995 223.493 L
333.968 223.493 L
333.968 223.686 L
333.942 223.879 L
333.889 223.975 L
333.889 224.072 L
333.889 224.168 L
333.836 224.168 L
333.81 224.361 L
333.783 224.554 L
333.783 224.747 L
333.783 225.037 L
333.783 225.286 L
333.73 225.479 L
333.677 225.672 L
333.677 225.865 L
333.624 226.252 L
333.624 226.348 L
333.624 226.734 L
333.624 226.927 L
333.571 227.024 L
333.545 227.024 L
333.545 227.217 L
333.545 227.313 L
333.545 227.41 L
333.518 227.41 L
333.518 227.41 L
333.518 227.506 L
333.439 227.603 L
333.413 227.7 L
333.413 227.796 L
333.386 227.796 L
332.983 227.893 L
332.605 227.893 L
331.474 228.182 L
330.29 228.182 L
329.509 228.279 L
327.922 228.375 L
327.545 228.472 L
326.79 228.568 L
325.957 228.568 L
325.58 228.761 L
325.176 228.954 L
325.15 229.051 L
324.773 229.051 L
324.396 229.148 L
324.018 229.341 L
322.861 229.534 L
322.457 229.534 L
322.457 229.534 L
321.326 229.727 L
320.922 229.823 L
320.896 229.823 L
320.142 229.92 L
319.712 229.92 L
318.958 229.92 L
318.958 230.265 L
318.958 230.265 L
318.203 230.265 L
318.203 230.265 L
318.177 230.459 L
317.773 230.459 L
317.773 230.555 L
317.773 230.845 L
317.396 230.845 L
317.37 230.941 L
317.37 231.134 L
317.37 231.134 L
317.343 231.134 L
317.343 231.327 L
316.966 231.52 L
316.966 231.617 L
316.966 231.907 L
316.966 232.1 L
316.966 232.1 L
316.966 232.293 L
316.536 232.831 L
316.536 233.233 L
316.51 233.426 L
316.483 233.426 L
316.457 233.812 L
316.457 233.812 L
316.027 234.311 L
316.027 234.809 L
316.027 235.002 L
315.974 235.597 L
315.597 235.597 L
315.597 235.597 L
315.22 235.943 L
315.193 236.344 L
315.193 237.397 L
315.167 238.618 L
315.167 240.032 L
315.14 241.044 L
314.763 242.097 L
314.763 243.47 L
314.763 244.482 L
314.763 245.037 L
314.763 245.23 L
314.737 245.326 L
314.737 245.865 L
314.737 246.267 L
314.333 246.363 L
314.333 246.765 L
313.956 246.918 L
313.956 247.32 L
313.956 247.625 L
313.956 247.874 L
313.579 247.971 L
313.579 248.316 L
313.579 248.718 L
313.579 249.369 L
313.176 249.771 L
313.149 250.783 L
313.123 251.699 L
313.123 253.321 L
312.746 254.028 L
312.746 255.193 L
312.693 255.803 L
312.316 255.997 L
312.316 256.149 L
312.316 256.704 L
311.886 257.009 L
311.508 257.451 L
310.754 257.949 L
310 258.905 L
309.246 259.556 L
308.115 260.569 L
308.115 262.44 L
308.115 264.16 L
307.711 266.754 L
307.334 269.18 L
307.308 270.401 L
307.308 270.706 L
306.931 271.012 L
306.931 271.871 L
306.878 272.273 L
306.878 273.229 L
306.878 274.297 L
306.878 275.406 L
306.5 276.113 L
306.5 276.571 L
306.474 277.374 L
306.448 278.483 L
306.448 279.038 L
306.395 279.343 L
305.991 279.745 L
305.991 280.05 L
305.965 280.299 L
305.938 280.685 L
305.938 280.878 L
305.938 281.127 L
305.938 282.292 L
305.938 283.152 L
305.561 285.176 L
305.561 286.646 L
305.535 287.602 L
305.535 288.309 L
305.535 289.265 L
305.508 290.278 L
305.131 291.29 L
305.131 293.884 L
305.131 296.784 L
304.35 299.933 L
303.973 302.471 L
303.14 305.106 L
303.14 307.548 L
303.14 309.323 L
302.763 310.849 L
302.736 312.014 L
302.736 312.874 L
302.306 314.191 L
302.306 314.995 L
302.306 316.063 L
302.306 317.589 L
299.29 318.907 L
293.633 320.377 L
290.967 321.236 L
288.705 321.694 L
285.688 322.401 L
284.153 323.662 L
283.346 324.578 L
282.215 325.326 L
281.838 326.241 L
281.461 328.113 L
279.952 329.736 L
279.198 330.748 L
278.795 332.218 L
278.041 332.62 L
277.663 332.813 L
277.286 333.423 L
277.26 333.978 L
277.26 334.227 L
277.233 334.725 L
277.233 334.725 L
277.207 334.918 L
277.207 335.167 L
277.154 335.416 L
277.101 336.011 L
277.075 336.718 L
277.075 337.313 L
277.075 337.908 L
276.671 339.073 L
276.645 339.627 L
276.241 339.932 L
276.215 340.792 L
275.811 341.25 L
275.785 341.804 L
275.785 342.053 L
275.785 343.259 L
275.758 343.355 L
275.758 344.103 L
275.758 344.754 L
275.732 345.445 L
275.705 345.791 L
275.679 346.538 L
275.679 346.98 L
275.573 347.535 L
275.52 347.824 L
275.467 348.765 L
275.388 349.914 L
275.361 351.231 L
275.335 352.075 L
275.229 353.458 L
275.202 354.439 L
275.096 355.38 L
275.044 356.071 L
274.991 357.164 L
274.911 358.45 L
274.752 359.752 L
274.594 360.499 L
274.594 361.191 L
274.567 362.91 L
274.567 363.601 L
274.514 364.847 L
274.514 366.535 L
274.461 367.323 L
274.435 367.669 L
274.382 368.569 L
274.329 369.011 L
274.276 369.606 L
274.223 370.964 L
274.17 372.515 L
274.117 373.567 L
274.038 375.134 L
273.958 376.13 L
273.906 377.239 L
273.879 377.794 L
273.853 378.79 L
273.747 379.482 L
273.747 380.076 L
273.747 380.824 L
273.72 381.724 L
273.694 382.471 L
273.694 382.97 L
273.667 383.524 L
273.667 384.119 L
273.667 384.947 L
273.641 385.389 L
273.588 385.928 L
273.561 386.66 L
273.561 387.199 L
273.482 388.469 L
273.456 389.877 L
273.403 390.512 L
273.376 391.549 L
273.323 392.698 L
273.297 394.249 L
273.297 395.728 L
273.297 397.127 L
273.27 398.927 L
273.244 400.437 L
273.191 401.739 L
273.164 402.736 L
273.085 404.063 L
273.059 406 L
273.059 407.23 L
273.059 408.018 L
273.059 408.5 L
273.032 409.079 L
273.006 409.369 L
272.979 410.238 L
272.82 410.721 L
272.741 411.493 L
272.688 412.748 L
272.582 414.003 L
272.476 415.161 L
272.291 416.319 L
272.132 417.478 L
272.053 419.988 L
272 422.98 L
272 428 L
91 609 L
S
GR
GS
[0.75 0 0 0.75 0 0] CT
0 0 1 RC
2 setlinecap
10.0 ML
4 LW
N
91 609 M
91 609 L
91 609 L
91 609 L
91 609 L
91 609 L
91 609 L
91 609 L
91 609 L
91 609 L
91 609 L
91 609 L
91 609 L
91 609 L
91 609 L
91 609 L
91 609 L
91 609 L
91 609 L
91 609 L
91 609 L
91 609 L
91 609 L
91 609 L
91 609 L
91 609 L
91 609 L
91 609 L
91 609 L
91 609 L
91 609 L
91 609 L
91 609 L
91 609 L
91 609 L
91 609 L
91 609 L
91 609 L
91 609 L
91 609 L
91 609 L
91 609 L
91 609 L
91 609 L
91 609 L
91 609 L
91 609 L
91 609 L
91 609 L
91 609 L
91 609 L
91 608.861 L
91 608.721 L
91 608.721 L
91 608.303 L
91 608.025 L
91 607.746 L
91 607.328 L
91 607.049 L
91 606.91 L
91.077 606.631 L
91.128 606.353 L
91.205 605.656 L
91.333 603.895 L
91.436 601.995 L
91.59 600.906 L
91.666 599.373 L
91.743 598.955 L
91.769 597.866 L
91.923 595.662 L
92.205 594.041 L
92.717 592.795 L
93.256 589.455 L
93.743 587.293 L
94.179 585.675 L
95.53 581.758 L
99.205 577.337 L
105.837 572.045 L
118.95 567.582 L
128.465 563.136 L
140.133 554.648 L
163.732 541.162 L
180.751 518.296 L
204.505 498.62 L
223.355 480.437 L
241.469 464.011 L
258.913 447.051 L
273.749 431.663 L
296.41 413.861 L
307.214 395.838 L
322.166 379.769 L
328.309 366.56 L
336.255 349.4 L
342.281 333.789 L
349.483 321.567 L
353.624 314.534 L
360.549 304.416 L
368.966 296.142 L
374.107 289.904 L
378.491 285.16 L
381.59 274.325 L
384.215 265.208 L
387.141 255.004 L
390.814 245.756 L
394.444 236.836 L
396.513 231.732 L
398.67 226.137 L
402.241 221.422 L
405.09 218.173 L
407.167 216.12 L
411.507 211.179 L
415.224 207.888 L
420.261 205.852 L
426.146 203.11 L
431.571 196.804 L
435.551 192.643 L
438.214 190.765 L
440.037 189.392 L
443.422 179.75 L
445.436 177.028 L
446.85 173.393 L
448.736 169.835 L
450.277 164.792 L
455.491 160.208 L
459.322 156.468 L
462.39 153.424 L
465.845 149.633 L
468.966 146.277 L
471.735 143.339 L
474.977 139.548 L
478.923 135.913 L
482.652 132.085 L
488.913 128.18 L
494.127 124.476 L
497.572 120.389 L
503.344 116.737 L
511.191 112.721 L
515.574 109.001 L
517.313 106.236 L
520.047 105.019 L
522.952 104.132 L
527.437 101.871 L
531.802 99.766 L
534.151 98.583 L
536.262 97.104 L
540.937 94.18 L
543.046 92.596 L
546.277 90.631 L
557.576 88.649 L
561.494 88.04 L
563.922 85.5 L
564.153 83.341 L
565.782 82.403 L
566.013 81.325 L
566.991 80.472 L
567.994 79.724 L
569.536 79.288 L
571.671 78.575 L
574.253 77.426 L
575.461 76.868 L
576.369 76.45 L
577.073 75.614 L
578.05 75.196 L
580.855 74.082 L
582.39 73.664 L
584.276 73.246 L
585.503 72.688 L
586.883 72.41 L
589.011 71.992 L
590.941 71.295 L
592.091 70.877 L
594.365 70.18 L
596.914 69.623 L
598.064 69.065 L
599.463 68.926 L
600.836 68.508 L
601.686 68.09 L
602.835 67.951 L
604.758 67.533 L
605.033 67.115 L
605.857 67.115 L
620.74 66.975 L
623.512 66.836 L
624.885 66.697 L
628.232 66.557 L
631.803 66.557 L
632.627 66.418 L
633.176 66.279 L
633.451 66.279 L
633.725 66.279 L
633.725 66 L
634 66 L
634 66 L
634 66 L
634 66 L
634 66 L
634 66 L
634 66 L
634 66 L
634 66 L
634 66 L
634 66 L
634 66 L
634 66 L
634 66 L
634 66 L
634 66 L
634 66 L
634 66 L
634 66 L
634 66 L
634 66 L
634 66 L
634 66 L
634 66 L
634 66 L
634 66 L
634 66 L
634 66 L
634 66 L
634 66 L
634 66 L
634 66 L
634 66 L
634 66 L
634 66 L
634 66 L
634 66 L
634 66 L
634 66 L
634 66 L
634 66 L
634 66 L
634 66 L
634 66 L
634 66 L
634 66 L
634 66 L
634 66 L
634 66 L
634 66 L
634 66 L
634 66 L
634 66 L
634 66 L
634 66 L
634 66 L
634 66 L
634 66 L
634 66 L
634 66 L
634 66 L
S
GR
GS
[0.75 0 0 0.75 271.875 44] CT
/Helvetica-Bold 29 F
GS
[1 0 0 1 0 0] CT
-146.671 -6.321 moveto 
1 -1 scale
(Average ROC Curves) t 
GR
GR
GS
[0.75 0 0 0.75 0 0] CT
1 GC
N
441 596 M
441 442 L
621 442 L
621 596 L
cp
f
GR
GS
[0.75 0 0 0.75 369.73563 344.45057] CT
/Helvetica 24 F
GS
[1 0 0 1 0 0] CT
0 9.535 moveto 
1 -1 scale
(N = 1) t 
GR
GR
GS
[0.75 0 0 0.75 0 0] CT
0 0.447 0.741 RC
[16 4 8 4] 0 setdash
2 LJ
4 LW
N
448.997 459.267 M
488.982 459.267 L
S
GR
GS
[0.75 0 0 0.75 369.73563 366.85027] CT
/Helvetica 24 F
GS
[1 0 0 1 0 0] CT
0 9.535 moveto 
1 -1 scale
(N = 2) t 
GR
GR
GS
[0.75 0 0 0.75 0 0] CT
0.851 0.325 0.098 RC
[16 4 8 4] 0 setdash
2 LJ
4 LW
N
448.997 489.134 M
488.982 489.134 L
S
GR
GS
[0.75 0 0 0.75 369.73563 389.25] CT
/Helvetica 24 F
GS
[1 0 0 1 0 0] CT
0 9.535 moveto 
1 -1 scale
(N = 5) t 
GR
GR
GS
[0.75 0 0 0.75 0 0] CT
0.929 0.694 0.125 RC
[16 4 8 4] 0 setdash
2 LJ
4 LW
N
448.997 519 M
488.982 519 L
S
GR
GS
[0.75 0 0 0.75 369.73563 411.6497] CT
/Helvetica 24 F
GS
[1 0 0 1 0 0] CT
0 9.535 moveto 
1 -1 scale
(N = 10) t 
GR
GR
GS
[0.75 0 0 0.75 0 0] CT
0.494 0.184 0.557 RC
[16 4 8 4] 0 setdash
2 LJ
4 LW
N
448.997 548.866 M
488.982 548.866 L
S
GR
GS
[0.75 0 0 0.75 369.73563 434.04945] CT
/Helvetica 24 F
GS
[1 0 0 1 0 0] CT
0 9.535 moveto 
1 -1 scale
(Pisani et al.) t 
GR
GR
GS
[0.75 0 0 0.75 0 0] CT
0 0 1 RC
2 setlinecap
10.0 ML
4 LW
N
448.997 578.733 M
488.982 578.733 L
S
GR
GS
[0.75 0 0 0.75 0 0] CT
0.149 GC
2 setlinecap
10.0 ML
N
441 596 M
441 442 L
621 442 L
621 596 L
441 596 L
S
GR
%%Trailer
%%Pages: 1
%%EOF
