%!PS-Adobe-3.0 EPSF-3.0
%%Creator: (MATLAB, The Mathworks, Inc. Version 8.4.0.150421 \(R2014b\). Operating System: Windows 8)
%%Title: C:/Projects/SD_MICCAI_paper/tex/images/CrossSubjectComparison_slim.eps
%%CreationDate: 2015-03-07T05:29:55
%%Pages: (atend)
%%BoundingBox: 0 0 765 251
%%LanguageLevel: 2
%%EndComments
%%BeginProlog
%%BeginResource: procset (Apache XML Graphics Std ProcSet) 1.2 0
%%Version: 1.2 0
%%Copyright: (Copyright 2001-2003,2010 The Apache Software Foundation. License terms: http://www.apache.org/licenses/LICENSE-2.0)
/bd{bind def}bind def
/ld{load def}bd
/GR/grestore ld
/M/moveto ld
/LJ/setlinejoin ld
/C/curveto ld
/f/fill ld
/LW/setlinewidth ld
/GC/setgray ld
/t/show ld
/N/newpath ld
/CT/concat ld
/cp/closepath ld
/S/stroke ld
/L/lineto ld
/CC/setcmykcolor ld
/A/ashow ld
/GS/gsave ld
/RC/setrgbcolor ld
/RM/rmoveto ld
/ML/setmiterlimit ld
/re {4 2 roll M
1 index 0 rlineto
0 exch rlineto
neg 0 rlineto
cp } bd
/_ctm matrix def
/_tm matrix def
/BT { _ctm currentmatrix pop matrix _tm copy pop 0 0 moveto } bd
/ET { _ctm setmatrix } bd
/iTm { _ctm setmatrix _tm concat } bd
/Tm { _tm astore pop iTm 0 0 moveto } bd
/ux 0.0 def
/uy 0.0 def
/F {
  /Tp exch def
  /Tf exch def
  Tf findfont Tp scalefont setfont
  /cf Tf def  /cs Tp def
} bd
/ULS {currentpoint /uy exch def /ux exch def} bd
/ULE {
  /Tcx currentpoint pop def
  gsave
  newpath
  cf findfont cs scalefont dup
  /FontMatrix get 0 get /Ts exch def /FontInfo get dup
  /UnderlinePosition get Ts mul /To exch def
  /UnderlineThickness get Ts mul /Tt exch def
  ux uy To add moveto  Tcx uy To add lineto
  Tt setlinewidth stroke
  grestore
} bd
/OLE {
  /Tcx currentpoint pop def
  gsave
  newpath
  cf findfont cs scalefont dup
  /FontMatrix get 0 get /Ts exch def /FontInfo get dup
  /UnderlinePosition get Ts mul /To exch def
  /UnderlineThickness get Ts mul /Tt exch def
  ux uy To add cs add moveto Tcx uy To add cs add lineto
  Tt setlinewidth stroke
  grestore
} bd
/SOE {
  /Tcx currentpoint pop def
  gsave
  newpath
  cf findfont cs scalefont dup
  /FontMatrix get 0 get /Ts exch def /FontInfo get dup
  /UnderlinePosition get Ts mul /To exch def
  /UnderlineThickness get Ts mul /Tt exch def
  ux uy To add cs 10 mul 26 idiv add moveto Tcx uy To add cs 10 mul 26 idiv add lineto
  Tt setlinewidth stroke
  grestore
} bd
/QT {
/Y22 exch store
/X22 exch store
/Y21 exch store
/X21 exch store
currentpoint
/Y21 load 2 mul add 3 div exch
/X21 load 2 mul add 3 div exch
/X21 load 2 mul /X22 load add 3 div
/Y21 load 2 mul /Y22 load add 3 div
/X22 load /Y22 load curveto
} bd
/SSPD {
dup length /d exch dict def
{
/v exch def
/k exch def
currentpagedevice k known {
/cpdv currentpagedevice k get def
v cpdv ne {
/upd false def
/nullv v type /nulltype eq def
/nullcpdv cpdv type /nulltype eq def
nullv nullcpdv or
{
/upd true def
} {
/sametype v type cpdv type eq def
sametype {
v type /arraytype eq {
/vlen v length def
/cpdvlen cpdv length def
vlen cpdvlen eq {
0 1 vlen 1 sub {
/i exch def
/obj v i get def
/cpdobj cpdv i get def
obj cpdobj ne {
/upd true def
exit
} if
} for
} {
/upd true def
} ifelse
} {
v type /dicttype eq {
v {
/dv exch def
/dk exch def
/cpddv cpdv dk get def
dv cpddv ne {
/upd true def
exit
} if
} forall
} {
/upd true def
} ifelse
} ifelse
} if
} ifelse
upd true eq {
d k v put
} if
} if
} if
} forall
d length 0 gt {
d setpagedevice
} if
} bd
%%EndResource
%%BeginResource: procset (Apache XML Graphics EPS ProcSet) 1.0 0
%%Version: 1.0 0
%%Copyright: (Copyright 2002-2003 The Apache Software Foundation. License terms: http://www.apache.org/licenses/LICENSE-2.0)
/BeginEPSF { %def
/b4_Inc_state save def         % Save state for cleanup
/dict_count countdictstack def % Count objects on dict stack
/op_count count 1 sub def      % Count objects on operand stack
userdict begin                 % Push userdict on dict stack
/showpage { } def              % Redefine showpage, { } = null proc
0 setgray 0 setlinecap         % Prepare graphics state
1 setlinewidth 0 setlinejoin
10 setmiterlimit [ ] 0 setdash newpath
/languagelevel where           % If level not equal to 1 then
{pop languagelevel             % set strokeadjust and
1 ne                           % overprint to their defaults.
{false setstrokeadjust false setoverprint
} if
} if
} bd
/EndEPSF { %def
count op_count sub {pop} repeat            % Clean up stacks
countdictstack dict_count sub {end} repeat
b4_Inc_state restore
} bd
%%EndResource
%FOPBeginFontDict
%%IncludeResource: font Courier-Bold
%%IncludeResource: font Helvetica
%%IncludeResource: font Courier-BoldOblique
%%IncludeResource: font Courier-Oblique
%%IncludeResource: font Times-Roman
%%IncludeResource: font Helvetica-BoldOblique
%%IncludeResource: font Helvetica-Bold
%%IncludeResource: font Helvetica-Oblique
%%IncludeResource: font Times-BoldItalic
%%IncludeResource: font Courier
%%IncludeResource: font Times-Italic
%%IncludeResource: font Times-Bold
%%IncludeResource: font Symbol
%%IncludeResource: font ZapfDingbats
%FOPEndFontDict
%%BeginResource: encoding WinAnsiEncoding
/WinAnsiEncoding [
/.notdef /.notdef /.notdef /.notdef /.notdef
/.notdef /.notdef /.notdef /.notdef /.notdef
/.notdef /.notdef /.notdef /.notdef /.notdef
/.notdef /.notdef /.notdef /.notdef /.notdef
/.notdef /.notdef /.notdef /.notdef /.notdef
/.notdef /.notdef /.notdef /.notdef /.notdef
/.notdef /.notdef /space /exclam /quotedbl
/numbersign /dollar /percent /ampersand /quotesingle
/parenleft /parenright /asterisk /plus /comma
/hyphen /period /slash /zero /one
/two /three /four /five /six
/seven /eight /nine /colon /semicolon
/less /equal /greater /question /at
/A /B /C /D /E
/F /G /H /I /J
/K /L /M /N /O
/P /Q /R /S /T
/U /V /W /X /Y
/Z /bracketleft /backslash /bracketright /asciicircum
/underscore /quoteleft /a /b /c
/d /e /f /g /h
/i /j /k /l /m
/n /o /p /q /r
/s /t /u /v /w
/x /y /z /braceleft /bar
/braceright /asciitilde /bullet /Euro /bullet
/quotesinglbase /florin /quotedblbase /ellipsis /dagger
/daggerdbl /circumflex /perthousand /Scaron /guilsinglleft
/OE /bullet /Zcaron /bullet /bullet
/quoteleft /quoteright /quotedblleft /quotedblright /bullet
/endash /emdash /asciitilde /trademark /scaron
/guilsinglright /oe /bullet /zcaron /Ydieresis
/space /exclamdown /cent /sterling /currency
/yen /brokenbar /section /dieresis /copyright
/ordfeminine /guillemotleft /logicalnot /sfthyphen /registered
/macron /degree /plusminus /twosuperior /threesuperior
/acute /mu /paragraph /middot /cedilla
/onesuperior /ordmasculine /guillemotright /onequarter /onehalf
/threequarters /questiondown /Agrave /Aacute /Acircumflex
/Atilde /Adieresis /Aring /AE /Ccedilla
/Egrave /Eacute /Ecircumflex /Edieresis /Igrave
/Iacute /Icircumflex /Idieresis /Eth /Ntilde
/Ograve /Oacute /Ocircumflex /Otilde /Odieresis
/multiply /Oslash /Ugrave /Uacute /Ucircumflex
/Udieresis /Yacute /Thorn /germandbls /agrave
/aacute /acircumflex /atilde /adieresis /aring
/ae /ccedilla /egrave /eacute /ecircumflex
/edieresis /igrave /iacute /icircumflex /idieresis
/eth /ntilde /ograve /oacute /ocircumflex
/otilde /odieresis /divide /oslash /ugrave
/uacute /ucircumflex /udieresis /yacute /thorn
/ydieresis
] def
%%EndResource
%FOPBeginFontReencode
/Courier-Bold findfont
dup length dict begin
  {1 index /FID ne {def} {pop pop} ifelse} forall
  /Encoding WinAnsiEncoding def
  currentdict
end
/Courier-Bold exch definefont pop
/Helvetica findfont
dup length dict begin
  {1 index /FID ne {def} {pop pop} ifelse} forall
  /Encoding WinAnsiEncoding def
  currentdict
end
/Helvetica exch definefont pop
/Courier-BoldOblique findfont
dup length dict begin
  {1 index /FID ne {def} {pop pop} ifelse} forall
  /Encoding WinAnsiEncoding def
  currentdict
end
/Courier-BoldOblique exch definefont pop
/Courier-Oblique findfont
dup length dict begin
  {1 index /FID ne {def} {pop pop} ifelse} forall
  /Encoding WinAnsiEncoding def
  currentdict
end
/Courier-Oblique exch definefont pop
/Times-Roman findfont
dup length dict begin
  {1 index /FID ne {def} {pop pop} ifelse} forall
  /Encoding WinAnsiEncoding def
  currentdict
end
/Times-Roman exch definefont pop
/Helvetica-BoldOblique findfont
dup length dict begin
  {1 index /FID ne {def} {pop pop} ifelse} forall
  /Encoding WinAnsiEncoding def
  currentdict
end
/Helvetica-BoldOblique exch definefont pop
/Helvetica-Bold findfont
dup length dict begin
  {1 index /FID ne {def} {pop pop} ifelse} forall
  /Encoding WinAnsiEncoding def
  currentdict
end
/Helvetica-Bold exch definefont pop
/Helvetica-Oblique findfont
dup length dict begin
  {1 index /FID ne {def} {pop pop} ifelse} forall
  /Encoding WinAnsiEncoding def
  currentdict
end
/Helvetica-Oblique exch definefont pop
/Times-BoldItalic findfont
dup length dict begin
  {1 index /FID ne {def} {pop pop} ifelse} forall
  /Encoding WinAnsiEncoding def
  currentdict
end
/Times-BoldItalic exch definefont pop
/Courier findfont
dup length dict begin
  {1 index /FID ne {def} {pop pop} ifelse} forall
  /Encoding WinAnsiEncoding def
  currentdict
end
/Courier exch definefont pop
/Times-Italic findfont
dup length dict begin
  {1 index /FID ne {def} {pop pop} ifelse} forall
  /Encoding WinAnsiEncoding def
  currentdict
end
/Times-Italic exch definefont pop
/Times-Bold findfont
dup length dict begin
  {1 index /FID ne {def} {pop pop} ifelse} forall
  /Encoding WinAnsiEncoding def
  currentdict
end
/Times-Bold exch definefont pop
%FOPEndFontReencode
%%EndProlog
%%Page: 1 1
%%PageBoundingBox: 0 0 765 251
%%BeginPageSetup
[1 0 0 -1 0 251] CT
%%EndPageSetup
GS
[0.75 0 0 0.75 0 -0.25] CT
N
0 0 M
1020 0 L
1020 335 L
0 335 L
0 0 L
cp
clip
1 GC
N
0 0 1020 335 re
f
GR
GS
[0.75 0 0 0.75 0 -0.25] CT
N
0 0 M
1020 0 L
1020 335 L
0 335 L
0 0 L
cp
clip
1 GC
N
0 0 1020 335 re
f
GR
GS
[0.75 0 0 0.75 0 -0.25] CT
1 GC
N
133 294 M
923 294 L
923 43 L
133 43 L
cp
f
GR
GS
[0.75 0 0 0.75 0 -0.25] CT
0.873 GC
2 setlinecap
10.0 ML
N
217.043 294 M
217.043 43 L
S
GR
GS
[0.75 0 0 0.75 0 -0.25] CT
0.873 GC
2 setlinecap
10.0 ML
N
385.128 294 M
385.128 43 L
S
GR
GS
[0.75 0 0 0.75 0 -0.25] CT
0.873 GC
2 setlinecap
10.0 ML
N
553.213 294 M
553.213 43 L
S
GR
GS
[0.75 0 0 0.75 0 -0.25] CT
0.873 GC
2 setlinecap
10.0 ML
N
721.298 294 M
721.298 43 L
S
GR
GS
[0.75 0 0 0.75 0 -0.25] CT
0.873 GC
2 setlinecap
10.0 ML
N
923 294 M
133 294 L
S
GR
GS
[0.75 0 0 0.75 0 -0.25] CT
0.873 GC
2 setlinecap
10.0 ML
N
923 168.5 M
133 168.5 L
S
GR
GS
[0.75 0 0 0.75 0 -0.25] CT
0.873 GC
2 setlinecap
10.0 ML
N
923 43 M
133 43 L
S
GR
GS
[0.75 0 0 0.75 0 -0.25] CT
0.149 GC
2 setlinecap
10.0 ML
N
133 294 M
923 294 L
S
GR
GS
[0.75 0 0 0.75 0 -0.25] CT
0.149 GC
2 setlinecap
10.0 ML
N
133 43 M
923 43 L
S
GR
GS
[0.75 0 0 0.75 0 -0.25] CT
0.149 GC
2 setlinecap
10.0 ML
N
217.043 294 M
217.043 286.1 L
S
GR
GS
[0.75 0 0 0.75 0 -0.25] CT
0.149 GC
2 setlinecap
10.0 ML
N
217.043 43 M
217.043 50.9 L
S
GR
GS
[0.75 0 0 0.75 0 -0.25] CT
0.149 GC
2 setlinecap
10.0 ML
N
385.128 294 M
385.128 286.1 L
S
GR
GS
[0.75 0 0 0.75 0 -0.25] CT
0.149 GC
2 setlinecap
10.0 ML
N
385.128 43 M
385.128 50.9 L
S
GR
GS
[0.75 0 0 0.75 0 -0.25] CT
0.149 GC
2 setlinecap
10.0 ML
N
553.213 294 M
553.213 286.1 L
S
GR
GS
[0.75 0 0 0.75 0 -0.25] CT
0.149 GC
2 setlinecap
10.0 ML
N
553.213 43 M
553.213 50.9 L
S
GR
GS
[0.75 0 0 0.75 0 -0.25] CT
0.149 GC
2 setlinecap
10.0 ML
N
721.298 294 M
721.298 286.1 L
S
GR
GS
[0.75 0 0 0.75 0 -0.25] CT
0.149 GC
2 setlinecap
10.0 ML
N
721.298 43 M
721.298 50.9 L
S
GR
GS
[0.75 0 0 0.75 162.78192 226.25] CT
0.149 GC
/Helvetica 27 F
GS
[1 0 0 1 0 0] CT
-51.792 27.145 moveto 
1 -1 scale
(patient 1) t 
GR
GR
GS
[0.75 0 0 0.75 288.84574 226.25] CT
0.149 GC
/Helvetica 27 F
GS
[1 0 0 1 0 0] CT
-51.792 27.145 moveto 
1 -1 scale
(patient 2) t 
GR
GR
GS
[0.75 0 0 0.75 414.90958 226.25] CT
0.149 GC
/Helvetica 27 F
GS
[1 0 0 1 0 0] CT
-51.792 27.145 moveto 
1 -1 scale
(patient 3) t 
GR
GR
GS
[0.75 0 0 0.75 540.97339 226.25] CT
0.149 GC
/Helvetica 27 F
GS
[1 0 0 1 0 0] CT
-48.786 27.145 moveto 
1 -1 scale
(average) t 
GR
GR
GS
[0 -0.75 0.75 0 56.96375 126.125] CT
0.149 GC
/Helvetica 29 F
GS
[1 0 0 1 0 0] CT
-70.907 -6.321 moveto 
1 -1 scale
(AUC in [%]) t 
GR
GR
GS
[0.75 0 0 0.75 0 -0.25] CT
0.149 GC
2 setlinecap
10.0 ML
N
133 294 M
133 43 L
S
GR
GS
[0.75 0 0 0.75 0 -0.25] CT
0.149 GC
2 setlinecap
10.0 ML
N
923 294 M
923 43 L
S
GR
GS
[0.75 0 0 0.75 0 -0.25] CT
0.149 GC
2 setlinecap
10.0 ML
N
133 294 M
140.9 294 L
S
GR
GS
[0.75 0 0 0.75 0 -0.25] CT
0.149 GC
2 setlinecap
10.0 ML
N
923 294 M
915.1 294 L
S
GR
GS
[0.75 0 0 0.75 0 -0.25] CT
0.149 GC
2 setlinecap
10.0 ML
N
133 168.5 M
140.9 168.5 L
S
GR
GS
[0.75 0 0 0.75 0 -0.25] CT
0.149 GC
2 setlinecap
10.0 ML
N
923 168.5 M
915.1 168.5 L
S
GR
GS
[0.75 0 0 0.75 0 -0.25] CT
0.149 GC
2 setlinecap
10.0 ML
N
133 43 M
140.9 43 L
S
GR
GS
[0.75 0 0 0.75 0 -0.25] CT
0.149 GC
2 setlinecap
10.0 ML
N
923 43 M
915.1 43 L
S
GR
GS
[0.75 0 0 0.75 93.75 220.25] CT
0.149 GC
/Helvetica 27 F
GS
[1 0 0 1 0 0] CT
-15.016 10.665 moveto 
1 -1 scale
(0) t 
GR
GR
GS
[0.75 0 0 0.75 93.75 126.125] CT
0.149 GC
/Helvetica 27 F
GS
[1 0 0 1 0 0] CT
-30.032 10.665 moveto 
1 -1 scale
(50) t 
GR
GR
GS
[0.75 0 0 0.75 93.75 32] CT
0.149 GC
/Helvetica 27 F
GS
[1 0 0 1 0 0] CT
-45.048 10.665 moveto 
1 -1 scale
(100) t 
GR
GR
GS
[0.75 0 0 0.75 0 -0.25] CT
0.208 0.165 0.525 RC
N
158.977 294 M
158.977 191.968 L
183.426 191.968 L
183.426 294 L
cp
f
GR
GS
[0.75 0 0 0.75 0 -0.25] CT
0.208 0.165 0.525 RC
N
327.062 294 M
327.062 226.431 L
351.511 226.431 L
351.511 294 L
cp
f
GR
GS
[0.75 0 0 0.75 0 -0.25] CT
0.208 0.165 0.525 RC
N
495.147 294 M
495.147 165.714 L
519.596 165.714 L
519.596 294 L
cp
f
GR
GS
[0.75 0 0 0.75 0 -0.25] CT
0.208 0.165 0.525 RC
N
663.232 294 M
663.232 194.704 L
687.681 194.704 L
687.681 294 L
cp
f
GR
GS
[0.75 0 0 0.75 0 -0.25] CT
2 setlinecap
10.0 ML
N
158.977 294 M
158.977 191.968 L
183.426 191.968 L
183.426 294 L
158.977 294 L
S
GR
GS
[0.75 0 0 0.75 0 -0.25] CT
2 setlinecap
10.0 ML
N
327.062 294 M
327.062 226.431 L
351.511 226.431 L
351.511 294 L
327.062 294 L
S
GR
GS
[0.75 0 0 0.75 0 -0.25] CT
2 setlinecap
10.0 ML
N
495.147 294 M
495.147 165.714 L
519.596 165.714 L
519.596 294 L
495.147 294 L
S
GR
GS
[0.75 0 0 0.75 0 -0.25] CT
2 setlinecap
10.0 ML
N
663.232 294 M
663.232 194.704 L
687.681 194.704 L
687.681 294 L
663.232 294 L
S
GR
GS
[0.75 0 0 0.75 0 -0.25] CT
0.024 0.612 0.812 RC
N
189.538 294 M
189.538 191.968 L
213.986 191.968 L
213.986 294 L
cp
f
GR
GS
[0.75 0 0 0.75 0 -0.25] CT
0.024 0.612 0.812 RC
N
357.623 294 M
357.623 108.134 L
382.072 108.134 L
382.072 294 L
cp
f
GR
GS
[0.75 0 0 0.75 0 -0.25] CT
0.024 0.612 0.812 RC
N
525.708 294 M
525.708 170.383 L
550.157 170.383 L
550.157 294 L
cp
f
GR
GS
[0.75 0 0 0.75 0 -0.25] CT
0.024 0.612 0.812 RC
N
693.793 294 M
693.793 156.828 L
718.242 156.828 L
718.242 294 L
cp
f
GR
GS
[0.75 0 0 0.75 0 -0.25] CT
2 setlinecap
10.0 ML
N
189.538 294 M
189.538 191.968 L
213.986 191.968 L
213.986 294 L
189.538 294 L
S
GR
GS
[0.75 0 0 0.75 0 -0.25] CT
2 setlinecap
10.0 ML
N
357.623 294 M
357.623 108.134 L
382.072 108.134 L
382.072 294 L
357.623 294 L
S
GR
GS
[0.75 0 0 0.75 0 -0.25] CT
2 setlinecap
10.0 ML
N
525.708 294 M
525.708 170.383 L
550.157 170.383 L
550.157 294 L
525.708 294 L
S
GR
GS
[0.75 0 0 0.75 0 -0.25] CT
2 setlinecap
10.0 ML
N
693.793 294 M
693.793 156.828 L
718.242 156.828 L
718.242 294 L
693.793 294 L
S
GR
GS
[0.75 0 0 0.75 0 -0.25] CT
0.647 0.745 0.416 RC
N
220.099 294 M
220.099 151.482 L
244.547 151.482 L
244.547 294 L
cp
f
GR
GS
[0.75 0 0 0.75 0 -0.25] CT
0.647 0.745 0.416 RC
N
388.184 294 M
388.184 118.877 L
412.633 118.877 L
412.633 294 L
cp
f
GR
GS
[0.75 0 0 0.75 0 -0.25] CT
0.647 0.745 0.416 RC
N
556.269 294 M
556.269 170.659 L
580.718 170.659 L
580.718 294 L
cp
f
GR
GS
[0.75 0 0 0.75 0 -0.25] CT
0.647 0.745 0.416 RC
N
724.354 294 M
724.354 147.014 L
748.803 147.014 L
748.803 294 L
cp
f
GR
GS
[0.75 0 0 0.75 0 -0.25] CT
2 setlinecap
10.0 ML
N
220.099 294 M
220.099 151.482 L
244.547 151.482 L
244.547 294 L
220.099 294 L
S
GR
GS
[0.75 0 0 0.75 0 -0.25] CT
2 setlinecap
10.0 ML
N
388.184 294 M
388.184 118.877 L
412.633 118.877 L
412.633 294 L
388.184 294 L
S
GR
GS
[0.75 0 0 0.75 0 -0.25] CT
2 setlinecap
10.0 ML
N
556.269 294 M
556.269 170.659 L
580.718 170.659 L
580.718 294 L
556.269 294 L
S
GR
GS
[0.75 0 0 0.75 0 -0.25] CT
2 setlinecap
10.0 ML
N
724.354 294 M
724.354 147.014 L
748.803 147.014 L
748.803 294 L
724.354 294 L
S
GR
GS
[0.75 0 0 0.75 0 -0.25] CT
0.973 0.98 0.051 RC
N
250.66 294 M
250.66 184.388 L
275.108 184.388 L
275.108 294 L
cp
f
GR
GS
[0.75 0 0 0.75 0 -0.25] CT
0.973 0.98 0.051 RC
N
418.745 294 M
418.745 88.531 L
443.193 88.531 L
443.193 294 L
cp
f
GR
GS
[0.75 0 0 0.75 0 -0.25] CT
0.973 0.98 0.051 RC
N
586.83 294 M
586.83 164.484 L
611.279 164.484 L
611.279 294 L
cp
f
GR
GS
[0.75 0 0 0.75 0 -0.25] CT
0.973 0.98 0.051 RC
N
754.915 294 M
754.915 145.81 L
779.364 145.81 L
779.364 294 L
cp
f
GR
GS
[0.75 0 0 0.75 0 -0.25] CT
2 setlinecap
10.0 ML
N
250.66 294 M
250.66 184.388 L
275.108 184.388 L
275.108 294 L
250.66 294 L
S
GR
GS
[0.75 0 0 0.75 0 -0.25] CT
2 setlinecap
10.0 ML
N
418.745 294 M
418.745 88.531 L
443.193 88.531 L
443.193 294 L
418.745 294 L
S
GR
GS
[0.75 0 0 0.75 0 -0.25] CT
2 setlinecap
10.0 ML
N
586.83 294 M
586.83 164.484 L
611.279 164.484 L
611.279 294 L
586.83 294 L
S
GR
GS
[0.75 0 0 0.75 0 -0.25] CT
2 setlinecap
10.0 ML
N
754.915 294 M
754.915 145.81 L
779.364 145.81 L
779.364 294 L
754.915 294 L
S
GR
GS
[0.75 0 0 0.75 396 26.5] CT
/Helvetica-Bold 29 F
GS
[1 0 0 1 0 0] CT
-159.521 -6.321 moveto 
1 -1 scale
(Cross-Subject Training) t 
GR
GR
GS
[0.75 0 0 0.75 0 -0.25] CT
0.149 GC
2 setlinecap
10.0 ML
N
133 294 M
923 294 L
S
GR
GS
[0.75 0 0 0.75 0 -0.25] CT
1 GC
N
789 174 M
789 50 L
917 50 L
917 174 L
cp
f
GR
GS
[0.75 0 0 0.75 630.94016 50.18662] CT
/Helvetica 24 F
GS
[1 0 0 1 0 0] CT
0 9.535 moveto 
1 -1 scale
(N = 1) t 
GR
GR
GS
[0.75 0 0 0.75 0 -0.25] CT
0.208 0.165 0.525 RC
N
797.039 78.583 M
797.039 55.915 L
837.234 55.915 L
837.234 78.583 L
cp
f
GR
GS
[0.75 0 0 0.75 0 -0.25] CT
2 setlinecap
10.0 ML
N
797.039 78.583 M
797.039 55.915 L
837.234 55.915 L
837.234 78.583 L
797.039 78.583 L
S
GR
GS
[0.75 0 0 0.75 630.94016 72.5622] CT
/Helvetica 24 F
GS
[1 0 0 1 0 0] CT
0 9.535 moveto 
1 -1 scale
(N = 2) t 
GR
GR
GS
[0.75 0 0 0.75 0 -0.25] CT
0.024 0.612 0.812 RC
N
797.039 108.417 M
797.039 85.749 L
837.234 85.749 L
837.234 108.417 L
cp
f
GR
GS
[0.75 0 0 0.75 0 -0.25] CT
2 setlinecap
10.0 ML
N
797.039 108.417 M
797.039 85.749 L
837.234 85.749 L
837.234 108.417 L
797.039 108.417 L
S
GR
GS
[0.75 0 0 0.75 630.94016 94.9378] CT
/Helvetica 24 F
GS
[1 0 0 1 0 0] CT
0 9.535 moveto 
1 -1 scale
(N = 5) t 
GR
GR
GS
[0.75 0 0 0.75 0 -0.25] CT
0.647 0.745 0.416 RC
N
797.039 138.251 M
797.039 115.583 L
837.234 115.583 L
837.234 138.251 L
cp
f
GR
GS
[0.75 0 0 0.75 0 -0.25] CT
2 setlinecap
10.0 ML
N
797.039 138.251 M
797.039 115.583 L
837.234 115.583 L
837.234 138.251 L
797.039 138.251 L
S
GR
GS
[0.75 0 0 0.75 630.94016 117.31338] CT
/Helvetica 24 F
GS
[1 0 0 1 0 0] CT
0 9.535 moveto 
1 -1 scale
(N = 10) t 
GR
GR
GS
[0.75 0 0 0.75 0 -0.25] CT
0.973 0.98 0.051 RC
N
797.039 168.085 M
797.039 145.417 L
837.234 145.417 L
837.234 168.085 L
cp
f
GR
GS
[0.75 0 0 0.75 0 -0.25] CT
2 setlinecap
10.0 ML
N
797.039 168.085 M
797.039 145.417 L
837.234 145.417 L
837.234 168.085 L
797.039 168.085 L
S
GR
GS
[0.75 0 0 0.75 0 -0.25] CT
0.149 GC
2 setlinecap
10.0 ML
N
789 174 M
789 50 L
917 50 L
917 174 L
789 174 L
S
GR
%%Trailer
%%Pages: 1
%%EOF
