%!PS-Adobe-3.0 EPSF-3.0
%%Creator: (MATLAB, The Mathworks, Inc. Version 8.4.0.150421 \(R2014b\). Operating System: Windows 8)
%%Title: C:/Projects/SD_MICCAI_paper/tex/images/plotsPatient2_legend.eps
%%CreationDate: 2015-03-06T20:08:29
%%Pages: (atend)
%%BoundingBox: 0 0 450 450
%%LanguageLevel: 2
%%EndComments
%%BeginProlog
%%BeginResource: procset (Apache XML Graphics Std ProcSet) 1.2 0
%%Version: 1.2 0
%%Copyright: (Copyright 2001-2003,2010 The Apache Software Foundation. License terms: http://www.apache.org/licenses/LICENSE-2.0)
/bd{bind def}bind def
/ld{load def}bd
/GR/grestore ld
/M/moveto ld
/LJ/setlinejoin ld
/C/curveto ld
/f/fill ld
/LW/setlinewidth ld
/GC/setgray ld
/t/show ld
/N/newpath ld
/CT/concat ld
/cp/closepath ld
/S/stroke ld
/L/lineto ld
/CC/setcmykcolor ld
/A/ashow ld
/GS/gsave ld
/RC/setrgbcolor ld
/RM/rmoveto ld
/ML/setmiterlimit ld
/re {4 2 roll M
1 index 0 rlineto
0 exch rlineto
neg 0 rlineto
cp } bd
/_ctm matrix def
/_tm matrix def
/BT { _ctm currentmatrix pop matrix _tm copy pop 0 0 moveto } bd
/ET { _ctm setmatrix } bd
/iTm { _ctm setmatrix _tm concat } bd
/Tm { _tm astore pop iTm 0 0 moveto } bd
/ux 0.0 def
/uy 0.0 def
/F {
  /Tp exch def
  /Tf exch def
  Tf findfont Tp scalefont setfont
  /cf Tf def  /cs Tp def
} bd
/ULS {currentpoint /uy exch def /ux exch def} bd
/ULE {
  /Tcx currentpoint pop def
  gsave
  newpath
  cf findfont cs scalefont dup
  /FontMatrix get 0 get /Ts exch def /FontInfo get dup
  /UnderlinePosition get Ts mul /To exch def
  /UnderlineThickness get Ts mul /Tt exch def
  ux uy To add moveto  Tcx uy To add lineto
  Tt setlinewidth stroke
  grestore
} bd
/OLE {
  /Tcx currentpoint pop def
  gsave
  newpath
  cf findfont cs scalefont dup
  /FontMatrix get 0 get /Ts exch def /FontInfo get dup
  /UnderlinePosition get Ts mul /To exch def
  /UnderlineThickness get Ts mul /Tt exch def
  ux uy To add cs add moveto Tcx uy To add cs add lineto
  Tt setlinewidth stroke
  grestore
} bd
/SOE {
  /Tcx currentpoint pop def
  gsave
  newpath
  cf findfont cs scalefont dup
  /FontMatrix get 0 get /Ts exch def /FontInfo get dup
  /UnderlinePosition get Ts mul /To exch def
  /UnderlineThickness get Ts mul /Tt exch def
  ux uy To add cs 10 mul 26 idiv add moveto Tcx uy To add cs 10 mul 26 idiv add lineto
  Tt setlinewidth stroke
  grestore
} bd
/QT {
/Y22 exch store
/X22 exch store
/Y21 exch store
/X21 exch store
currentpoint
/Y21 load 2 mul add 3 div exch
/X21 load 2 mul add 3 div exch
/X21 load 2 mul /X22 load add 3 div
/Y21 load 2 mul /Y22 load add 3 div
/X22 load /Y22 load curveto
} bd
/SSPD {
dup length /d exch dict def
{
/v exch def
/k exch def
currentpagedevice k known {
/cpdv currentpagedevice k get def
v cpdv ne {
/upd false def
/nullv v type /nulltype eq def
/nullcpdv cpdv type /nulltype eq def
nullv nullcpdv or
{
/upd true def
} {
/sametype v type cpdv type eq def
sametype {
v type /arraytype eq {
/vlen v length def
/cpdvlen cpdv length def
vlen cpdvlen eq {
0 1 vlen 1 sub {
/i exch def
/obj v i get def
/cpdobj cpdv i get def
obj cpdobj ne {
/upd true def
exit
} if
} for
} {
/upd true def
} ifelse
} {
v type /dicttype eq {
v {
/dv exch def
/dk exch def
/cpddv cpdv dk get def
dv cpddv ne {
/upd true def
exit
} if
} forall
} {
/upd true def
} ifelse
} ifelse
} if
} ifelse
upd true eq {
d k v put
} if
} if
} if
} forall
d length 0 gt {
d setpagedevice
} if
} bd
%%EndResource
%%BeginResource: procset (Apache XML Graphics EPS ProcSet) 1.0 0
%%Version: 1.0 0
%%Copyright: (Copyright 2002-2003 The Apache Software Foundation. License terms: http://www.apache.org/licenses/LICENSE-2.0)
/BeginEPSF { %def
/b4_Inc_state save def         % Save state for cleanup
/dict_count countdictstack def % Count objects on dict stack
/op_count count 1 sub def      % Count objects on operand stack
userdict begin                 % Push userdict on dict stack
/showpage { } def              % Redefine showpage, { } = null proc
0 setgray 0 setlinecap         % Prepare graphics state
1 setlinewidth 0 setlinejoin
10 setmiterlimit [ ] 0 setdash newpath
/languagelevel where           % If level not equal to 1 then
{pop languagelevel             % set strokeadjust and
1 ne                           % overprint to their defaults.
{false setstrokeadjust false setoverprint
} if
} if
} bd
/EndEPSF { %def
count op_count sub {pop} repeat            % Clean up stacks
countdictstack dict_count sub {end} repeat
b4_Inc_state restore
} bd
%%EndResource
%FOPBeginFontDict
%%IncludeResource: font Courier-Bold
%%IncludeResource: font Helvetica
%%IncludeResource: font Courier-BoldOblique
%%IncludeResource: font Courier-Oblique
%%IncludeResource: font Times-Roman
%%IncludeResource: font Helvetica-BoldOblique
%%IncludeResource: font Helvetica-Bold
%%IncludeResource: font Helvetica-Oblique
%%IncludeResource: font Times-BoldItalic
%%IncludeResource: font Courier
%%IncludeResource: font Times-Italic
%%IncludeResource: font Times-Bold
%%IncludeResource: font Symbol
%%IncludeResource: font ZapfDingbats
%FOPEndFontDict
%%BeginResource: encoding WinAnsiEncoding
/WinAnsiEncoding [
/.notdef /.notdef /.notdef /.notdef /.notdef
/.notdef /.notdef /.notdef /.notdef /.notdef
/.notdef /.notdef /.notdef /.notdef /.notdef
/.notdef /.notdef /.notdef /.notdef /.notdef
/.notdef /.notdef /.notdef /.notdef /.notdef
/.notdef /.notdef /.notdef /.notdef /.notdef
/.notdef /.notdef /space /exclam /quotedbl
/numbersign /dollar /percent /ampersand /quotesingle
/parenleft /parenright /asterisk /plus /comma
/hyphen /period /slash /zero /one
/two /three /four /five /six
/seven /eight /nine /colon /semicolon
/less /equal /greater /question /at
/A /B /C /D /E
/F /G /H /I /J
/K /L /M /N /O
/P /Q /R /S /T
/U /V /W /X /Y
/Z /bracketleft /backslash /bracketright /asciicircum
/underscore /quoteleft /a /b /c
/d /e /f /g /h
/i /j /k /l /m
/n /o /p /q /r
/s /t /u /v /w
/x /y /z /braceleft /bar
/braceright /asciitilde /bullet /Euro /bullet
/quotesinglbase /florin /quotedblbase /ellipsis /dagger
/daggerdbl /circumflex /perthousand /Scaron /guilsinglleft
/OE /bullet /Zcaron /bullet /bullet
/quoteleft /quoteright /quotedblleft /quotedblright /bullet
/endash /emdash /asciitilde /trademark /scaron
/guilsinglright /oe /bullet /zcaron /Ydieresis
/space /exclamdown /cent /sterling /currency
/yen /brokenbar /section /dieresis /copyright
/ordfeminine /guillemotleft /logicalnot /sfthyphen /registered
/macron /degree /plusminus /twosuperior /threesuperior
/acute /mu /paragraph /middot /cedilla
/onesuperior /ordmasculine /guillemotright /onequarter /onehalf
/threequarters /questiondown /Agrave /Aacute /Acircumflex
/Atilde /Adieresis /Aring /AE /Ccedilla
/Egrave /Eacute /Ecircumflex /Edieresis /Igrave
/Iacute /Icircumflex /Idieresis /Eth /Ntilde
/Ograve /Oacute /Ocircumflex /Otilde /Odieresis
/multiply /Oslash /Ugrave /Uacute /Ucircumflex
/Udieresis /Yacute /Thorn /germandbls /agrave
/aacute /acircumflex /atilde /adieresis /aring
/ae /ccedilla /egrave /eacute /ecircumflex
/edieresis /igrave /iacute /icircumflex /idieresis
/eth /ntilde /ograve /oacute /ocircumflex
/otilde /odieresis /divide /oslash /ugrave
/uacute /ucircumflex /udieresis /yacute /thorn
/ydieresis
] def
%%EndResource
%FOPBeginFontReencode
/Courier-Bold findfont
dup length dict begin
  {1 index /FID ne {def} {pop pop} ifelse} forall
  /Encoding WinAnsiEncoding def
  currentdict
end
/Courier-Bold exch definefont pop
/Helvetica findfont
dup length dict begin
  {1 index /FID ne {def} {pop pop} ifelse} forall
  /Encoding WinAnsiEncoding def
  currentdict
end
/Helvetica exch definefont pop
/Courier-BoldOblique findfont
dup length dict begin
  {1 index /FID ne {def} {pop pop} ifelse} forall
  /Encoding WinAnsiEncoding def
  currentdict
end
/Courier-BoldOblique exch definefont pop
/Courier-Oblique findfont
dup length dict begin
  {1 index /FID ne {def} {pop pop} ifelse} forall
  /Encoding WinAnsiEncoding def
  currentdict
end
/Courier-Oblique exch definefont pop
/Times-Roman findfont
dup length dict begin
  {1 index /FID ne {def} {pop pop} ifelse} forall
  /Encoding WinAnsiEncoding def
  currentdict
end
/Times-Roman exch definefont pop
/Helvetica-BoldOblique findfont
dup length dict begin
  {1 index /FID ne {def} {pop pop} ifelse} forall
  /Encoding WinAnsiEncoding def
  currentdict
end
/Helvetica-BoldOblique exch definefont pop
/Helvetica-Bold findfont
dup length dict begin
  {1 index /FID ne {def} {pop pop} ifelse} forall
  /Encoding WinAnsiEncoding def
  currentdict
end
/Helvetica-Bold exch definefont pop
/Helvetica-Oblique findfont
dup length dict begin
  {1 index /FID ne {def} {pop pop} ifelse} forall
  /Encoding WinAnsiEncoding def
  currentdict
end
/Helvetica-Oblique exch definefont pop
/Times-BoldItalic findfont
dup length dict begin
  {1 index /FID ne {def} {pop pop} ifelse} forall
  /Encoding WinAnsiEncoding def
  currentdict
end
/Times-BoldItalic exch definefont pop
/Courier findfont
dup length dict begin
  {1 index /FID ne {def} {pop pop} ifelse} forall
  /Encoding WinAnsiEncoding def
  currentdict
end
/Courier exch definefont pop
/Times-Italic findfont
dup length dict begin
  {1 index /FID ne {def} {pop pop} ifelse} forall
  /Encoding WinAnsiEncoding def
  currentdict
end
/Times-Italic exch definefont pop
/Times-Bold findfont
dup length dict begin
  {1 index /FID ne {def} {pop pop} ifelse} forall
  /Encoding WinAnsiEncoding def
  currentdict
end
/Times-Bold exch definefont pop
%FOPEndFontReencode
%%EndProlog
%%Page: 1 1
%%PageBoundingBox: 0 0 450 450
%%BeginPageSetup
[1 0 0 -1 0 450] CT
%%EndPageSetup
GS
[0.75 0 0 0.75 0 0] CT
1 GC
N
0 0 600 600 re
f
GR
GS
[0.75 0 0 0.75 0 0] CT
1 GC
N
0 0 600 600 re
f
GR
GS
[0.75 0 0 0.75 0 0] CT
1 GC
N
85 518.5 M
543 518.5 L
543 60.5 L
85 60.5 L
cp
f
GR
GS
[0.75 0 0 0.75 235.5 420.59569] CT
0.149 GC
/Helvetica 29 F
GS
[1 0 0 1 0 0] CT
-75.743 29.156 moveto 
1 -1 scale
(1-specificity) t 
GR
GR
GS
[0.75 0 0 0.75 0 0] CT
0.149 GC
2 setlinecap
10.0 ML
N
85 518.5 M
543 518.5 L
S
GR
GS
[0.75 0 0 0.75 0 0] CT
0.149 GC
2 setlinecap
10.0 ML
N
85 518.5 M
85 513.92 L
S
GR
GS
[0.75 0 0 0.75 0 0] CT
0.149 GC
2 setlinecap
10.0 ML
N
176.6 518.5 M
176.6 513.92 L
S
GR
GS
[0.75 0 0 0.75 0 0] CT
0.149 GC
2 setlinecap
10.0 ML
N
268.2 518.5 M
268.2 513.92 L
S
GR
GS
[0.75 0 0 0.75 0 0] CT
0.149 GC
2 setlinecap
10.0 ML
N
359.8 518.5 M
359.8 513.92 L
S
GR
GS
[0.75 0 0 0.75 0 0] CT
0.149 GC
2 setlinecap
10.0 ML
N
451.4 518.5 M
451.4 513.92 L
S
GR
GS
[0.75 0 0 0.75 0 0] CT
0.149 GC
2 setlinecap
10.0 ML
N
543 518.5 M
543 513.92 L
S
GR
GS
[0.75 0 0 0.75 63.75 394.875] CT
0.149 GC
/Helvetica 27 F
GS
[1 0 0 1 0 0] CT
-7.508 27.145 moveto 
1 -1 scale
(0) t 
GR
GR
GS
[0.75 0 0 0.75 132.45 394.875] CT
0.149 GC
/Helvetica 27 F
GS
[1 0 0 1 0 0] CT
-18.767 27.145 moveto 
1 -1 scale
(0.2) t 
GR
GR
GS
[0.75 0 0 0.75 201.15001 394.875] CT
0.149 GC
/Helvetica 27 F
GS
[1 0 0 1 0 0] CT
-18.767 27.145 moveto 
1 -1 scale
(0.4) t 
GR
GR
GS
[0.75 0 0 0.75 269.85001 394.875] CT
0.149 GC
/Helvetica 27 F
GS
[1 0 0 1 0 0] CT
-18.767 27.145 moveto 
1 -1 scale
(0.6) t 
GR
GR
GS
[0.75 0 0 0.75 338.55 394.875] CT
0.149 GC
/Helvetica 27 F
GS
[1 0 0 1 0 0] CT
-18.767 27.145 moveto 
1 -1 scale
(0.8) t 
GR
GR
GS
[0.75 0 0 0.75 407.25 394.875] CT
0.149 GC
/Helvetica 27 F
GS
[1 0 0 1 0 0] CT
-7.508 27.145 moveto 
1 -1 scale
(1) t 
GR
GR
GS
[0 -0.75 0.75 0 26.59973 217.125] CT
0.149 GC
/Helvetica 29 F
GS
[1 0 0 1 0 0] CT
-62.85 -6.321 moveto 
1 -1 scale
(sensitivity) t 
GR
GR
GS
[0.75 0 0 0.75 0 0] CT
0.149 GC
2 setlinecap
10.0 ML
N
85 518.5 M
85 60.5 L
S
GR
GS
[0.75 0 0 0.75 0 0] CT
0.149 GC
2 setlinecap
10.0 ML
N
85 518.5 M
89.58 518.5 L
S
GR
GS
[0.75 0 0 0.75 0 0] CT
0.149 GC
2 setlinecap
10.0 ML
N
85 426.9 M
89.58 426.9 L
S
GR
GS
[0.75 0 0 0.75 0 0] CT
0.149 GC
2 setlinecap
10.0 ML
N
85 335.3 M
89.58 335.3 L
S
GR
GS
[0.75 0 0 0.75 0 0] CT
0.149 GC
2 setlinecap
10.0 ML
N
85 243.7 M
89.58 243.7 L
S
GR
GS
[0.75 0 0 0.75 0 0] CT
0.149 GC
2 setlinecap
10.0 ML
N
85 152.1 M
89.58 152.1 L
S
GR
GS
[0.75 0 0 0.75 0 0] CT
0.149 GC
2 setlinecap
10.0 ML
N
85 60.5 M
89.58 60.5 L
S
GR
GS
[0.75 0 0 0.75 57.75 388.875] CT
0.149 GC
/Helvetica 27 F
GS
[1 0 0 1 0 0] CT
-15.016 10.665 moveto 
1 -1 scale
(0) t 
GR
GR
GS
[0.75 0 0 0.75 57.75 320.175] CT
0.149 GC
/Helvetica 27 F
GS
[1 0 0 1 0 0] CT
-37.534 10.665 moveto 
1 -1 scale
(0.2) t 
GR
GR
GS
[0.75 0 0 0.75 57.75 251.47499] CT
0.149 GC
/Helvetica 27 F
GS
[1 0 0 1 0 0] CT
-37.534 10.665 moveto 
1 -1 scale
(0.4) t 
GR
GR
GS
[0.75 0 0 0.75 57.75 182.77499] CT
0.149 GC
/Helvetica 27 F
GS
[1 0 0 1 0 0] CT
-37.534 10.665 moveto 
1 -1 scale
(0.6) t 
GR
GR
GS
[0.75 0 0 0.75 57.75 114.07499] CT
0.149 GC
/Helvetica 27 F
GS
[1 0 0 1 0 0] CT
-37.534 10.665 moveto 
1 -1 scale
(0.8) t 
GR
GR
GS
[0.75 0 0 0.75 57.75 45.375] CT
0.149 GC
/Helvetica 27 F
GS
[1 0 0 1 0 0] CT
-15.016 10.665 moveto 
1 -1 scale
(1) t 
GR
GR
GS
[0.75 0 0 0.75 0 0] CT
0 0 1 RC
[16 4 8 4] 0 setdash
2 LJ
4 LW
N
543 60.5 M
543 60.5 L
543 60.5 L
543 60.5 L
543 60.5 L
543 60.5 L
543 60.5 L
543 60.5 L
543 60.5 L
543 60.5 L
543 60.5 L
543 60.5 L
543 60.5 L
543 60.5 L
543 60.5 L
543 60.5 L
543 60.5 L
543 60.5 L
543 60.5 L
543 60.5 L
543 60.5 L
543 60.5 L
543 60.5 L
543 60.5 L
543 60.5 L
543 60.5 L
543 60.5 L
543 60.5 L
543 60.5 L
543 60.5 L
543 60.5 L
543 60.5 L
543 60.5 L
543 60.5 L
543 60.5 L
543 60.5 L
543 60.5 L
543 60.5 L
543 60.5 L
543 60.5 L
543 60.5 L
543 60.5 L
543 60.5 L
543 60.5 L
543 60.5 L
543 60.5 L
543 60.5 L
543 60.5 L
543 60.5 L
543 60.5 L
543 60.5 L
543 60.5 L
543 60.5 L
543 60.5 L
543 60.5 L
543 60.5 L
543 60.5 L
543 60.5 L
543 60.5 L
543 60.5 L
543 60.5 L
543 60.5 L
543 60.5 L
543 60.5 L
543 60.5 L
543 60.5 L
543 60.5 L
543 60.5 L
543 60.5 L
543 60.5 L
543 60.5 L
543 60.5 L
543 60.5 L
543 60.5 L
543 60.5 L
543 60.5 L
543 60.5 L
543 60.5 L
543 60.5 L
543 60.5 L
543 60.5 L
543 60.5 L
543 60.5 L
543 60.5 L
543 60.5 L
543 60.5 L
543 60.5 L
543 60.5 L
543 60.5 L
543 60.5 L
543 60.5 L
543 60.5 L
543 60.5 L
543 60.5 L
543 60.5 L
543 60.5 L
543 60.5 L
543 60.5 L
543 60.5 L
543 60.5 L
543 60.5 L
543 60.5 L
543 60.5 L
543 60.5 L
543 60.5 L
543 60.5 L
543 60.5 L
543 60.5 L
543 60.5 L
543 60.5 L
543 60.5 L
543 60.5 L
543 60.5 L
543 60.5 L
543 60.5 L
543 60.5 L
543 60.5 L
543 60.5 L
543 60.5 L
543 60.5 L
543 60.5 L
543 60.5 L
543 60.5 L
543 60.5 L
543 60.5 L
543 60.5 L
543 60.5 L
543 60.5 L
543 60.5 L
543 60.5 L
543 60.5 L
543 60.5 L
543 60.5 L
543 60.5 L
543 60.5 L
543 60.5 L
543 60.5 L
543 60.5 L
543 60.5 L
543 60.5 L
543 60.5 L
543 60.5 L
543 60.5 L
543 60.5 L
543 60.5 L
543 60.5 L
543 60.5 L
543 60.5 L
543 60.5 L
543 60.5 L
543 60.5 L
543 60.5 L
543 60.5 L
543 60.5 L
543 60.5 L
543 60.5 L
543 60.5 L
543 60.5 L
543 60.5 L
543 60.5 L
543 60.5 L
543 60.5 L
543 60.5 L
543 60.5 L
543 60.5 L
543 60.5 L
543 60.5 L
543 60.5 L
543 60.5 L
543 60.5 L
543 60.5 L
543 60.5 L
543 60.5 L
543 60.5 L
543 60.5 L
543 60.5 L
543 60.5 L
543 60.5 L
543 60.5 L
543 60.5 L
543 60.5 L
543 60.5 L
543 60.5 L
543 60.5 L
543 60.5 L
543 60.5 L
543 60.5 L
543 60.5 L
543 60.5 L
543 60.5 L
543 60.5 L
543 60.5 L
543 60.5 L
543 60.5 L
543 60.5 L
543 60.5 L
543 60.5 L
543 60.5 L
543 60.5 L
543 60.5 L
543 60.5 L
543 60.5 L
543 60.5 L
543 60.5 L
543 60.5 L
543 60.5 L
543 60.5 L
543 60.5 L
543 60.5 L
543 60.5 L
543 60.5 L
543 60.5 L
543 60.5 L
543 60.5 L
543 60.5 L
543 60.5 L
543 60.5 L
543 60.5 L
543 60.5 L
543 60.5 L
543 60.5 L
543 60.5 L
543 60.5 L
543 60.5 L
543 60.5 L
543 60.5 L
543 60.5 L
543 60.5 L
543 60.5 L
543 60.5 L
543 60.5 L
543 60.5 L
543 60.5 L
543 60.5 L
543 60.5 L
543 60.5 L
543 60.5 L
543 60.5 L
543 60.5 L
543 60.5 L
543 60.5 L
543 60.5 L
543 60.5 L
543 60.5 L
543 60.5 L
543 60.5 L
543 60.5 L
543 60.5 L
543 60.5 L
543 60.5 L
543 60.5 L
543 60.5 L
543 60.5 L
543 60.5 L
543 60.5 L
543 60.5 L
543 60.5 L
543 60.5 L
543 60.5 L
543 60.5 L
543 60.5 L
543 60.5 L
543 60.5 L
543 60.5 L
543 60.5 L
543 60.5 L
543 60.5 L
543 60.5 L
543 60.5 L
543 60.5 L
543 60.5 L
543 60.5 L
543 60.5 L
543 60.5 L
543 60.5 L
543 60.5 L
543 60.5 L
543 60.5 L
543 60.5 L
543 60.5 L
543 60.5 L
543 60.5 L
543 60.5 L
543 60.5 L
543 60.5 L
543 60.5 L
543 60.5 L
543 60.5 L
543 60.5 L
543 60.5 L
543 60.5 L
543 60.5 L
543 60.5 L
543 60.5 L
543 60.5 L
543 60.5 L
543 60.5 L
543 60.5 L
543 60.5 L
543 60.5 L
543 60.5 L
543 60.5 L
543 60.5 L
543 60.5 L
543 60.5 L
543 60.5 L
543 60.5 L
543 60.5 L
543 60.5 L
543 60.5 L
543 61.659 L
543 62.045 L
543 62.045 L
543 62.045 L
543 62.817 L
543 62.817 L
543 63.589 L
543 63.589 L
543 63.976 L
543 63.976 L
543 64.362 L
543 64.748 L
543 64.748 L
543 64.748 L
543 64.748 L
543 64.748 L
543 65.134 L
543 65.52 L
543 65.52 L
543 65.52 L
543 65.52 L
543 65.906 L
543 65.906 L
543 66.293 L
543 66.293 L
543 66.293 L
543 66.293 L
543 66.293 L
543 66.293 L
543 66.679 L
543 66.679 L
543 66.679 L
543 66.679 L
543 66.679 L
543 66.679 L
543 66.679 L
543 66.679 L
543 67.065 L
543 67.065 L
543 67.065 L
543 67.065 L
543 67.065 L
543 67.451 L
543 67.451 L
543 67.451 L
543 67.451 L
543 67.451 L
543 67.451 L
543 67.451 L
543 67.837 L
543 67.837 L
543 67.837 L
543 67.837 L
543 67.837 L
543 67.837 L
543 67.837 L
543 67.837 L
543 67.837 L
543 67.837 L
543 67.837 L
543 67.837 L
543 67.837 L
543 67.837 L
543 67.837 L
543 67.837 L
543 67.837 L
543 67.837 L
543 67.837 L
543 67.837 L
543 67.837 L
543 67.837 L
543 67.837 L
543 67.837 L
543 67.837 L
543 67.837 L
543 67.837 L
543 67.837 L
543 67.837 L
543 67.837 L
543 67.837 L
543 67.837 L
543 67.837 L
539.183 67.837 L
529.642 70.154 L
505.788 75.175 L
476.208 82.512 L
458.079 88.304 L
454.262 90.621 L
453.308 91.008 L
448.538 91.008 L
447.583 91.008 L
446.629 91.008 L
445.675 91.008 L
444.721 91.394 L
438.042 91.394 L
437.087 91.394 L
437.087 91.78 L
437.087 91.78 L
437.087 91.78 L
437.087 91.78 L
437.087 92.166 L
437.087 92.166 L
437.087 92.166 L
437.087 92.166 L
437.087 92.938 L
436.133 93.711 L
435.179 93.711 L
433.271 93.711 L
433.271 93.711 L
433.271 93.711 L
432.317 93.711 L
432.317 93.711 L
432.317 93.711 L
431.363 93.711 L
431.363 93.711 L
431.363 93.711 L
427.546 93.711 L
411.325 93.711 L
395.104 93.711 L
373.158 94.097 L
361.708 94.097 L
350.258 94.097 L
347.396 94.097 L
345.488 94.097 L
341.671 94.097 L
338.808 94.097 L
337.854 94.097 L
337.854 94.097 L
337.854 94.097 L
332.129 94.097 L
308.275 94.097 L
284.421 94.097 L
257.704 94.097 L
251.025 94.097 L
249.117 94.097 L
245.3 94.097 L
244.346 94.097 L
242.438 94.483 L
240.529 94.483 L
239.575 94.483 L
238.621 94.869 L
238.621 94.869 L
237.667 94.869 L
235.758 94.869 L
234.804 95.255 L
232.896 95.255 L
230.988 95.642 L
229.079 95.642 L
228.125 95.642 L
228.125 96.028 L
228.125 96.414 L
228.125 96.414 L
228.125 96.414 L
228.125 96.414 L
228.125 96.414 L
228.125 96.414 L
228.125 96.414 L
228.125 96.414 L
228.125 96.414 L
228.125 96.414 L
228.125 96.8 L
228.125 97.186 L
228.125 97.186 L
228.125 97.186 L
228.125 97.573 L
228.125 97.573 L
228.125 97.573 L
228.125 97.573 L
228.125 97.573 L
228.125 97.573 L
228.125 97.573 L
228.125 97.573 L
228.125 97.573 L
228.125 97.573 L
228.125 97.573 L
228.125 97.573 L
228.125 97.573 L
228.125 97.573 L
228.125 97.573 L
228.125 97.573 L
228.125 97.573 L
228.125 97.573 L
228.125 97.573 L
228.125 97.573 L
228.125 97.573 L
228.125 97.573 L
228.125 97.573 L
228.125 97.573 L
228.125 97.573 L
228.125 97.573 L
228.125 97.573 L
228.125 97.573 L
228.125 97.573 L
228.125 97.573 L
228.125 97.573 L
228.125 97.573 L
228.125 97.573 L
228.125 97.573 L
228.125 97.573 L
228.125 97.573 L
228.125 97.573 L
228.125 97.573 L
228.125 97.573 L
228.125 97.573 L
228.125 97.573 L
228.125 97.573 L
228.125 97.573 L
228.125 97.573 L
228.125 97.573 L
228.125 97.573 L
228.125 97.573 L
228.125 97.573 L
228.125 97.573 L
228.125 97.573 L
228.125 97.573 L
228.125 97.573 L
228.125 97.573 L
228.125 97.573 L
228.125 97.573 L
228.125 97.573 L
228.125 97.573 L
228.125 97.573 L
227.171 97.573 L
227.171 97.959 L
227.171 98.731 L
227.171 98.731 L
227.171 98.731 L
227.171 99.503 L
227.171 100.276 L
227.171 101.82 L
227.171 101.82 L
227.171 102.207 L
227.171 102.207 L
227.171 102.207 L
227.171 102.593 L
227.171 102.593 L
227.171 104.137 L
227.171 104.91 L
227.171 105.682 L
227.171 108.385 L
227.171 111.089 L
227.171 114.564 L
227.171 115.723 L
227.171 119.198 L
227.171 121.515 L
227.171 122.288 L
227.171 123.446 L
227.171 124.218 L
227.171 127.308 L
227.171 129.625 L
227.171 130.397 L
227.171 131.169 L
227.171 131.942 L
227.171 133.1 L
227.171 133.487 L
227.171 133.487 L
227.171 133.487 L
227.171 133.873 L
227.171 133.873 L
227.171 134.259 L
227.171 134.259 L
227.171 134.259 L
227.171 134.259 L
227.171 134.259 L
227.171 134.259 L
227.171 134.645 L
227.171 134.645 L
227.171 134.645 L
227.171 134.645 L
227.171 134.645 L
227.171 134.645 L
227.171 134.645 L
227.171 134.645 L
227.171 134.645 L
227.171 134.645 L
227.171 134.645 L
227.171 134.645 L
227.171 134.645 L
227.171 134.645 L
227.171 134.645 L
227.171 134.645 L
227.171 135.031 L
227.171 135.031 L
227.171 135.417 L
227.171 135.417 L
227.171 135.804 L
227.171 136.576 L
227.171 137.348 L
227.171 137.734 L
227.171 137.734 L
227.171 138.507 L
227.171 138.507 L
227.171 138.893 L
227.171 139.279 L
227.171 140.051 L
227.171 140.824 L
227.171 140.824 L
227.171 140.824 L
227.171 141.21 L
227.171 141.21 L
227.171 141.21 L
227.171 141.596 L
227.171 141.982 L
227.171 141.982 L
227.171 141.982 L
227.171 142.755 L
227.171 143.527 L
226.217 143.913 L
226.217 144.299 L
226.217 144.299 L
226.217 144.299 L
226.217 144.299 L
226.217 144.686 L
226.217 144.686 L
226.217 144.686 L
226.217 144.686 L
226.217 144.686 L
226.217 144.686 L
226.217 144.686 L
226.217 144.686 L
226.217 144.686 L
226.217 145.072 L
226.217 145.072 L
226.217 145.072 L
226.217 145.072 L
226.217 145.072 L
226.217 145.072 L
226.217 145.458 L
226.217 145.458 L
226.217 145.458 L
226.217 145.844 L
226.217 146.23 L
226.217 146.23 L
226.217 146.23 L
226.217 146.23 L
226.217 146.616 L
226.217 147.003 L
226.217 147.003 L
226.217 147.389 L
226.217 147.389 L
226.217 147.389 L
226.217 147.389 L
226.217 147.389 L
226.217 147.775 L
226.217 147.775 L
226.217 148.547 L
226.217 148.547 L
226.217 148.547 L
226.217 148.547 L
226.217 148.933 L
226.217 148.933 L
226.217 148.933 L
226.217 148.933 L
226.217 148.933 L
226.217 148.933 L
226.217 148.933 L
226.217 149.32 L
226.217 149.32 L
226.217 149.32 L
226.217 149.32 L
226.217 149.32 L
226.217 149.32 L
226.217 149.32 L
226.217 149.32 L
226.217 149.32 L
226.217 149.32 L
226.217 149.32 L
226.217 149.32 L
226.217 149.32 L
226.217 149.32 L
226.217 149.32 L
226.217 149.706 L
226.217 150.092 L
226.217 150.478 L
226.217 150.864 L
226.217 150.864 L
226.217 150.864 L
226.217 150.864 L
226.217 150.864 L
226.217 151.25 L
226.217 151.25 L
226.217 151.25 L
226.217 151.25 L
226.217 151.637 L
226.217 151.637 L
226.217 151.637 L
226.217 151.637 L
226.217 151.637 L
226.217 151.637 L
226.217 151.637 L
226.217 151.637 L
225.262 151.637 L
225.262 151.637 L
225.262 151.637 L
225.262 151.637 L
225.262 151.637 L
225.262 151.637 L
225.262 151.637 L
225.262 151.637 L
225.262 151.637 L
225.262 151.637 L
225.262 151.637 L
225.262 151.637 L
225.262 151.637 L
225.262 152.023 L
225.262 152.023 L
225.262 152.023 L
225.262 152.023 L
225.262 152.023 L
225.262 152.023 L
225.262 152.023 L
225.262 152.023 L
225.262 152.023 L
225.262 152.023 L
225.262 152.023 L
225.262 152.023 L
225.262 152.023 L
225.262 152.023 L
225.262 152.023 L
225.262 152.023 L
225.262 152.023 L
225.262 152.023 L
225.262 152.023 L
225.262 152.023 L
225.262 152.023 L
225.262 152.023 L
225.262 152.023 L
225.262 152.023 L
225.262 152.023 L
225.262 152.023 L
225.262 152.023 L
225.262 152.023 L
225.262 152.023 L
225.262 152.023 L
225.262 152.023 L
225.262 152.023 L
225.262 152.409 L
225.262 152.409 L
225.262 153.181 L
225.262 153.181 L
225.262 153.567 L
225.262 153.567 L
225.262 153.567 L
225.262 153.954 L
225.262 153.954 L
225.262 154.34 L
225.262 154.726 L
225.262 155.112 L
225.262 155.112 L
225.262 155.112 L
225.262 155.112 L
225.262 155.498 L
225.262 155.498 L
225.262 155.884 L
225.262 155.884 L
225.262 155.884 L
225.262 155.884 L
225.262 155.884 L
225.262 156.271 L
225.262 157.043 L
225.262 157.043 L
225.262 157.043 L
225.262 157.429 L
225.262 157.429 L
225.262 157.815 L
225.262 158.202 L
225.262 158.974 L
225.262 158.974 L
225.262 159.746 L
225.262 160.519 L
225.262 161.677 L
225.262 162.449 L
225.262 162.449 L
225.262 163.222 L
225.262 163.608 L
225.262 164.38 L
225.262 164.38 L
225.262 164.766 L
225.262 164.766 L
225.262 164.766 L
225.262 164.766 L
225.262 165.153 L
225.262 165.153 L
225.262 165.153 L
225.262 165.539 L
225.262 166.697 L
225.262 167.083 L
225.262 167.47 L
225.262 170.945 L
225.262 172.49 L
225.262 173.648 L
225.262 176.352 L
225.262 177.896 L
225.262 179.055 L
225.262 179.055 L
225.262 179.055 L
225.262 179.055 L
225.262 179.055 L
225.262 179.055 L
225.262 179.055 L
225.262 179.055 L
225.262 179.055 L
225.262 179.055 L
225.262 179.441 L
225.262 179.441 L
225.262 179.441 L
225.262 179.441 L
225.262 179.827 L
225.262 179.827 L
225.262 180.213 L
225.262 180.213 L
225.262 180.6 L
225.262 180.6 L
225.262 180.6 L
225.262 180.986 L
225.262 180.986 L
225.262 180.986 L
225.262 180.986 L
225.262 180.986 L
225.262 180.986 L
225.262 181.372 L
225.262 181.372 L
225.262 181.372 L
225.262 181.372 L
225.262 181.372 L
225.262 181.372 L
225.262 181.758 L
225.262 181.758 L
225.262 181.758 L
225.262 181.758 L
225.262 181.758 L
225.262 181.758 L
225.262 181.758 L
225.262 181.758 L
225.262 181.758 L
225.262 181.758 L
225.262 181.758 L
225.262 181.758 L
225.262 181.758 L
225.262 181.758 L
225.262 181.758 L
225.262 182.144 L
225.262 182.144 L
225.262 182.144 L
225.262 182.144 L
225.262 182.144 L
225.262 182.53 L
225.262 182.53 L
225.262 182.53 L
225.262 182.53 L
225.262 182.53 L
225.262 182.53 L
225.262 182.53 L
225.262 182.53 L
225.262 182.53 L
225.262 182.53 L
225.262 182.53 L
225.262 182.53 L
225.262 182.917 L
225.262 182.917 L
225.262 182.917 L
225.262 182.917 L
225.262 182.917 L
225.262 182.917 L
225.262 182.917 L
225.262 182.917 L
225.262 182.917 L
225.262 182.917 L
225.262 182.917 L
225.262 182.917 L
225.262 182.917 L
225.262 182.917 L
225.262 182.917 L
225.262 182.917 L
225.262 182.917 L
225.262 182.917 L
225.262 182.917 L
225.262 182.917 L
225.262 182.917 L
225.262 182.917 L
225.262 182.917 L
225.262 182.917 L
225.262 182.917 L
225.262 182.917 L
225.262 182.917 L
225.262 182.917 L
225.262 182.917 L
225.262 182.917 L
225.262 182.917 L
225.262 182.917 L
225.262 182.917 L
225.262 182.917 L
225.262 182.917 L
225.262 182.917 L
225.262 182.917 L
225.262 182.917 L
225.262 182.917 L
225.262 182.917 L
225.262 182.917 L
225.262 182.917 L
225.262 182.917 L
225.262 182.917 L
225.262 182.917 L
225.262 182.917 L
225.262 182.917 L
225.262 182.917 L
225.262 183.303 L
225.262 183.303 L
225.262 183.303 L
225.262 183.303 L
225.262 183.303 L
225.262 183.303 L
225.262 183.303 L
225.262 183.303 L
225.262 183.303 L
225.262 183.303 L
225.262 183.303 L
225.262 183.303 L
225.262 183.303 L
225.262 183.303 L
225.262 183.303 L
225.262 183.303 L
225.262 183.303 L
225.262 183.303 L
225.262 183.303 L
225.262 183.303 L
225.262 183.303 L
225.262 183.303 L
225.262 183.303 L
225.262 183.303 L
225.262 183.303 L
225.262 183.303 L
225.262 183.303 L
225.262 183.303 L
225.262 183.303 L
225.262 183.303 L
225.262 183.303 L
225.262 183.303 L
225.262 183.303 L
225.262 183.303 L
225.262 183.303 L
225.262 183.303 L
225.262 183.303 L
225.262 183.303 L
225.262 183.689 L
225.262 183.689 L
225.262 183.689 L
225.262 183.689 L
225.262 183.689 L
225.262 183.689 L
225.262 183.689 L
225.262 183.689 L
225.262 183.689 L
225.262 183.689 L
225.262 183.689 L
225.262 183.689 L
225.262 183.689 L
220.492 183.689 L
210.95 183.689 L
207.133 183.689 L
204.271 183.689 L
202.363 183.689 L
202.363 184.075 L
200.454 184.847 L
198.546 185.234 L
197.592 186.392 L
197.592 186.778 L
196.637 187.164 L
195.683 189.868 L
193.775 190.64 L
191.867 192.185 L
189.958 192.957 L
189.004 194.502 L
188.05 200.294 L
188.05 213.038 L
188.05 222.306 L
187.096 234.664 L
187.096 242.387 L
186.142 257.448 L
186.142 268.647 L
185.188 292.203 L
184.233 336.227 L
182.325 364.804 L
174.692 374.072 L
164.196 382.954 L
161.333 387.588 L
156.563 392.608 L
104.083 403.035 L
90.725 411.917 L
87.863 435.859 L
85 518.5 L
85 518.5 L
S
GR
GS
[0.75 0 0 0.75 0 0] CT
0 1 0 RC
2 setlinecap
10.0 ML
4 LW
N
543 60.5 M
543 60.5 L
543 60.5 L
543 60.5 L
543 60.5 L
543 60.5 L
543 60.5 L
543 60.5 L
543 60.5 L
543 60.5 L
543 60.5 L
543 60.5 L
543 60.5 L
543 60.5 L
543 60.5 L
543 60.5 L
543 60.5 L
543 60.5 L
543 60.5 L
543 60.5 L
543 60.5 L
543 60.5 L
543 60.5 L
543 60.5 L
543 60.5 L
543 60.5 L
543 60.5 L
543 60.5 L
543 60.5 L
543 60.5 L
543 60.5 L
543 60.5 L
543 60.5 L
543 60.5 L
543 60.5 L
543 60.5 L
543 60.5 L
543 60.5 L
543 60.5 L
543 60.5 L
543 60.5 L
543 60.5 L
543 60.5 L
543 60.5 L
543 60.5 L
543 60.5 L
543 60.5 L
543 60.5 L
543 60.5 L
543 60.5 L
543 60.5 L
543 60.5 L
543 60.5 L
543 60.5 L
543 60.5 L
543 60.5 L
543 60.5 L
543 60.5 L
543 60.5 L
543 60.5 L
543 60.5 L
543 60.5 L
543 60.5 L
543 60.5 L
543 60.5 L
543 60.5 L
543 60.5 L
543 60.5 L
543 60.5 L
543 60.5 L
543 60.5 L
543 60.5 L
543 60.5 L
543 60.5 L
543 60.5 L
543 60.5 L
543 60.5 L
543 60.5 L
543 60.5 L
543 60.5 L
543 60.5 L
543 60.5 L
543 60.5 L
543 60.5 L
543 60.5 L
543 60.5 L
543 60.5 L
543 60.5 L
543 60.5 L
543 60.5 L
543 60.5 L
543 60.5 L
543 60.5 L
543 60.5 L
543 60.5 L
543 60.5 L
543 60.5 L
543 60.5 L
543 60.5 L
543 60.5 L
543 60.5 L
543 60.5 L
543 60.5 L
543 60.5 L
543 60.5 L
543 60.5 L
543 60.5 L
543 60.5 L
543 60.5 L
543 60.5 L
543 60.5 L
543 60.5 L
543 60.5 L
543 60.5 L
543 60.5 L
543 60.5 L
543 60.5 L
543 60.5 L
543 60.5 L
543 60.5 L
543 60.5 L
543 60.5 L
543 60.5 L
543 60.5 L
543 60.5 L
543 60.5 L
543 60.5 L
543 60.5 L
543 60.5 L
543 60.5 L
543 60.5 L
543 60.5 L
543 60.5 L
543 60.5 L
543 60.5 L
543 60.5 L
543 60.5 L
543 60.5 L
543 60.5 L
543 60.5 L
543 60.5 L
543 60.5 L
543 60.5 L
543 60.5 L
543 60.5 L
543 60.5 L
543 60.5 L
543 60.5 L
543 60.5 L
543 60.5 L
543 60.5 L
543 60.5 L
543 60.5 L
543 60.5 L
543 60.5 L
543 60.5 L
543 60.5 L
543 60.5 L
543 60.5 L
543 60.5 L
543 60.5 L
543 60.5 L
543 60.5 L
543 60.5 L
543 60.5 L
543 60.5 L
543 60.5 L
543 60.5 L
543 60.5 L
543 60.5 L
543 60.5 L
543 60.5 L
543 60.5 L
543 60.5 L
543 60.5 L
543 60.5 L
543 60.5 L
543 60.5 L
543 60.5 L
543 60.5 L
543 60.5 L
543 60.5 L
543 60.5 L
543 60.5 L
543 60.5 L
543 60.5 L
543 60.5 L
543 60.5 L
543 60.5 L
543 60.5 L
543 60.5 L
543 60.5 L
543 60.5 L
543 60.5 L
543 60.5 L
543 60.5 L
543 60.5 L
543 60.5 L
543 60.5 L
543 60.5 L
543 60.5 L
543 60.5 L
543 60.5 L
543 60.5 L
543 60.5 L
543 60.5 L
543 60.5 L
543 60.5 L
543 60.5 L
543 60.5 L
543 60.5 L
543 60.5 L
543 60.5 L
543 60.5 L
543 60.5 L
543 60.5 L
543 60.5 L
543 60.5 L
543 60.5 L
543 60.5 L
543 60.5 L
543 60.5 L
543 60.5 L
543 60.5 L
543 60.5 L
543 60.5 L
543 60.5 L
543 60.5 L
543 60.5 L
543 60.5 L
543 60.5 L
543 60.5 L
543 60.5 L
543 60.5 L
543 60.5 L
543 60.5 L
543 60.5 L
543 60.5 L
543 60.5 L
543 60.5 L
543 60.5 L
543 60.5 L
543 60.5 L
543 60.5 L
543 60.5 L
543 60.5 L
543 60.5 L
543 60.5 L
543 60.5 L
543 60.5 L
543 60.5 L
543 60.5 L
543 60.5 L
543 60.5 L
543 60.5 L
543 60.5 L
543 60.5 L
543 60.5 L
543 60.5 L
543 60.5 L
543 60.5 L
543 60.5 L
543 60.5 L
543 60.5 L
543 60.5 L
543 60.5 L
543 60.5 L
543 60.5 L
543 60.5 L
543 60.5 L
543 60.5 L
543 60.5 L
543 60.5 L
543 60.5 L
543 60.5 L
543 60.5 L
543 60.5 L
543 60.5 L
543 60.5 L
543 60.5 L
543 60.5 L
543 60.5 L
543 60.5 L
543 60.5 L
543 60.5 L
543 60.5 L
543 60.5 L
543 60.5 L
543 60.5 L
543 60.5 L
543 60.5 L
543 60.5 L
543 60.5 L
543 60.5 L
543 60.5 L
543 60.5 L
543 60.5 L
543 60.5 L
543 60.5 L
543 60.5 L
543 60.5 L
543 60.5 L
543 60.5 L
543 60.5 L
543 60.5 L
543 60.5 L
543 60.5 L
543 60.5 L
543 60.5 L
543 60.5 L
543 60.5 L
543 60.5 L
543 60.5 L
543 60.5 L
543 60.5 L
543 60.5 L
543 60.5 L
543 60.5 L
543 60.5 L
543 60.5 L
543 60.5 L
543 60.5 L
543 60.5 L
543 60.5 L
543 60.5 L
543 60.5 L
543 60.5 L
543 60.5 L
543 60.5 L
543 60.5 L
543 60.5 L
543 60.5 L
543 60.5 L
543 60.5 L
543 60.5 L
543 60.5 L
543 60.5 L
543 60.5 L
543 60.5 L
543 60.5 L
543 60.5 L
543 60.5 L
543 60.5 L
543 60.5 L
543 60.5 L
543 60.5 L
543 60.5 L
543 60.5 L
543 60.5 L
543 60.5 L
543 60.5 L
543 60.5 L
543 60.5 L
543 60.5 L
543 60.5 L
543 60.5 L
543 60.5 L
543 60.5 L
543 60.5 L
543 60.5 L
543 60.5 L
543 60.5 L
543 60.5 L
543 60.5 L
543 60.5 L
543 60.5 L
543 60.5 L
543 60.5 L
543 60.5 L
543 60.5 L
543 60.5 L
543 60.5 L
543 60.5 L
543 60.5 L
543 60.5 L
543 60.5 L
543 60.5 L
543 60.5 L
543 60.5 L
543 60.5 L
543 60.5 L
543 60.5 L
543 60.5 L
543 60.5 L
543 60.5 L
543 60.5 L
543 60.5 L
543 60.5 L
543 60.5 L
543 60.5 L
543 60.5 L
543 60.5 L
543 60.5 L
543 60.5 L
543 60.5 L
543 60.5 L
543 60.5 L
543 60.5 L
543 60.5 L
543 60.5 L
543 60.5 L
543 60.5 L
543 60.5 L
543 60.5 L
543 60.5 L
543 60.5 L
543 60.5 L
543 60.5 L
543 60.5 L
543 60.5 L
543 60.5 L
543 60.5 L
543 60.5 L
543 60.5 L
543 60.5 L
543 60.5 L
543 60.5 L
543 60.5 L
543 60.5 L
543 60.5 L
543 60.5 L
543 60.5 L
543 60.5 L
543 60.5 L
543 60.5 L
543 60.5 L
543 60.5 L
543 60.5 L
543 60.5 L
543 60.5 L
543 60.5 L
543 60.5 L
543 60.5 L
543 60.5 L
543 60.5 L
543 60.5 L
543 60.5 L
543 60.5 L
543 60.5 L
543 60.5 L
543 60.5 L
543 60.5 L
543 60.5 L
543 60.5 L
543 60.5 L
543 60.5 L
543 60.5 L
543 60.5 L
543 60.5 L
543 60.5 L
543 60.5 L
543 60.5 L
543 60.5 L
543 60.5 L
543 60.5 L
543 60.5 L
543 60.5 L
543 60.5 L
543 60.5 L
543 60.5 L
543 60.5 L
543 60.5 L
543 60.5 L
543 60.5 L
543 60.5 L
543 60.5 L
543 60.5 L
543 60.5 L
543 60.5 L
543 60.5 L
543 60.5 L
543 60.5 L
543 60.5 L
543 60.5 L
543 60.5 L
543 60.5 L
543 60.5 L
543 60.5 L
543 60.5 L
543 60.5 L
543 60.5 L
543 60.5 L
543 60.5 L
543 60.5 L
543 60.5 L
543 60.5 L
543 60.5 L
543 60.5 L
543 60.5 L
543 60.5 L
543 60.5 L
543 60.5 L
543 60.5 L
543 60.5 L
543 60.5 L
543 60.5 L
543 60.5 L
543 60.5 L
543 60.5 L
543 60.5 L
543 60.5 L
543 60.5 L
543 60.5 L
543 60.5 L
543 60.5 L
543 60.5 L
543 60.5 L
543 60.5 L
543 60.5 L
543 60.5 L
543 60.5 L
543 60.5 L
543 60.5 L
543 60.5 L
543 60.5 L
543 60.5 L
543 60.5 L
543 60.5 L
543 60.5 L
543 60.5 L
543 60.5 L
543 60.5 L
543 60.5 L
543 60.5 L
543 60.5 L
543 60.5 L
543 60.5 L
543 60.5 L
543 60.5 L
543 60.5 L
543 60.5 L
543 60.5 L
543 60.5 L
543 60.5 L
543 60.5 L
543 60.5 L
543 60.5 L
543 60.5 L
543 60.5 L
543 60.5 L
543 60.5 L
543 60.5 L
543 60.5 L
543 60.5 L
543 60.5 L
543 60.5 L
543 60.5 L
543 60.5 L
543 60.5 L
543 60.5 L
543 60.5 L
543 60.5 L
543 60.5 L
543 60.5 L
543 60.5 L
543 60.5 L
543 60.5 L
543 60.5 L
543 60.5 L
543 60.5 L
543 60.5 L
543 60.5 L
543 60.5 L
543 60.5 L
543 60.5 L
543 60.5 L
543 60.5 L
543 60.5 L
543 60.5 L
543 60.5 L
543 60.5 L
543 60.5 L
543 60.5 L
543 60.5 L
543 60.5 L
543 60.5 L
543 60.5 L
543 60.5 L
543 60.5 L
543 60.5 L
543 60.5 L
543 60.5 L
543 60.5 L
543 60.5 L
543 60.5 L
543 60.5 L
543 60.5 L
543 60.5 L
543 60.5 L
543 60.5 L
543 60.5 L
543 60.5 L
543 60.5 L
543 60.5 L
543 60.5 L
543 60.5 L
543 60.5 L
543 60.5 L
543 60.5 L
543 60.5 L
543 60.5 L
543 60.5 L
543 60.5 L
543 60.5 L
543 60.5 L
543 60.5 L
543 60.5 L
543 60.5 L
543 60.5 L
543 60.5 L
543 60.5 L
543 60.5 L
543 60.5 L
543 61.273 L
543 62.2 L
543 62.663 L
543 62.818 L
543 62.972 L
543 63.59 L
543 64.518 L
543 65.445 L
543 66.063 L
543 66.526 L
543 66.835 L
543 67.144 L
543 67.144 L
543 67.453 L
543 68.381 L
543 70.235 L
542.167 72.089 L
529.391 74.87 L
500.783 78.27 L
473.286 81.978 L
461.621 85.223 L
459.121 87.541 L
458.844 90.477 L
458.844 93.104 L
458.844 96.04 L
458.844 99.439 L
458.844 101.139 L
458.844 102.221 L
458.844 103.302 L
458.844 104.229 L
458.844 104.538 L
458.844 104.693 L
458.844 105.002 L
458.844 105.311 L
458.844 105.62 L
458.844 105.775 L
458.844 106.238 L
458.844 106.238 L
458.844 106.393 L
458.844 106.393 L
458.844 106.856 L
458.844 107.474 L
458.844 107.938 L
458.844 108.247 L
458.844 108.247 L
458.844 108.401 L
458.844 108.865 L
458.844 109.174 L
458.844 109.483 L
458.844 110.565 L
458.844 112.264 L
458.844 113.192 L
458.844 114.428 L
458.844 116.282 L
458.844 117.209 L
458.844 118.6 L
458.844 120.145 L
458.844 120.918 L
458.844 121.999 L
458.844 122.617 L
458.844 122.926 L
458.844 123.854 L
458.844 125.553 L
458.844 127.871 L
458.844 129.107 L
458.844 130.498 L
454.677 132.043 L
444.956 132.97 L
422.181 134.67 L
390.241 138.224 L
358.578 142.396 L
343.58 145.641 L
339.136 148.268 L
337.747 150.431 L
337.747 152.44 L
337.747 153.985 L
337.747 154.603 L
337.747 156.148 L
337.747 156.612 L
337.747 157.385 L
337.747 157.694 L
337.747 158.312 L
337.747 159.393 L
337.747 161.248 L
337.747 163.256 L
337.747 164.802 L
337.747 166.81 L
337.747 168.356 L
337.747 169.437 L
337.747 170.364 L
337.747 170.828 L
337.747 171.601 L
337.747 172.682 L
337.747 174.073 L
337.747 177.318 L
337.747 179.945 L
337.747 181.799 L
337.747 183.499 L
337.747 186.126 L
337.747 187.362 L
337.747 189.525 L
337.747 190.452 L
337.747 192.306 L
337.747 192.924 L
337.747 194.779 L
337.469 196.633 L
337.469 198.024 L
337.469 198.642 L
336.358 199.723 L
327.748 201.114 L
293.586 202.196 L
260.257 202.814 L
248.869 203.586 L
247.203 204.668 L
246.925 205.75 L
246.369 206.368 L
246.092 207.14 L
245.536 208.686 L
245.258 209.922 L
244.981 212.24 L
244.703 213.63 L
244.425 214.712 L
243.87 216.566 L
243.314 218.111 L
243.314 219.348 L
243.036 220.429 L
243.036 221.665 L
243.036 223.365 L
243.036 224.447 L
243.036 225.837 L
243.036 227.692 L
243.036 228.619 L
243.036 230.473 L
243.036 232.327 L
243.036 234.336 L
243.036 235.881 L
243.036 237.272 L
243.036 238.663 L
240.814 241.289 L
229.982 243.453 L
215.262 246.08 L
196.931 247.625 L
187.21 248.861 L
185.266 250.715 L
184.155 252.106 L
181.377 254.269 L
171.101 257.823 L
157.491 265.24 L
152.214 269.567 L
150.825 271.267 L
150.825 273.43 L
150.825 276.211 L
150.825 277.602 L
150.27 278.838 L
149.714 280.692 L
149.437 281.774 L
149.437 283.165 L
149.159 286.101 L
149.159 288.264 L
149.159 289.5 L
149.159 291.045 L
148.603 291.818 L
148.326 293.672 L
147.492 294.599 L
146.659 295.99 L
146.659 297.226 L
145.826 298.771 L
142.771 300.007 L
142.215 301.707 L
140.827 304.18 L
139.16 307.424 L
138.605 309.742 L
137.771 311.906 L
137.771 314.378 L
137.771 315.614 L
137.494 318.395 L
137.494 320.713 L
137.494 324.113 L
137.216 326.894 L
135.549 328.13 L
135.272 331.066 L
134.716 332.766 L
134.438 334.775 L
134.438 336.32 L
134.438 337.865 L
134.161 340.028 L
134.161 341.574 L
134.161 343.428 L
133.883 344.818 L
133.605 345.746 L
132.216 346.518 L
131.939 348.218 L
130.828 350.845 L
130.828 353.317 L
130.55 354.862 L
129.995 355.944 L
129.717 357.335 L
128.328 358.262 L
127.773 360.58 L
127.773 362.434 L
126.939 363.825 L
126.662 365.061 L
126.106 366.76 L
126.106 367.842 L
126.106 370.623 L
125.273 373.559 L
124.995 376.186 L
123.329 379.122 L
121.107 382.058 L
119.996 386.076 L
118.329 390.866 L
117.218 395.965 L
115.83 399.519 L
113.885 401.682 L
111.941 404.155 L
108.886 407.09 L
108.331 410.335 L
107.497 411.881 L
106.942 414.816 L
106.664 416.98 L
105.831 419.452 L
105.553 422.388 L
104.998 426.251 L
104.72 430.269 L
104.442 432.432 L
103.609 434.595 L
103.331 436.14 L
102.498 437.686 L
102.498 439.694 L
101.942 440.776 L
101.665 442.321 L
99.998 443.557 L
98.887 444.794 L
98.609 446.339 L
98.609 449.738 L
98.332 453.91 L
97.776 457.001 L
97.498 460.864 L
95.554 463.336 L
94.999 465.345 L
93.61 466.89 L
92.499 469.362 L
91.11 470.599 L
90.833 472.298 L
90.555 473.998 L
90.555 475.08 L
90.555 475.852 L
89.999 477.088 L
89.999 477.861 L
89.999 478.788 L
89.722 479.715 L
89.722 480.488 L
89.722 481.106 L
89.722 481.724 L
89.722 482.497 L
89.722 482.806 L
89.722 483.269 L
89.722 483.887 L
89.722 484.042 L
89.444 484.505 L
88.888 485.433 L
88.333 485.896 L
87.5 486.823 L
86.111 487.132 L
85.833 487.75 L
85.555 487.905 L
85.278 489.141 L
85 489.45 L
85 490.068 L
85 490.686 L
85 490.995 L
85 491.304 L
85 491.768 L
85 491.922 L
85 492.077 L
85 492.231 L
85 493.313 L
85 494.086 L
85 494.704 L
85 495.013 L
85 495.013 L
85 495.322 L
85 495.785 L
85 496.249 L
85 496.558 L
85 497.176 L
85 497.64 L
85 498.567 L
85 499.03 L
85 499.339 L
85 499.803 L
85 500.421 L
85 500.421 L
85 501.194 L
85 501.812 L
85 502.121 L
85 502.43 L
85 503.202 L
85 503.666 L
85 504.439 L
85 505.057 L
85 506.602 L
85 506.911 L
85 507.529 L
85 507.993 L
85 508.302 L
85 509.229 L
85 509.847 L
85 510.31 L
85 510.465 L
85 511.238 L
85 511.547 L
85 511.701 L
85 512.319 L
85 512.628 L
85 512.628 L
85 512.937 L
85 513.246 L
85 513.246 L
85 513.555 L
85 513.71 L
85 514.019 L
85 514.328 L
85 514.637 L
85 514.637 L
85 514.946 L
85 515.873 L
85 516.646 L
85 517.264 L
85 517.418 L
85 517.882 L
85 518.036 L
85 518.191 L
85 518.345 L
85 518.5 L
85 518.5 L
85 518.5 L
85 518.5 L
85 518.5 L
85 518.5 L
85 518.5 L
85 518.5 L
85 518.5 L
85 518.5 L
85 518.5 L
85 518.5 L
85 518.5 L
85 518.5 L
85 518.5 L
85 518.5 L
85 518.5 L
85 518.5 L
85 518.5 L
85 518.5 L
85 518.5 L
85 518.5 L
85 518.5 L
85 518.5 L
85 518.5 L
85 518.5 L
85 518.5 L
85 518.5 L
85 518.5 L
85 518.5 L
85 518.5 L
85 518.5 L
85 518.5 L
85 518.5 L
85 518.5 L
85 518.5 L
85 518.5 L
85 518.5 L
85 518.5 L
85 518.5 L
85 518.5 L
85 518.5 L
85 518.5 L
85 518.5 L
85 518.5 L
85 518.5 L
85 518.5 L
85 518.5 L
85 518.5 L
85 518.5 L
85 518.5 L
85 518.5 L
85 518.5 L
85 518.5 L
85 518.5 L
S
GR
GS
[0.75 0 0 0.75 0 0] CT
1 0 0 RC
[16 16] 0 setdash
2 LJ
4 LW
N
404.081 518.5 M
404.081 328.096 L
404.081 318.199 L
404.081 310.678 L
404.081 307.115 L
406.251 301.178 L
406.251 295.636 L
406.251 286.927 L
406.251 279.802 L
408.422 277.031 L
408.422 274.656 L
410.592 272.28 L
410.592 269.114 L
414.934 267.134 L
414.934 264.363 L
417.104 258.822 L
417.104 254.863 L
417.104 250.113 L
417.104 247.342 L
419.275 242.592 L
419.275 237.05 L
419.275 230.32 L
419.275 224.778 L
419.275 214.486 L
425.787 207.757 L
425.787 201.819 L
425.787 195.881 L
427.957 188.756 L
430.128 182.026 L
432.299 175.297 L
434.469 168.172 L
438.81 161.442 L
440.981 156.692 L
447.493 149.567 L
456.175 141.254 L
460.517 133.732 L
471.37 126.607 L
488.735 117.503 L
495.246 108.794 L
495.246 102.856 L
499.588 100.481 L
501.758 99.293 L
508.27 95.335 L
516.953 91.772 L
521.294 90.189 L
523.464 88.21 L
529.976 85.043 L
529.976 83.855 L
532.147 80.293 L
543 76.334 L
543 75.146 L
543 71.188 L
543 68.417 L
543 66.042 L
543 63.667 L
543 63.271 L
543 62.083 L
543 61.688 L
543 61.292 L
543 60.5 L
543 60.5 L
543 60.5 L
543 60.5 L
543 60.5 L
543 60.5 L
543 60.5 L
543 60.5 L
543 60.5 L
543 60.5 L
543 60.5 L
543 60.5 L
543 60.5 L
543 60.5 L
543 60.5 L
543 60.5 L
543 60.5 L
543 60.5 L
543 60.5 L
543 60.5 L
543 60.5 L
543 60.5 L
543 60.5 L
543 60.5 L
543 60.5 L
543 60.5 L
543 60.5 L
543 60.5 L
543 60.5 L
543 60.5 L
543 60.5 L
543 60.5 L
543 60.5 L
543 60.5 L
543 60.5 L
543 60.5 L
543 60.5 L
543 60.5 L
543 60.5 L
543 60.5 L
543 60.5 L
543 60.5 L
543 60.5 L
543 60.5 L
S
GR
GS
[0.75 0 0 0.75 0 0] CT
1 GC
N
272 505 M
272 411 L
530 411 L
530 505 L
cp
f
GR
GS
[0.75 0 0 0.75 243.09293 321.16383] CT
/Helvetica 24 F
GS
[1 0 0 1 0 0] CT
0 9.535 moveto 
1 -1 scale
(CNN same-subject) t 
GR
GR
GS
[0.75 0 0 0.75 0 0] CT
0 0 1 RC
[16 4 8 4] 0 setdash
2 LJ
4 LW
N
280.019 428.218 M
320.114 428.218 L
S
GR
GS
[0.75 0 0 0.75 243.09293 343.5] CT
/Helvetica 24 F
GS
[1 0 0 1 0 0] CT
0 9.535 moveto 
1 -1 scale
(CNN cross-subject) t 
GR
GR
GS
[0.75 0 0 0.75 0 0] CT
0 1 0 RC
2 setlinecap
10.0 ML
4 LW
N
280.019 458 M
320.114 458 L
S
GR
GS
[0.75 0 0 0.75 243.09293 365.83617] CT
/Helvetica 24 F
GS
[1 0 0 1 0 0] CT
0 9.535 moveto 
1 -1 scale
(Pisani et al.) t 
GR
GR
GS
[0.75 0 0 0.75 0 0] CT
1 0 0 RC
[16 16] 0 setdash
2 LJ
4 LW
N
280.019 487.782 M
320.114 487.782 L
S
GR
GS
[0.75 0 0 0.75 0 0] CT
0.149 GC
2 setlinecap
10.0 ML
N
272 505 M
272 411 L
530 411 L
530 505 L
272 505 L
S
GR
%%Trailer
%%Pages: 1
%%EOF
