%!PS-Adobe-3.0 EPSF-3.0
%%Creator: (MATLAB, The Mathworks, Inc. Version 8.4.0.150421 \(R2014b\). Operating System: Windows 8)
%%Title: C:/Projects/SD_MICCAI_paper/images/plotsPatient3_legend.eps
%%CreationDate: 2015-03-06T20:26:25
%%Pages: (atend)
%%BoundingBox: 0 0 450 450
%%LanguageLevel: 2
%%EndComments
%%BeginProlog
%%BeginResource: procset (Apache XML Graphics Std ProcSet) 1.2 0
%%Version: 1.2 0
%%Copyright: (Copyright 2001-2003,2010 The Apache Software Foundation. License terms: http://www.apache.org/licenses/LICENSE-2.0)
/bd{bind def}bind def
/ld{load def}bd
/GR/grestore ld
/M/moveto ld
/LJ/setlinejoin ld
/C/curveto ld
/f/fill ld
/LW/setlinewidth ld
/GC/setgray ld
/t/show ld
/N/newpath ld
/CT/concat ld
/cp/closepath ld
/S/stroke ld
/L/lineto ld
/CC/setcmykcolor ld
/A/ashow ld
/GS/gsave ld
/RC/setrgbcolor ld
/RM/rmoveto ld
/ML/setmiterlimit ld
/re {4 2 roll M
1 index 0 rlineto
0 exch rlineto
neg 0 rlineto
cp } bd
/_ctm matrix def
/_tm matrix def
/BT { _ctm currentmatrix pop matrix _tm copy pop 0 0 moveto } bd
/ET { _ctm setmatrix } bd
/iTm { _ctm setmatrix _tm concat } bd
/Tm { _tm astore pop iTm 0 0 moveto } bd
/ux 0.0 def
/uy 0.0 def
/F {
  /Tp exch def
  /Tf exch def
  Tf findfont Tp scalefont setfont
  /cf Tf def  /cs Tp def
} bd
/ULS {currentpoint /uy exch def /ux exch def} bd
/ULE {
  /Tcx currentpoint pop def
  gsave
  newpath
  cf findfont cs scalefont dup
  /FontMatrix get 0 get /Ts exch def /FontInfo get dup
  /UnderlinePosition get Ts mul /To exch def
  /UnderlineThickness get Ts mul /Tt exch def
  ux uy To add moveto  Tcx uy To add lineto
  Tt setlinewidth stroke
  grestore
} bd
/OLE {
  /Tcx currentpoint pop def
  gsave
  newpath
  cf findfont cs scalefont dup
  /FontMatrix get 0 get /Ts exch def /FontInfo get dup
  /UnderlinePosition get Ts mul /To exch def
  /UnderlineThickness get Ts mul /Tt exch def
  ux uy To add cs add moveto Tcx uy To add cs add lineto
  Tt setlinewidth stroke
  grestore
} bd
/SOE {
  /Tcx currentpoint pop def
  gsave
  newpath
  cf findfont cs scalefont dup
  /FontMatrix get 0 get /Ts exch def /FontInfo get dup
  /UnderlinePosition get Ts mul /To exch def
  /UnderlineThickness get Ts mul /Tt exch def
  ux uy To add cs 10 mul 26 idiv add moveto Tcx uy To add cs 10 mul 26 idiv add lineto
  Tt setlinewidth stroke
  grestore
} bd
/QT {
/Y22 exch store
/X22 exch store
/Y21 exch store
/X21 exch store
currentpoint
/Y21 load 2 mul add 3 div exch
/X21 load 2 mul add 3 div exch
/X21 load 2 mul /X22 load add 3 div
/Y21 load 2 mul /Y22 load add 3 div
/X22 load /Y22 load curveto
} bd
/SSPD {
dup length /d exch dict def
{
/v exch def
/k exch def
currentpagedevice k known {
/cpdv currentpagedevice k get def
v cpdv ne {
/upd false def
/nullv v type /nulltype eq def
/nullcpdv cpdv type /nulltype eq def
nullv nullcpdv or
{
/upd true def
} {
/sametype v type cpdv type eq def
sametype {
v type /arraytype eq {
/vlen v length def
/cpdvlen cpdv length def
vlen cpdvlen eq {
0 1 vlen 1 sub {
/i exch def
/obj v i get def
/cpdobj cpdv i get def
obj cpdobj ne {
/upd true def
exit
} if
} for
} {
/upd true def
} ifelse
} {
v type /dicttype eq {
v {
/dv exch def
/dk exch def
/cpddv cpdv dk get def
dv cpddv ne {
/upd true def
exit
} if
} forall
} {
/upd true def
} ifelse
} ifelse
} if
} ifelse
upd true eq {
d k v put
} if
} if
} if
} forall
d length 0 gt {
d setpagedevice
} if
} bd
%%EndResource
%%BeginResource: procset (Apache XML Graphics EPS ProcSet) 1.0 0
%%Version: 1.0 0
%%Copyright: (Copyright 2002-2003 The Apache Software Foundation. License terms: http://www.apache.org/licenses/LICENSE-2.0)
/BeginEPSF { %def
/b4_Inc_state save def         % Save state for cleanup
/dict_count countdictstack def % Count objects on dict stack
/op_count count 1 sub def      % Count objects on operand stack
userdict begin                 % Push userdict on dict stack
/showpage { } def              % Redefine showpage, { } = null proc
0 setgray 0 setlinecap         % Prepare graphics state
1 setlinewidth 0 setlinejoin
10 setmiterlimit [ ] 0 setdash newpath
/languagelevel where           % If level not equal to 1 then
{pop languagelevel             % set strokeadjust and
1 ne                           % overprint to their defaults.
{false setstrokeadjust false setoverprint
} if
} if
} bd
/EndEPSF { %def
count op_count sub {pop} repeat            % Clean up stacks
countdictstack dict_count sub {end} repeat
b4_Inc_state restore
} bd
%%EndResource
%FOPBeginFontDict
%%IncludeResource: font Courier-Bold
%%IncludeResource: font Helvetica
%%IncludeResource: font Courier-BoldOblique
%%IncludeResource: font Courier-Oblique
%%IncludeResource: font Times-Roman
%%IncludeResource: font Helvetica-BoldOblique
%%IncludeResource: font Helvetica-Bold
%%IncludeResource: font Helvetica-Oblique
%%IncludeResource: font Times-BoldItalic
%%IncludeResource: font Courier
%%IncludeResource: font Times-Italic
%%IncludeResource: font Times-Bold
%%IncludeResource: font Symbol
%%IncludeResource: font ZapfDingbats
%FOPEndFontDict
%%BeginResource: encoding WinAnsiEncoding
/WinAnsiEncoding [
/.notdef /.notdef /.notdef /.notdef /.notdef
/.notdef /.notdef /.notdef /.notdef /.notdef
/.notdef /.notdef /.notdef /.notdef /.notdef
/.notdef /.notdef /.notdef /.notdef /.notdef
/.notdef /.notdef /.notdef /.notdef /.notdef
/.notdef /.notdef /.notdef /.notdef /.notdef
/.notdef /.notdef /space /exclam /quotedbl
/numbersign /dollar /percent /ampersand /quotesingle
/parenleft /parenright /asterisk /plus /comma
/hyphen /period /slash /zero /one
/two /three /four /five /six
/seven /eight /nine /colon /semicolon
/less /equal /greater /question /at
/A /B /C /D /E
/F /G /H /I /J
/K /L /M /N /O
/P /Q /R /S /T
/U /V /W /X /Y
/Z /bracketleft /backslash /bracketright /asciicircum
/underscore /quoteleft /a /b /c
/d /e /f /g /h
/i /j /k /l /m
/n /o /p /q /r
/s /t /u /v /w
/x /y /z /braceleft /bar
/braceright /asciitilde /bullet /Euro /bullet
/quotesinglbase /florin /quotedblbase /ellipsis /dagger
/daggerdbl /circumflex /perthousand /Scaron /guilsinglleft
/OE /bullet /Zcaron /bullet /bullet
/quoteleft /quoteright /quotedblleft /quotedblright /bullet
/endash /emdash /asciitilde /trademark /scaron
/guilsinglright /oe /bullet /zcaron /Ydieresis
/space /exclamdown /cent /sterling /currency
/yen /brokenbar /section /dieresis /copyright
/ordfeminine /guillemotleft /logicalnot /sfthyphen /registered
/macron /degree /plusminus /twosuperior /threesuperior
/acute /mu /paragraph /middot /cedilla
/onesuperior /ordmasculine /guillemotright /onequarter /onehalf
/threequarters /questiondown /Agrave /Aacute /Acircumflex
/Atilde /Adieresis /Aring /AE /Ccedilla
/Egrave /Eacute /Ecircumflex /Edieresis /Igrave
/Iacute /Icircumflex /Idieresis /Eth /Ntilde
/Ograve /Oacute /Ocircumflex /Otilde /Odieresis
/multiply /Oslash /Ugrave /Uacute /Ucircumflex
/Udieresis /Yacute /Thorn /germandbls /agrave
/aacute /acircumflex /atilde /adieresis /aring
/ae /ccedilla /egrave /eacute /ecircumflex
/edieresis /igrave /iacute /icircumflex /idieresis
/eth /ntilde /ograve /oacute /ocircumflex
/otilde /odieresis /divide /oslash /ugrave
/uacute /ucircumflex /udieresis /yacute /thorn
/ydieresis
] def
%%EndResource
%FOPBeginFontReencode
/Courier-Bold findfont
dup length dict begin
  {1 index /FID ne {def} {pop pop} ifelse} forall
  /Encoding WinAnsiEncoding def
  currentdict
end
/Courier-Bold exch definefont pop
/Helvetica findfont
dup length dict begin
  {1 index /FID ne {def} {pop pop} ifelse} forall
  /Encoding WinAnsiEncoding def
  currentdict
end
/Helvetica exch definefont pop
/Courier-BoldOblique findfont
dup length dict begin
  {1 index /FID ne {def} {pop pop} ifelse} forall
  /Encoding WinAnsiEncoding def
  currentdict
end
/Courier-BoldOblique exch definefont pop
/Courier-Oblique findfont
dup length dict begin
  {1 index /FID ne {def} {pop pop} ifelse} forall
  /Encoding WinAnsiEncoding def
  currentdict
end
/Courier-Oblique exch definefont pop
/Times-Roman findfont
dup length dict begin
  {1 index /FID ne {def} {pop pop} ifelse} forall
  /Encoding WinAnsiEncoding def
  currentdict
end
/Times-Roman exch definefont pop
/Helvetica-BoldOblique findfont
dup length dict begin
  {1 index /FID ne {def} {pop pop} ifelse} forall
  /Encoding WinAnsiEncoding def
  currentdict
end
/Helvetica-BoldOblique exch definefont pop
/Helvetica-Bold findfont
dup length dict begin
  {1 index /FID ne {def} {pop pop} ifelse} forall
  /Encoding WinAnsiEncoding def
  currentdict
end
/Helvetica-Bold exch definefont pop
/Helvetica-Oblique findfont
dup length dict begin
  {1 index /FID ne {def} {pop pop} ifelse} forall
  /Encoding WinAnsiEncoding def
  currentdict
end
/Helvetica-Oblique exch definefont pop
/Times-BoldItalic findfont
dup length dict begin
  {1 index /FID ne {def} {pop pop} ifelse} forall
  /Encoding WinAnsiEncoding def
  currentdict
end
/Times-BoldItalic exch definefont pop
/Courier findfont
dup length dict begin
  {1 index /FID ne {def} {pop pop} ifelse} forall
  /Encoding WinAnsiEncoding def
  currentdict
end
/Courier exch definefont pop
/Times-Italic findfont
dup length dict begin
  {1 index /FID ne {def} {pop pop} ifelse} forall
  /Encoding WinAnsiEncoding def
  currentdict
end
/Times-Italic exch definefont pop
/Times-Bold findfont
dup length dict begin
  {1 index /FID ne {def} {pop pop} ifelse} forall
  /Encoding WinAnsiEncoding def
  currentdict
end
/Times-Bold exch definefont pop
%FOPEndFontReencode
%%EndProlog
%%Page: 1 1
%%PageBoundingBox: 0 0 450 450
%%BeginPageSetup
[1 0 0 -1 0 450] CT
%%EndPageSetup
GS
[0.75 0 0 0.75 0 0] CT
1 GC
N
0 0 600 600 re
f
GR
GS
[0.75 0 0 0.75 0 0] CT
1 GC
N
0 0 600 600 re
f
GR
GS
[0.75 0 0 0.75 0 0] CT
1 GC
N
85 518.5 M
543 518.5 L
543 60.5 L
85 60.5 L
cp
f
GR
GS
[0.75 0 0 0.75 235.5 420.59569] CT
0.149 GC
/Helvetica 29 F
GS
[1 0 0 1 0 0] CT
-75.743 29.156 moveto 
1 -1 scale
(1-specificity) t 
GR
GR
GS
[0.75 0 0 0.75 0 0] CT
0.149 GC
2 setlinecap
10.0 ML
N
85 518.5 M
543 518.5 L
S
GR
GS
[0.75 0 0 0.75 0 0] CT
0.149 GC
2 setlinecap
10.0 ML
N
85 518.5 M
85 513.92 L
S
GR
GS
[0.75 0 0 0.75 0 0] CT
0.149 GC
2 setlinecap
10.0 ML
N
176.6 518.5 M
176.6 513.92 L
S
GR
GS
[0.75 0 0 0.75 0 0] CT
0.149 GC
2 setlinecap
10.0 ML
N
268.2 518.5 M
268.2 513.92 L
S
GR
GS
[0.75 0 0 0.75 0 0] CT
0.149 GC
2 setlinecap
10.0 ML
N
359.8 518.5 M
359.8 513.92 L
S
GR
GS
[0.75 0 0 0.75 0 0] CT
0.149 GC
2 setlinecap
10.0 ML
N
451.4 518.5 M
451.4 513.92 L
S
GR
GS
[0.75 0 0 0.75 0 0] CT
0.149 GC
2 setlinecap
10.0 ML
N
543 518.5 M
543 513.92 L
S
GR
GS
[0.75 0 0 0.75 63.75 394.875] CT
0.149 GC
/Helvetica 27 F
GS
[1 0 0 1 0 0] CT
-7.508 27.145 moveto 
1 -1 scale
(0) t 
GR
GR
GS
[0.75 0 0 0.75 132.45 394.875] CT
0.149 GC
/Helvetica 27 F
GS
[1 0 0 1 0 0] CT
-18.767 27.145 moveto 
1 -1 scale
(0.2) t 
GR
GR
GS
[0.75 0 0 0.75 201.15001 394.875] CT
0.149 GC
/Helvetica 27 F
GS
[1 0 0 1 0 0] CT
-18.767 27.145 moveto 
1 -1 scale
(0.4) t 
GR
GR
GS
[0.75 0 0 0.75 269.85001 394.875] CT
0.149 GC
/Helvetica 27 F
GS
[1 0 0 1 0 0] CT
-18.767 27.145 moveto 
1 -1 scale
(0.6) t 
GR
GR
GS
[0.75 0 0 0.75 338.55 394.875] CT
0.149 GC
/Helvetica 27 F
GS
[1 0 0 1 0 0] CT
-18.767 27.145 moveto 
1 -1 scale
(0.8) t 
GR
GR
GS
[0.75 0 0 0.75 407.25 394.875] CT
0.149 GC
/Helvetica 27 F
GS
[1 0 0 1 0 0] CT
-7.508 27.145 moveto 
1 -1 scale
(1) t 
GR
GR
GS
[0 -0.75 0.75 0 26.59973 217.125] CT
0.149 GC
/Helvetica 29 F
GS
[1 0 0 1 0 0] CT
-62.85 -6.321 moveto 
1 -1 scale
(sensitivity) t 
GR
GR
GS
[0.75 0 0 0.75 0 0] CT
0.149 GC
2 setlinecap
10.0 ML
N
85 518.5 M
85 60.5 L
S
GR
GS
[0.75 0 0 0.75 0 0] CT
0.149 GC
2 setlinecap
10.0 ML
N
85 518.5 M
89.58 518.5 L
S
GR
GS
[0.75 0 0 0.75 0 0] CT
0.149 GC
2 setlinecap
10.0 ML
N
85 426.9 M
89.58 426.9 L
S
GR
GS
[0.75 0 0 0.75 0 0] CT
0.149 GC
2 setlinecap
10.0 ML
N
85 335.3 M
89.58 335.3 L
S
GR
GS
[0.75 0 0 0.75 0 0] CT
0.149 GC
2 setlinecap
10.0 ML
N
85 243.7 M
89.58 243.7 L
S
GR
GS
[0.75 0 0 0.75 0 0] CT
0.149 GC
2 setlinecap
10.0 ML
N
85 152.1 M
89.58 152.1 L
S
GR
GS
[0.75 0 0 0.75 0 0] CT
0.149 GC
2 setlinecap
10.0 ML
N
85 60.5 M
89.58 60.5 L
S
GR
GS
[0.75 0 0 0.75 57.75 388.875] CT
0.149 GC
/Helvetica 27 F
GS
[1 0 0 1 0 0] CT
-15.016 10.665 moveto 
1 -1 scale
(0) t 
GR
GR
GS
[0.75 0 0 0.75 57.75 320.175] CT
0.149 GC
/Helvetica 27 F
GS
[1 0 0 1 0 0] CT
-37.534 10.665 moveto 
1 -1 scale
(0.2) t 
GR
GR
GS
[0.75 0 0 0.75 57.75 251.47499] CT
0.149 GC
/Helvetica 27 F
GS
[1 0 0 1 0 0] CT
-37.534 10.665 moveto 
1 -1 scale
(0.4) t 
GR
GR
GS
[0.75 0 0 0.75 57.75 182.77499] CT
0.149 GC
/Helvetica 27 F
GS
[1 0 0 1 0 0] CT
-37.534 10.665 moveto 
1 -1 scale
(0.6) t 
GR
GR
GS
[0.75 0 0 0.75 57.75 114.07499] CT
0.149 GC
/Helvetica 27 F
GS
[1 0 0 1 0 0] CT
-37.534 10.665 moveto 
1 -1 scale
(0.8) t 
GR
GR
GS
[0.75 0 0 0.75 57.75 45.375] CT
0.149 GC
/Helvetica 27 F
GS
[1 0 0 1 0 0] CT
-15.016 10.665 moveto 
1 -1 scale
(1) t 
GR
GR
GS
[0.75 0 0 0.75 0 0] CT
0 0 1 RC
[16 4 8 4] 0 setdash
2 LJ
4 LW
N
543 60.5 M
490.028 60.5 L
481.188 60.5 L
476.433 60.5 L
474.826 60.5 L
472.884 60.5 L
471.544 60.5 L
468.932 60.5 L
464.178 60.5 L
461.834 60.5 L
461.432 60.5 L
461.03 60.5 L
460.628 60.5 L
460.026 60.5 L
459.49 60.5 L
459.021 60.5 L
458.485 60.5 L
457.95 60.5 L
457.682 60.5 L
457.28 60.5 L
456.878 60.5 L
456.677 60.5 L
456.543 60.5 L
456.409 60.5 L
456.141 60.5 L
455.94 60.5 L
455.472 60.5 L
454.869 60.5 L
454.668 60.5 L
454.467 60.5 L
454.467 60.5 L
454.4 60.5 L
454.065 60.5 L
453.53 60.5 L
452.994 60.5 L
452.525 60.5 L
452.324 60.5 L
452.056 60.5 L
451.922 60.5 L
451.521 60.5 L
451.253 60.5 L
450.985 60.5 L
450.784 60.5 L
450.449 60.5 L
450.047 60.5 L
449.511 61.477 L
449.378 62.21 L
448.842 62.454 L
448.105 62.454 L
447.77 62.698 L
447.168 62.698 L
446.699 62.943 L
445.962 63.187 L
445.225 63.431 L
443.953 63.92 L
443.149 64.408 L
442.279 64.653 L
441.341 64.897 L
440.471 65.141 L
439.265 65.385 L
438.997 65.63 L
438.462 66.118 L
437.993 66.607 L
437.39 66.607 L
436.854 66.607 L
436.453 66.607 L
435.984 66.851 L
435.582 66.851 L
435.18 67.095 L
435.046 67.095 L
434.644 67.584 L
434.376 68.072 L
434.176 68.561 L
434.109 68.561 L
433.908 68.561 L
433.707 69.294 L
433.439 69.782 L
433.439 69.782 L
433.037 70.026 L
432.702 70.271 L
432.501 70.759 L
432.367 71.248 L
432.1 71.736 L
431.899 71.981 L
431.497 71.981 L
431.229 72.225 L
431.095 72.225 L
430.626 72.469 L
430.224 72.469 L
430.024 72.469 L
429.622 72.469 L
429.22 72.958 L
428.952 72.958 L
428.349 73.202 L
427.948 73.69 L
427.479 73.69 L
426.876 73.69 L
426.139 73.935 L
425.805 74.179 L
425.269 74.179 L
424.867 74.179 L
424.465 74.179 L
423.661 74.423 L
422.791 74.667 L
421.786 74.912 L
421.184 75.645 L
420.112 76.377 L
418.773 76.377 L
417.902 76.622 L
417.032 77.11 L
416.362 77.354 L
415.625 77.599 L
414.286 78.087 L
413.616 78.331 L
413.08 78.576 L
412.344 78.576 L
411.741 78.82 L
411.339 78.82 L
410.937 78.82 L
410.67 79.309 L
410.335 79.553 L
410.067 79.553 L
409.732 80.041 L
409.397 80.53 L
408.928 81.263 L
408.259 81.507 L
407.991 81.507 L
407.455 81.995 L
406.584 82.24 L
405.714 82.24 L
405.044 82.24 L
404.174 82.484 L
403.437 82.484 L
402.901 82.484 L
402.298 82.973 L
401.83 83.217 L
401.16 84.438 L
400.825 84.682 L
400.49 85.171 L
399.955 85.659 L
399.687 85.904 L
399.62 85.904 L
399.62 85.904 L
399.553 86.148 L
399.486 86.392 L
399.218 86.637 L
399.084 86.881 L
398.95 87.125 L
398.816 87.125 L
398.749 88.102 L
398.682 88.591 L
398.615 88.591 L
398.414 89.079 L
398.146 89.568 L
397.745 90.056 L
397.276 90.545 L
397.008 90.545 L
396.874 90.545 L
396.807 90.545 L
396.74 90.789 L
396.673 90.789 L
396.472 90.789 L
396.338 90.789 L
396.204 90.789 L
396.137 91.278 L
396.003 91.278 L
395.802 91.522 L
395.669 91.766 L
395.535 91.766 L
395.334 92.255 L
395.267 92.255 L
395.133 92.255 L
394.932 92.499 L
394.932 92.499 L
394.932 92.499 L
394.932 92.499 L
394.932 92.743 L
394.865 92.743 L
394.798 92.987 L
394.798 92.987 L
394.731 92.987 L
394.664 93.232 L
394.597 93.232 L
394.53 93.476 L
394.396 93.476 L
394.262 93.476 L
394.128 93.476 L
393.86 93.476 L
393.793 93.72 L
393.793 93.72 L
393.726 93.965 L
393.592 93.965 L
393.459 93.965 L
393.258 94.209 L
393.258 94.209 L
393.124 94.453 L
393.124 94.697 L
393.057 94.942 L
392.99 95.186 L
392.923 95.43 L
392.923 95.43 L
392.856 96.163 L
392.521 96.407 L
392.454 96.651 L
392.32 96.651 L
392.253 96.651 L
392.119 97.14 L
391.985 97.629 L
391.851 97.629 L
391.65 97.873 L
391.65 97.873 L
391.516 97.873 L
391.383 97.873 L
391.182 98.117 L
390.981 98.117 L
390.981 98.117 L
390.981 98.117 L
390.914 98.117 L
390.847 98.117 L
390.847 98.117 L
390.646 98.361 L
390.445 98.361 L
390.378 98.361 L
390.244 98.606 L
390.11 98.606 L
389.976 98.85 L
389.909 99.094 L
389.909 99.338 L
389.909 99.583 L
389.775 99.827 L
389.574 99.827 L
389.507 100.071 L
389.507 100.071 L
389.373 100.071 L
389.306 100.071 L
389.173 100.071 L
389.039 100.071 L
388.704 100.56 L
388.503 101.293 L
388.369 101.537 L
388.302 101.537 L
388.302 101.537 L
388.101 101.537 L
388.034 101.537 L
387.833 101.537 L
387.699 101.537 L
387.632 101.537 L
387.498 101.781 L
387.297 102.025 L
386.896 102.025 L
386.695 102.025 L
386.561 102.514 L
386.226 102.514 L
386.092 102.758 L
385.891 102.758 L
385.824 103.247 L
385.824 103.735 L
385.489 103.735 L
385.288 104.224 L
384.619 104.957 L
384.351 105.445 L
384.284 105.934 L
383.882 106.178 L
383.413 106.178 L
383.078 106.666 L
382.744 106.911 L
382.61 106.911 L
382.141 107.155 L
381.672 107.399 L
381.404 108.132 L
381.069 108.132 L
380.601 108.132 L
380.132 108.376 L
379.395 108.376 L
378.458 108.376 L
377.721 108.865 L
377.051 109.353 L
376.248 109.598 L
375.176 109.842 L
373.837 110.086 L
372.497 110.819 L
370.89 111.063 L
369.417 111.063 L
367.742 111.063 L
366.001 111.307 L
364.662 111.796 L
362.787 112.529 L
361.046 113.017 L
358.3 113.506 L
356.894 113.75 L
355.085 114.239 L
353.545 115.216 L
350.732 115.46 L
348.322 115.949 L
346.848 116.437 L
344.37 116.926 L
342.294 117.17 L
340.486 117.903 L
338.879 118.147 L
336.803 118.635 L
335.062 119.368 L
333.856 119.613 L
332.249 120.59 L
330.575 121.078 L
329.704 121.322 L
328.633 122.055 L
327.561 122.299 L
326.423 123.032 L
325.82 123.521 L
325.418 123.521 L
324.682 124.742 L
323.409 124.986 L
322.338 125.963 L
322.07 126.208 L
321.199 126.452 L
320.663 127.429 L
320.529 128.162 L
320.195 128.162 L
319.793 128.65 L
319.525 129.627 L
319.19 130.116 L
318.721 130.605 L
318.253 130.605 L
318.052 131.093 L
317.851 131.337 L
317.449 131.582 L
317.181 132.07 L
317.114 132.314 L
316.511 132.314 L
316.043 132.559 L
315.507 133.291 L
315.373 133.78 L
314.971 134.269 L
314.904 135.49 L
314.636 135.49 L
314.569 135.978 L
314.234 135.978 L
313.766 136.467 L
313.498 136.955 L
313.364 137.2 L
313.297 137.933 L
313.096 138.421 L
312.761 138.421 L
312.493 138.421 L
312.359 139.154 L
311.89 139.642 L
311.489 140.131 L
311.02 140.619 L
310.752 140.864 L
310.417 141.108 L
310.149 141.108 L
309.881 141.352 L
309.681 141.841 L
309.212 142.085 L
308.676 142.329 L
308.542 142.329 L
308.073 142.818 L
307.872 143.062 L
307.671 143.306 L
307.538 143.551 L
307.203 143.551 L
307.136 143.795 L
307.002 144.039 L
306.734 144.772 L
306.667 145.016 L
306.399 145.261 L
306.131 145.505 L
305.863 145.993 L
305.395 146.482 L
305.06 146.726 L
304.524 147.459 L
303.921 147.947 L
303.318 148.436 L
302.448 149.169 L
301.711 149.413 L
301.175 149.657 L
300.238 150.146 L
299.501 150.39 L
298.631 151.611 L
297.626 151.856 L
296.622 152.1 L
295.751 152.833 L
294.679 153.321 L
293.608 153.321 L
291.867 155.031 L
290.594 156.008 L
288.987 156.253 L
287.849 156.253 L
285.237 156.741 L
282.826 156.741 L
280.817 157.474 L
278.875 157.962 L
277 158.207 L
275.192 158.451 L
273.45 159.184 L
271.441 160.161 L
269.7 161.138 L
267.691 161.871 L
266.017 162.603 L
263.472 163.336 L
261.865 164.069 L
259.856 164.802 L
258.449 165.29 L
257.244 165.535 L
255.838 166.756 L
254.096 167.245 L
252.69 167.733 L
251.752 168.466 L
250.48 168.71 L
249.676 169.199 L
248.069 169.687 L
247.333 170.176 L
246.663 170.664 L
245.658 171.153 L
245.056 171.641 L
244.118 172.374 L
243.113 172.863 L
242.042 174.084 L
241.305 174.817 L
240.368 175.061 L
239.698 175.794 L
238.827 176.282 L
238.024 176.771 L
237.153 177.504 L
236.417 178.237 L
235.613 178.237 L
234.876 178.725 L
233.872 178.969 L
233.202 179.702 L
232.064 180.191 L
231.327 180.435 L
230.657 180.923 L
230.055 181.412 L
229.452 181.901 L
228.849 182.145 L
228.313 182.389 L
227.912 182.878 L
227.577 183.366 L
226.84 184.099 L
226.304 184.343 L
225.434 184.587 L
224.697 185.076 L
223.826 185.32 L
223.224 185.565 L
222.487 186.297 L
222.018 186.542 L
221.349 187.03 L
220.88 187.274 L
220.076 188.74 L
219.54 188.984 L
218.871 189.961 L
218.402 191.183 L
217.665 191.183 L
217.13 191.915 L
216.46 191.915 L
215.589 191.915 L
214.719 191.915 L
214.116 192.404 L
213.513 192.893 L
212.777 193.137 L
212.442 193.625 L
211.906 194.114 L
211.035 194.602 L
210.232 194.602 L
209.696 194.847 L
209.093 195.091 L
208.624 195.579 L
208.29 195.579 L
207.419 195.824 L
206.682 195.824 L
206.348 196.312 L
206.013 197.045 L
205.41 197.534 L
204.941 198.266 L
204.539 198.755 L
204.071 199.243 L
203.535 199.732 L
203.267 200.465 L
202.932 200.709 L
202.53 201.198 L
201.928 201.198 L
201.593 201.442 L
201.325 201.686 L
200.856 201.93 L
200.521 202.419 L
200.052 202.663 L
199.316 202.907 L
198.981 202.907 L
198.847 203.885 L
198.244 204.617 L
197.776 204.617 L
197.508 204.617 L
197.039 205.594 L
196.637 205.839 L
196.436 205.839 L
196.235 206.816 L
195.7 207.06 L
195.298 207.304 L
195.231 207.549 L
195.03 208.037 L
194.628 208.526 L
194.494 208.77 L
194.092 209.014 L
193.69 209.014 L
193.356 209.258 L
192.82 209.503 L
192.552 209.991 L
192.083 210.724 L
191.882 210.724 L
191.079 210.724 L
190.878 210.968 L
190.677 211.457 L
190.342 212.19 L
190.141 212.922 L
189.806 213.655 L
189.806 214.632 L
189.337 214.632 L
189.003 214.877 L
188.869 214.877 L
188.735 214.877 L
188.467 215.121 L
188.467 215.609 L
188.199 215.609 L
188.065 215.609 L
187.864 216.098 L
187.596 216.342 L
187.395 217.319 L
187.194 218.052 L
186.994 218.052 L
186.793 218.541 L
186.592 218.785 L
186.324 218.785 L
185.989 219.029 L
185.922 219.762 L
185.721 220.25 L
185.386 220.739 L
184.984 220.739 L
184.851 221.472 L
184.65 221.472 L
184.449 221.716 L
184.248 222.205 L
184.047 222.205 L
183.913 222.693 L
183.846 222.693 L
183.511 222.693 L
183.109 222.937 L
183.042 222.937 L
183.042 223.182 L
182.841 223.67 L
182.641 223.67 L
182.507 223.914 L
182.172 224.159 L
181.971 224.647 L
181.971 225.136 L
181.77 225.624 L
181.77 226.357 L
181.569 227.334 L
181.301 227.578 L
180.966 228.311 L
180.832 229.044 L
180.698 229.044 L
180.498 229.288 L
180.364 229.777 L
180.096 230.51 L
179.895 231.242 L
179.828 231.975 L
179.828 232.952 L
179.627 233.929 L
179.426 233.929 L
179.158 234.418 L
179.024 234.418 L
178.89 236.128 L
178.823 236.372 L
178.756 236.616 L
178.689 237.349 L
178.555 237.838 L
178.422 238.082 L
178.422 238.326 L
178.355 239.059 L
178.355 239.547 L
178.288 241.013 L
178.154 241.502 L
178.154 241.99 L
178.087 242.723 L
178.087 242.967 L
178.02 243.456 L
178.02 244.677 L
177.953 246.143 L
177.886 246.875 L
177.752 247.12 L
177.752 247.853 L
177.685 248.585 L
177.685 249.074 L
177.618 249.318 L
177.551 249.562 L
177.484 250.295 L
177.35 251.517 L
177.35 251.761 L
177.283 252.494 L
177.216 253.715 L
177.149 253.959 L
177.149 254.203 L
177.015 254.936 L
176.948 255.669 L
176.881 255.913 L
176.814 256.158 L
176.814 256.402 L
176.613 256.89 L
176.546 256.89 L
176.412 257.135 L
176.412 257.867 L
176.346 258.356 L
176.346 258.356 L
176.346 258.356 L
176.346 258.845 L
176.212 259.089 L
176.145 259.577 L
176.011 259.822 L
175.877 260.31 L
175.81 260.554 L
175.743 261.043 L
175.609 261.287 L
175.542 261.776 L
175.542 262.509 L
175.475 263.241 L
175.408 263.974 L
175.341 265.195 L
175.274 265.44 L
175.207 266.173 L
175.073 266.173 L
175.006 266.905 L
174.872 267.882 L
174.872 267.882 L
174.872 268.615 L
174.872 269.104 L
174.805 269.837 L
174.671 270.569 L
174.604 270.814 L
174.604 271.302 L
174.537 271.791 L
174.537 272.768 L
174.537 273.501 L
174.47 274.478 L
174.47 275.21 L
174.47 275.943 L
174.47 276.432 L
174.47 277.165 L
174.403 277.897 L
174.336 278.63 L
174.269 279.119 L
174.136 279.607 L
174.069 280.34 L
173.868 280.829 L
173.734 281.561 L
173.667 281.806 L
173.6 282.294 L
173.466 282.294 L
173.399 283.027 L
173.265 283.027 L
173.265 283.271 L
173.131 283.515 L
173.131 283.515 L
173.064 284.004 L
172.93 284.493 L
172.796 284.737 L
172.662 285.714 L
172.528 285.958 L
172.461 285.958 L
172.461 286.447 L
172.394 286.691 L
172.26 287.179 L
172.26 287.668 L
172.193 287.668 L
172.06 288.401 L
171.993 288.889 L
171.993 289.134 L
171.792 289.866 L
171.792 289.866 L
171.792 290.355 L
171.725 290.599 L
171.524 291.088 L
171.39 292.309 L
171.39 292.309 L
171.39 292.553 L
171.323 293.286 L
171.323 294.019 L
171.256 294.752 L
171.055 294.996 L
170.988 295.729 L
170.988 295.973 L
170.988 295.973 L
170.988 296.217 L
170.988 296.462 L
170.787 296.706 L
170.653 297.927 L
170.653 299.149 L
170.653 299.149 L
170.586 299.393 L
170.519 300.126 L
170.452 301.103 L
170.318 301.347 L
170.318 301.835 L
170.318 302.324 L
170.251 303.301 L
170.05 303.79 L
169.917 305.011 L
169.917 305.988 L
169.85 305.988 L
169.783 306.721 L
169.783 307.454 L
169.783 307.454 L
169.783 307.698 L
169.649 307.698 L
169.448 308.186 L
169.314 309.652 L
169.113 310.141 L
169.046 310.629 L
168.845 311.118 L
168.778 311.362 L
168.577 311.606 L
168.309 312.095 L
168.242 312.095 L
168.108 312.583 L
168.041 312.827 L
167.84 313.072 L
167.774 313.072 L
167.506 313.805 L
167.305 314.293 L
167.037 314.537 L
166.903 314.782 L
166.769 315.026 L
166.434 315.27 L
166.166 316.003 L
165.965 316.247 L
165.697 316.736 L
165.497 316.736 L
165.162 316.736 L
164.894 316.736 L
164.76 317.224 L
164.291 317.713 L
163.822 317.957 L
163.755 318.201 L
163.755 318.69 L
163.688 318.69 L
163.488 318.934 L
163.287 318.934 L
163.019 318.934 L
163.019 319.667 L
162.885 320.155 L
162.818 320.888 L
162.617 321.133 L
162.483 322.354 L
162.282 322.598 L
162.148 322.598 L
162.148 323.575 L
162.014 323.819 L
161.88 323.819 L
161.545 324.064 L
161.344 324.797 L
161.144 325.529 L
161.077 325.529 L
160.675 325.774 L
160.005 325.774 L
159.67 326.995 L
159.268 326.995 L
158.8 327.239 L
158.197 328.461 L
157.326 329.193 L
156.925 329.682 L
155.987 330.415 L
155.384 330.415 L
154.313 330.659 L
153.174 332.125 L
152.572 333.59 L
151.165 334.323 L
149.96 334.811 L
148.62 335.544 L
147.214 336.521 L
146.009 336.766 L
144.2 336.766 L
142.66 337.254 L
142.057 338.475 L
140.584 338.964 L
139.044 339.453 L
137.905 339.697 L
136.164 340.43 L
134.356 340.918 L
132.28 341.651 L
131.209 341.651 L
130.07 341.895 L
128.396 342.139 L
127.19 343.117 L
126.32 343.605 L
125.315 343.605 L
124.713 343.849 L
123.909 344.338 L
122.971 344.582 L
122.503 345.071 L
122.235 345.803 L
121.699 345.803 L
121.364 346.292 L
121.029 346.292 L
120.828 346.781 L
120.56 347.269 L
120.36 347.758 L
120.159 347.758 L
119.958 348.002 L
119.891 348.49 L
119.824 348.735 L
119.69 349.223 L
119.623 350.2 L
119.623 350.689 L
119.489 350.689 L
119.489 351.177 L
119.422 351.177 L
119.422 351.666 L
119.422 351.91 L
119.422 352.154 L
119.422 353.131 L
119.422 353.131 L
119.422 353.131 L
119.355 353.62 L
119.221 353.864 L
119.02 353.864 L
119.02 354.353 L
118.953 354.353 L
118.953 354.597 L
118.819 354.597 L
118.752 354.841 L
118.685 355.086 L
118.551 355.574 L
118.551 356.063 L
118.551 356.551 L
118.551 356.551 L
118.417 357.04 L
118.15 357.284 L
118.083 358.261 L
117.949 358.75 L
117.882 359.238 L
117.882 360.215 L
117.815 360.215 L
117.748 360.948 L
117.614 360.948 L
117.614 360.948 L
117.547 361.192 L
117.413 361.192 L
117.346 361.925 L
117.212 362.169 L
117.011 362.902 L
116.944 363.635 L
116.877 364.123 L
116.743 364.612 L
116.743 365.101 L
116.609 365.589 L
116.609 365.589 L
116.609 365.589 L
116.542 366.078 L
116.542 366.078 L
116.542 366.322 L
116.542 366.566 L
116.542 366.566 L
116.475 367.299 L
116.475 368.032 L
116.408 368.52 L
116.408 368.765 L
116.408 369.497 L
116.408 370.474 L
116.408 370.474 L
116.408 370.719 L
116.341 371.696 L
116.341 371.696 L
116.274 371.94 L
116.274 372.184 L
116.207 372.673 L
116.141 373.161 L
116.074 373.406 L
116.007 374.138 L
116.007 375.604 L
115.94 376.337 L
115.873 376.581 L
115.873 378.047 L
115.806 378.779 L
115.806 379.268 L
115.739 380.245 L
115.672 381.955 L
115.672 382.443 L
115.672 382.932 L
115.672 383.421 L
115.672 383.421 L
115.672 383.909 L
115.605 384.398 L
115.605 384.398 L
115.404 385.13 L
115.404 385.375 L
115.404 385.619 L
115.404 385.863 L
115.337 386.107 L
115.203 386.596 L
115.203 387.085 L
115.136 387.573 L
115.136 388.306 L
115.136 388.55 L
115.069 388.55 L
115.002 389.039 L
115.002 390.016 L
115.002 390.016 L
115.002 390.016 L
115.002 390.504 L
114.935 390.993 L
114.935 390.993 L
114.868 391.481 L
114.868 391.97 L
114.868 392.214 L
114.801 392.214 L
114.801 392.703 L
114.801 392.947 L
114.734 393.435 L
114.6 393.924 L
114.6 394.168 L
114.6 394.413 L
114.466 394.657 L
114.466 395.39 L
114.265 395.634 L
114.265 396.367 L
114.198 396.855 L
114.131 397.832 L
114.064 398.321 L
113.931 398.321 L
113.864 399.542 L
113.73 400.275 L
113.596 401.008 L
113.462 401.496 L
113.462 402.473 L
113.261 402.718 L
113.261 403.206 L
113.127 403.45 L
113.127 403.939 L
112.993 404.427 L
112.859 404.916 L
112.792 404.916 L
112.725 405.405 L
112.591 406.382 L
112.524 406.87 L
112.524 407.114 L
112.39 407.847 L
112.323 408.336 L
111.988 408.824 L
111.855 409.557 L
111.721 410.534 L
111.52 411.023 L
111.386 412 L
111.185 412.244 L
110.85 413.221 L
110.046 414.198 L
109.243 414.931 L
107.702 415.908 L
105.626 417.129 L
102.881 417.618 L
100.202 418.351 L
98.126 419.328 L
96.452 420.793 L
95.38 421.282 L
94.71 421.526 L
94.376 422.503 L
94.041 423.48 L
93.974 424.213 L
93.639 424.457 L
93.572 424.946 L
93.438 425.923 L
93.036 426.411 L
92.768 427.144 L
92.3 428.121 L
92.032 428.854 L
91.831 429.831 L
91.362 431.297 L
90.893 432.274 L
90.558 432.762 L
90.023 434.472 L
89.621 436.426 L
89.42 438.869 L
89.219 441.067 L
89.018 442.777 L
88.817 445.953 L
88.75 448.884 L
88.683 451.327 L
88.482 453.281 L
88.348 455.723 L
88.215 459.143 L
88.148 460.365 L
88.148 463.296 L
88.148 465.738 L
88.014 467.693 L
88.014 469.158 L
87.947 472.578 L
87.947 474.288 L
87.947 481.616 L
87.88 485.524 L
87.813 493.341 L
87.344 500.18 L
86.473 505.798 L
85 518.5 L
85 518.5 L
S
GR
GS
[0.75 0 0 0.75 0 0] CT
0 1 0 RC
2 setlinecap
10.0 ML
4 LW
N
543 60.5 M
92.844 518.5 L
89.281 518.5 L
86.601 518.5 L
86.046 518.5 L
85.507 518.5 L
85.245 518.5 L
85.098 518.5 L
85.033 518.5 L
85 518.5 L
85 518.5 L
85 518.5 L
85 518.5 L
85 518.5 L
85 518.5 L
85 518.5 L
85 518.5 L
85 518.5 L
85 518.5 L
85 518.5 L
85 518.5 L
85 518.5 L
85 518.5 L
85 518.5 L
85 518.5 L
85 518.5 L
85 518.5 L
85 518.5 L
85 518.5 L
85 518.5 L
85 518.5 L
85 518.5 L
85 518.5 L
85 518.5 L
85 518.5 L
85 518.5 L
85 518.5 L
85 518.5 L
85 518.5 L
85 518.5 L
85 518.5 L
85 518.5 L
85 518.5 L
85 518.5 L
85 518.5 L
85 518.5 L
85 518.5 L
85 518.5 L
85 518.5 L
85 518.5 L
85 518.5 L
85 518.5 L
85 518.5 L
85 518.5 L
85 518.5 L
85 518.5 L
85 518.5 L
85 518.5 L
85 518.5 L
85 518.5 L
85 518.5 L
85 518.5 L
85 518.5 L
85 518.5 L
85 518.5 L
85 518.5 L
85 518.5 L
85 518.5 L
85 518.5 L
85 518.5 L
85 518.5 L
85 518.5 L
85 518.5 L
85 518.5 L
85 518.5 L
85 518.5 L
85 518.5 L
85 518.5 L
85 518.5 L
85 518.5 L
85 518.5 L
85 518.5 L
85 518.5 L
85 518.5 L
85 518.5 L
85 518.5 L
85 518.5 L
85 518.5 L
85 518.5 L
85 518.5 L
85 518.5 L
85 518.5 L
85 518.5 L
85 518.5 L
85 518.5 L
85 518.5 L
85 518.5 L
85 518.5 L
85 518.5 L
85 518.5 L
85 518.5 L
85 518.5 L
85 518.5 L
85 518.5 L
85 518.5 L
85 518.5 L
85 518.5 L
85 518.5 L
85 518.5 L
85 518.5 L
85 518.5 L
85 518.5 L
85 518.5 L
85 518.5 L
85 518.5 L
85 518.5 L
85 518.5 L
85 518.5 L
85 518.5 L
85 518.5 L
85 518.5 L
85 518.5 L
85 518.5 L
85 518.5 L
85 518.5 L
85 518.5 L
85 518.5 L
85 518.5 L
85 518.5 L
85 518.5 L
85 518.5 L
85 518.5 L
85 518.5 L
85 518.5 L
85 518.5 L
85 518.5 L
85 518.5 L
85 518.5 L
85 518.5 L
85 518.5 L
85 518.5 L
85 518.5 L
85 518.5 L
85 518.5 L
85 518.5 L
85 518.5 L
85 518.5 L
85 518.5 L
85 518.5 L
85 518.5 L
85 518.5 L
85 518.5 L
85 518.5 L
85 518.5 L
85 518.5 L
85 518.5 L
85 518.5 L
85 518.5 L
85 518.5 L
85 518.5 L
85 518.5 L
85 518.5 L
85 518.5 L
85 518.5 L
85 518.5 L
85 518.5 L
85 518.5 L
85 518.5 L
85 518.5 L
85 518.5 L
85 518.5 L
85 518.5 L
85 518.5 L
85 518.5 L
85 518.5 L
85 518.5 L
85 518.5 L
85 518.5 L
85 518.5 L
85 518.5 L
85 518.5 L
85 518.5 L
85 518.5 L
85 518.5 L
85 518.5 L
85 518.5 L
85 518.5 L
85 518.5 L
85 518.5 L
85 518.5 L
85 518.5 L
85 518.5 L
85 518.5 L
85 518.5 L
85 518.5 L
85 518.5 L
85 518.5 L
85 518.5 L
85 518.5 L
85 518.5 L
85 518.5 L
85 518.5 L
85 518.5 L
85 518.5 L
85 518.5 L
85 518.5 L
85 518.5 L
85 518.5 L
85 518.5 L
85 518.5 L
85 518.5 L
85 518.5 L
85 518.5 L
85 518.5 L
85 518.5 L
85 518.5 L
85 518.5 L
85 518.5 L
85 518.5 L
85 518.5 L
85 518.5 L
85 518.5 L
85 518.5 L
85 518.5 L
85 518.5 L
85 518.5 L
85 518.5 L
85 518.5 L
85 518.5 L
85 518.5 L
85 518.5 L
85 518.5 L
85 518.5 L
85 518.5 L
85 518.5 L
85 518.5 L
85 518.5 L
85 518.5 L
85 518.5 L
85 518.5 L
85 518.5 L
85 518.5 L
85 518.5 L
85 518.5 L
85 518.5 L
85 518.5 L
85 518.5 L
85 518.5 L
85 518.5 L
85 518.5 L
85 518.5 L
85 518.5 L
85 518.5 L
85 518.5 L
85 518.5 L
85 518.5 L
85 518.5 L
85 518.5 L
85 518.5 L
85 518.5 L
85 518.5 L
85 518.5 L
85 518.5 L
85 518.5 L
85 518.5 L
85 518.5 L
85 518.5 L
85 518.5 L
85 518.5 L
85 518.5 L
85 518.5 L
85 518.5 L
85 518.5 L
85 518.5 L
85 518.5 L
85 518.5 L
85 518.5 L
85 518.5 L
85 518.5 L
85 518.5 L
85 518.5 L
85 518.5 L
85 518.5 L
85 518.5 L
85 518.5 L
85 518.5 L
85 518.5 L
85 518.5 L
85 518.5 L
85 518.5 L
85 518.5 L
85 518.5 L
85 518.5 L
85 518.5 L
85 518.5 L
85 518.5 L
85 518.5 L
85 518.5 L
85 518.5 L
85 518.5 L
85 518.5 L
85 518.5 L
85 518.5 L
85 518.5 L
85 518.5 L
85 518.5 L
85 518.5 L
85 518.5 L
85 518.5 L
85 518.5 L
85 518.5 L
85 518.5 L
85 518.5 L
85 518.5 L
85 518.5 L
85 518.5 L
85 518.5 L
85 518.5 L
85 518.5 L
85 518.5 L
85 518.5 L
85 518.5 L
85 518.5 L
85 518.5 L
85 518.5 L
85 518.5 L
85 518.5 L
85 518.5 L
85 518.5 L
85 518.5 L
85 518.5 L
85 518.5 L
85 518.5 L
85 518.5 L
85 518.5 L
85 518.5 L
85 518.5 L
85 518.5 L
85 518.5 L
85 518.5 L
85 518.5 L
85 518.5 L
85 518.5 L
85 518.5 L
85 518.5 L
85 518.5 L
85 518.5 L
85 518.5 L
85 518.5 L
85 518.5 L
85 518.5 L
85 518.5 L
85 518.5 L
85 518.5 L
85 518.5 L
85 518.5 L
85 518.5 L
85 518.5 L
85 518.5 L
85 518.5 L
85 518.5 L
85 518.5 L
85 518.5 L
85 518.5 L
85 518.5 L
85 518.5 L
85 518.5 L
85 518.5 L
85 518.5 L
85 518.5 L
85 518.5 L
85 518.5 L
85 518.5 L
85 518.5 L
85 518.5 L
85 518.5 L
85 518.5 L
85 518.5 L
85 518.5 L
85 518.5 L
85 518.5 L
85 518.5 L
85 518.5 L
85 518.5 L
85 518.5 L
85 518.5 L
85 518.5 L
85 518.5 L
85 518.5 L
85 518.5 L
85 518.5 L
85 518.5 L
85 518.5 L
85 518.5 L
85 518.5 L
85 518.5 L
85 518.5 L
85 518.5 L
85 518.5 L
85 518.5 L
85 518.5 L
85 518.5 L
85 518.5 L
85 518.5 L
85 518.5 L
85 518.5 L
85 518.5 L
85 518.5 L
85 518.5 L
85 518.5 L
85 518.5 L
85 518.5 L
85 518.5 L
85 518.5 L
85 518.5 L
85 518.5 L
85 518.5 L
85 518.5 L
85 518.5 L
85 518.5 L
85 518.5 L
85 518.5 L
85 518.5 L
85 518.5 L
85 518.5 L
85 518.5 L
85 518.5 L
85 518.5 L
85 518.5 L
85 518.5 L
85 518.5 L
85 518.5 L
85 518.5 L
85 518.5 L
85 518.5 L
85 518.5 L
85 518.5 L
85 518.5 L
85 518.5 L
85 518.5 L
85 518.5 L
85 518.5 L
85 518.5 L
85 518.5 L
85 518.5 L
85 518.5 L
85 518.5 L
85 518.5 L
85 518.5 L
85 518.5 L
85 518.5 L
85 518.5 L
85 518.5 L
85 518.5 L
85 518.5 L
85 518.5 L
85 518.5 L
85 518.5 L
85 518.5 L
85 518.5 L
85 518.5 L
85 518.5 L
85 518.5 L
85 518.5 L
85 518.5 L
85 518.5 L
85 518.5 L
85 518.5 L
85 518.5 L
85 518.5 L
85 518.5 L
85 518.5 L
85 518.5 L
85 518.5 L
85 518.5 L
85 518.5 L
85 518.5 L
85 518.5 L
85 518.5 L
85 518.5 L
85 518.5 L
85 518.5 L
85 518.5 L
85 518.5 L
85 518.5 L
85 518.5 L
85 518.5 L
85 518.5 L
85 518.5 L
85 518.5 L
85 518.5 L
85 518.5 L
85 518.5 L
85 518.5 L
85 518.5 L
85 518.5 L
85 518.5 L
85 518.5 L
85 518.5 L
85 518.5 L
85 518.5 L
85 518.5 L
85 518.5 L
85 518.5 L
85 518.5 L
85 518.5 L
85 518.5 L
85 518.5 L
85 518.5 L
85 518.5 L
85 518.5 L
85 518.5 L
85 518.5 L
85 518.5 L
85 518.5 L
85 518.5 L
85 518.5 L
85 518.5 L
85 518.5 L
85 518.5 L
85 518.5 L
85 518.5 L
85 518.5 L
85 518.5 L
85 518.5 L
85 518.5 L
85 518.5 L
85 518.5 L
85 518.5 L
85 518.5 L
85 518.5 L
85 518.5 L
85 518.5 L
85 518.5 L
85 518.5 L
85 518.5 L
85 518.5 L
85 518.5 L
85 518.5 L
85 518.5 L
85 518.5 L
85 518.5 L
85 518.5 L
85 518.5 L
85 518.5 L
85 518.5 L
85 518.5 L
85 518.5 L
85 518.5 L
85 518.5 L
85 518.5 L
85 518.5 L
85 518.5 L
85 518.5 L
85 518.5 L
85 518.5 L
85 518.5 L
85 518.5 L
85 518.5 L
85 518.5 L
85 518.5 L
85 518.5 L
85 518.5 L
85 518.5 L
85 518.5 L
85 518.5 L
85 518.5 L
85 518.5 L
85 518.5 L
85 518.5 L
85 518.5 L
85 518.5 L
85 518.5 L
85 518.5 L
85 518.5 L
85 518.5 L
85 518.5 L
85 518.5 L
85 518.5 L
85 518.5 L
85 518.5 L
85 518.5 L
85 518.5 L
85 518.5 L
85 518.5 L
85 518.5 L
85 518.5 L
85 518.5 L
85 518.5 L
85 518.5 L
85 518.5 L
85 518.5 L
85 518.5 L
85 518.5 L
85 518.5 L
85 518.5 L
85 518.5 L
85 518.5 L
85 518.5 L
85 518.5 L
85 518.5 L
85 518.5 L
85 518.5 L
85 518.5 L
85 518.5 L
85 518.5 L
85 518.5 L
85 518.5 L
85 518.5 L
85 518.5 L
85 518.5 L
85 518.5 L
85 518.5 L
85 518.5 L
85 518.5 L
85 518.5 L
85 518.5 L
85 518.5 L
85 518.5 L
85 518.5 L
85 518.5 L
85 518.5 L
85 518.5 L
85 518.5 L
85 518.5 L
85 518.5 L
85 518.5 L
85 518.5 L
85 518.5 L
85 518.5 L
85 518.5 L
85 518.5 L
85 518.5 L
85 518.5 L
85 518.5 L
85 518.5 L
85 518.5 L
85 518.5 L
85 518.5 L
85 518.5 L
85 518.5 L
85 518.5 L
85 518.5 L
85 518.5 L
85 518.5 L
85 518.5 L
85 518.5 L
85 518.5 L
85 518.5 L
85 518.5 L
85 518.5 L
85 518.5 L
85 518.5 L
85 518.5 L
85 518.5 L
85 518.5 L
85 518.5 L
85 518.5 L
85 518.5 L
85 518.5 L
85 518.5 L
85 518.5 L
85 518.5 L
85 518.5 L
85 518.5 L
85 518.5 L
85 518.5 L
85 518.5 L
85 518.5 L
85 518.5 L
85 518.5 L
85 518.5 L
85 518.5 L
85 518.5 L
85 518.5 L
85 518.5 L
85 518.5 L
85 518.5 L
85 518.5 L
85 518.5 L
85 518.5 L
85 518.5 L
85 518.5 L
85 518.5 L
85 518.5 L
85 518.5 L
85 518.5 L
85 518.5 L
85 518.5 L
85 518.5 L
85 518.5 L
85 518.5 L
85 518.5 L
85 518.5 L
85 518.5 L
85 518.5 L
85 518.5 L
85 518.5 L
85 518.5 L
85 518.5 L
85 518.5 L
85 518.5 L
85 518.5 L
85 518.5 L
85 518.5 L
85 518.5 L
85 518.5 L
85 518.5 L
85 518.5 L
85 518.5 L
85 518.5 L
85 518.5 L
85 518.5 L
85 518.5 L
85 518.5 L
85 518.5 L
85 518.5 L
85 518.5 L
85 518.5 L
85 518.5 L
85 518.5 L
85 518.5 L
85 518.5 L
85 518.5 L
85 518.5 L
85 518.5 L
85 518.5 L
85 518.5 L
85 518.5 L
85 518.5 L
85 518.5 L
85 518.5 L
85 518.5 L
85 518.5 L
85 518.5 L
85 518.5 L
85 518.5 L
85 518.5 L
85 518.5 L
85 518.5 L
85 518.5 L
85 518.5 L
85 518.5 L
85 518.5 L
85 518.5 L
85 518.5 L
85 518.5 L
85 518.5 L
85 518.5 L
85 518.5 L
85 518.5 L
85 518.5 L
85 518.5 L
85 518.5 L
85 518.5 L
85 518.5 L
85 518.5 L
85 518.5 L
85 518.5 L
85 518.5 L
85 518.5 L
85 518.5 L
85 518.5 L
85 518.5 L
85 518.5 L
85 518.5 L
85 518.5 L
85 518.5 L
85 518.5 L
85 518.5 L
85 518.5 L
85 518.5 L
85 518.5 L
85 518.5 L
85 518.5 L
85 518.5 L
85 518.5 L
85 518.5 L
85 518.5 L
85 518.5 L
85 518.5 L
85 518.5 L
85 518.5 L
85 518.5 L
85 518.5 L
85 518.5 L
85 518.5 L
85 518.5 L
85 518.5 L
85 518.5 L
85 518.5 L
85 518.5 L
85 518.5 L
85 518.5 L
85 518.5 L
85 518.5 L
85 518.5 L
85 518.5 L
85 518.5 L
85 518.5 L
85 518.5 L
85 518.5 L
85 518.5 L
85 518.5 L
85 518.5 L
85 518.5 L
85 518.5 L
85 518.5 L
85 518.5 L
85 518.5 L
85 518.5 L
85 518.5 L
85 518.5 L
85 518.5 L
85 518.5 L
85 518.5 L
85 518.5 L
85 518.5 L
85 518.5 L
85 518.5 L
85 518.5 L
85 518.5 L
85 518.5 L
85 518.5 L
85 518.5 L
85 518.5 L
85 518.5 L
85 518.5 L
85 518.5 L
85 518.5 L
85 518.5 L
85 518.5 L
85 518.5 L
85 518.5 L
85 518.5 L
85 518.5 L
85 518.5 L
85 518.5 L
85 518.5 L
85 518.5 L
85 518.5 L
85 518.5 L
85 518.5 L
85 518.5 L
85 518.5 L
85 518.5 L
85 518.5 L
85 518.5 L
85 518.5 L
85 518.5 L
85 518.5 L
85 518.5 L
85 518.5 L
85 518.5 L
85 518.5 L
85 518.5 L
85 518.5 L
85 518.5 L
85 518.5 L
85 518.5 L
85 518.5 L
85 518.5 L
85 518.5 L
85 518.5 L
85 518.5 L
85 518.5 L
85 518.5 L
85 518.5 L
85 518.5 L
85 518.5 L
85 518.5 L
85 518.5 L
85 518.5 L
85 518.5 L
85 518.5 L
85 518.5 L
85 518.5 L
85 518.5 L
85 518.5 L
85 518.5 L
85 518.5 L
85 518.5 L
85 518.5 L
85 518.5 L
85 518.5 L
85 518.5 L
85 518.5 L
85 518.5 L
85 518.5 L
85 518.5 L
85 518.5 L
85 518.5 L
85 518.5 L
85 518.5 L
85 518.5 L
85 518.5 L
85 518.5 L
85 518.5 L
85 518.5 L
85 518.5 L
85 518.5 L
85 518.5 L
85 518.5 L
85 518.5 L
85 518.5 L
85 518.5 L
85 518.5 L
85 518.5 L
85 518.5 L
85 518.5 L
85 518.5 L
85 518.5 L
85 518.5 L
85 518.5 L
85 518.5 L
85 518.5 L
85 518.5 L
85 518.5 L
85 518.5 L
85 518.5 L
85 518.5 L
85 518.5 L
85 518.5 L
85 518.5 L
85 518.5 L
85 518.5 L
85 518.5 L
85 518.5 L
85 518.5 L
85 518.5 L
85 518.5 L
85 518.5 L
85 518.5 L
85 518.5 L
85 518.5 L
85 518.5 L
85 518.5 L
85 518.5 L
85 518.5 L
85 518.5 L
85 518.5 L
85 518.5 L
85 518.5 L
85 518.5 L
85 518.5 L
85 518.5 L
85 518.5 L
85 518.5 L
85 518.5 L
85 518.5 L
85 518.5 L
85 518.5 L
85 518.5 L
85 518.5 L
85 518.5 L
85 518.5 L
85 518.5 L
85 518.5 L
85 518.5 L
85 518.5 L
85 518.5 L
85 518.5 L
85 518.5 L
85 518.5 L
85 518.5 L
85 518.5 L
85 518.5 L
85 518.5 L
85 518.5 L
85 518.5 L
85 518.5 L
85 518.5 L
85 518.5 L
85 518.5 L
85 518.5 L
85 518.5 L
85 518.5 L
85 518.5 L
85 518.5 L
85 518.5 L
85 518.5 L
85 518.5 L
85 518.5 L
85 518.5 L
85 518.5 L
85 518.5 L
85 518.5 L
85 518.5 L
85 518.5 L
85 518.5 L
85 518.5 L
85 518.5 L
85 518.5 L
85 518.5 L
85 518.5 L
85 518.5 L
85 518.5 L
85 518.5 L
85 518.5 L
85 518.5 L
85 518.5 L
85 518.5 L
S
GR
GS
[0.75 0 0 0.75 0 0] CT
1 0 0 RC
[16 16] 0 setdash
2 LJ
4 LW
N
386.55 518.5 M
386.55 168.791 L
391.804 159.849 L
397.122 142.96 L
402.247 128.057 L
407.176 118.123 L
411.717 112.162 L
415.09 109.181 L
419.954 107.194 L
424.3 104.214 L
429.554 104.214 L
435.586 97.259 L
440.127 95.272 L
445.056 95.272 L
451.608 94.279 L
456.213 86.331 L
462.115 84.344 L
466.072 84.344 L
468.602 84.344 L
471.521 66.461 L
473.142 65.467 L
474.634 65.467 L
475.931 64.474 L
477.747 64.474 L
479.564 63.48 L
483.001 63.48 L
485.207 63.48 L
487.607 63.48 L
489.163 63.48 L
490.526 63.48 L
491.693 63.48 L
492.471 63.48 L
494.871 63.48 L
501.423 62.487 L
502.46 62.487 L
505.444 62.487 L
506.417 62.487 L
507.52 62.487 L
508.622 62.487 L
510.244 62.487 L
512.125 62.487 L
514.525 62.487 L
515.887 62.487 L
516.86 62.487 L
517.768 62.487 L
518.157 62.487 L
518.611 62.487 L
519.779 62.487 L
522.309 62.487 L
524.06 62.487 L
526.33 62.487 L
526.914 62.487 L
527.498 60.5 L
528.146 60.5 L
528.73 60.5 L
529.119 60.5 L
529.573 60.5 L
531.389 60.5 L
532.622 60.5 L
533.595 60.5 L
534.568 60.5 L
535.476 60.5 L
535.865 60.5 L
536.254 60.5 L
537.097 60.5 L
538.2 60.5 L
539.497 60.5 L
539.822 60.5 L
540.535 60.5 L
541.054 60.5 L
541.768 60.5 L
541.897 60.5 L
542.092 60.5 L
542.286 60.5 L
542.416 60.5 L
542.481 60.5 L
542.481 60.5 L
542.546 60.5 L
542.676 60.5 L
542.676 60.5 L
542.676 60.5 L
542.676 60.5 L
542.805 60.5 L
542.87 60.5 L
542.87 60.5 L
543 60.5 L
543 60.5 L
543 60.5 L
543 60.5 L
543 60.5 L
543 60.5 L
543 60.5 L
543 60.5 L
543 60.5 L
543 60.5 L
543 60.5 L
543 60.5 L
543 60.5 L
543 60.5 L
543 60.5 L
543 60.5 L
543 60.5 L
543 60.5 L
S
GR
GS
[0.75 0 0 0.75 0 0] CT
1 GC
N
272 505 M
272 411 L
530 411 L
530 505 L
cp
f
GR
GS
[0.75 0 0 0.75 243.09293 321.16383] CT
/Helvetica 24 F
GS
[1 0 0 1 0 0] CT
0 9.535 moveto 
1 -1 scale
(CNN same-subject) t 
GR
GR
GS
[0.75 0 0 0.75 0 0] CT
0 0 1 RC
[16 4 8 4] 0 setdash
2 LJ
4 LW
N
280.019 428.218 M
320.114 428.218 L
S
GR
GS
[0.75 0 0 0.75 243.09293 343.5] CT
/Helvetica 24 F
GS
[1 0 0 1 0 0] CT
0 9.535 moveto 
1 -1 scale
(CNN cross-subject) t 
GR
GR
GS
[0.75 0 0 0.75 0 0] CT
0 1 0 RC
2 setlinecap
10.0 ML
4 LW
N
280.019 458 M
320.114 458 L
S
GR
GS
[0.75 0 0 0.75 243.09293 365.83617] CT
/Helvetica 24 F
GS
[1 0 0 1 0 0] CT
0 9.535 moveto 
1 -1 scale
(Pisani et al.) t 
GR
GR
GS
[0.75 0 0 0.75 0 0] CT
1 0 0 RC
[16 16] 0 setdash
2 LJ
4 LW
N
280.019 487.782 M
320.114 487.782 L
S
GR
GS
[0.75 0 0 0.75 0 0] CT
0.149 GC
2 setlinecap
10.0 ML
N
272 505 M
272 411 L
530 411 L
530 505 L
272 505 L
S
GR
%%Trailer
%%Pages: 1
%%EOF
