%!PS-Adobe-3.0 EPSF-3.0
%%Creator: (MATLAB, The Mathworks, Inc. Version 8.4.0.150421 \(R2014b\). Operating System: Windows 8)
%%Title: C:/Projects/SD_MICCAI_paper/tex/images/plotsPatient1_legend.eps
%%CreationDate: 2015-03-06T19:40:08
%%Pages: (atend)
%%BoundingBox: 0 0 450 450
%%LanguageLevel: 2
%%EndComments
%%BeginProlog
%%BeginResource: procset (Apache XML Graphics Std ProcSet) 1.2 0
%%Version: 1.2 0
%%Copyright: (Copyright 2001-2003,2010 The Apache Software Foundation. License terms: http://www.apache.org/licenses/LICENSE-2.0)
/bd{bind def}bind def
/ld{load def}bd
/GR/grestore ld
/M/moveto ld
/LJ/setlinejoin ld
/C/curveto ld
/f/fill ld
/LW/setlinewidth ld
/GC/setgray ld
/t/show ld
/N/newpath ld
/CT/concat ld
/cp/closepath ld
/S/stroke ld
/L/lineto ld
/CC/setcmykcolor ld
/A/ashow ld
/GS/gsave ld
/RC/setrgbcolor ld
/RM/rmoveto ld
/ML/setmiterlimit ld
/re {4 2 roll M
1 index 0 rlineto
0 exch rlineto
neg 0 rlineto
cp } bd
/_ctm matrix def
/_tm matrix def
/BT { _ctm currentmatrix pop matrix _tm copy pop 0 0 moveto } bd
/ET { _ctm setmatrix } bd
/iTm { _ctm setmatrix _tm concat } bd
/Tm { _tm astore pop iTm 0 0 moveto } bd
/ux 0.0 def
/uy 0.0 def
/F {
  /Tp exch def
  /Tf exch def
  Tf findfont Tp scalefont setfont
  /cf Tf def  /cs Tp def
} bd
/ULS {currentpoint /uy exch def /ux exch def} bd
/ULE {
  /Tcx currentpoint pop def
  gsave
  newpath
  cf findfont cs scalefont dup
  /FontMatrix get 0 get /Ts exch def /FontInfo get dup
  /UnderlinePosition get Ts mul /To exch def
  /UnderlineThickness get Ts mul /Tt exch def
  ux uy To add moveto  Tcx uy To add lineto
  Tt setlinewidth stroke
  grestore
} bd
/OLE {
  /Tcx currentpoint pop def
  gsave
  newpath
  cf findfont cs scalefont dup
  /FontMatrix get 0 get /Ts exch def /FontInfo get dup
  /UnderlinePosition get Ts mul /To exch def
  /UnderlineThickness get Ts mul /Tt exch def
  ux uy To add cs add moveto Tcx uy To add cs add lineto
  Tt setlinewidth stroke
  grestore
} bd
/SOE {
  /Tcx currentpoint pop def
  gsave
  newpath
  cf findfont cs scalefont dup
  /FontMatrix get 0 get /Ts exch def /FontInfo get dup
  /UnderlinePosition get Ts mul /To exch def
  /UnderlineThickness get Ts mul /Tt exch def
  ux uy To add cs 10 mul 26 idiv add moveto Tcx uy To add cs 10 mul 26 idiv add lineto
  Tt setlinewidth stroke
  grestore
} bd
/QT {
/Y22 exch store
/X22 exch store
/Y21 exch store
/X21 exch store
currentpoint
/Y21 load 2 mul add 3 div exch
/X21 load 2 mul add 3 div exch
/X21 load 2 mul /X22 load add 3 div
/Y21 load 2 mul /Y22 load add 3 div
/X22 load /Y22 load curveto
} bd
/SSPD {
dup length /d exch dict def
{
/v exch def
/k exch def
currentpagedevice k known {
/cpdv currentpagedevice k get def
v cpdv ne {
/upd false def
/nullv v type /nulltype eq def
/nullcpdv cpdv type /nulltype eq def
nullv nullcpdv or
{
/upd true def
} {
/sametype v type cpdv type eq def
sametype {
v type /arraytype eq {
/vlen v length def
/cpdvlen cpdv length def
vlen cpdvlen eq {
0 1 vlen 1 sub {
/i exch def
/obj v i get def
/cpdobj cpdv i get def
obj cpdobj ne {
/upd true def
exit
} if
} for
} {
/upd true def
} ifelse
} {
v type /dicttype eq {
v {
/dv exch def
/dk exch def
/cpddv cpdv dk get def
dv cpddv ne {
/upd true def
exit
} if
} forall
} {
/upd true def
} ifelse
} ifelse
} if
} ifelse
upd true eq {
d k v put
} if
} if
} if
} forall
d length 0 gt {
d setpagedevice
} if
} bd
%%EndResource
%%BeginResource: procset (Apache XML Graphics EPS ProcSet) 1.0 0
%%Version: 1.0 0
%%Copyright: (Copyright 2002-2003 The Apache Software Foundation. License terms: http://www.apache.org/licenses/LICENSE-2.0)
/BeginEPSF { %def
/b4_Inc_state save def         % Save state for cleanup
/dict_count countdictstack def % Count objects on dict stack
/op_count count 1 sub def      % Count objects on operand stack
userdict begin                 % Push userdict on dict stack
/showpage { } def              % Redefine showpage, { } = null proc
0 setgray 0 setlinecap         % Prepare graphics state
1 setlinewidth 0 setlinejoin
10 setmiterlimit [ ] 0 setdash newpath
/languagelevel where           % If level not equal to 1 then
{pop languagelevel             % set strokeadjust and
1 ne                           % overprint to their defaults.
{false setstrokeadjust false setoverprint
} if
} if
} bd
/EndEPSF { %def
count op_count sub {pop} repeat            % Clean up stacks
countdictstack dict_count sub {end} repeat
b4_Inc_state restore
} bd
%%EndResource
%FOPBeginFontDict
%%IncludeResource: font Courier-Bold
%%IncludeResource: font Helvetica
%%IncludeResource: font Courier-BoldOblique
%%IncludeResource: font Courier-Oblique
%%IncludeResource: font Times-Roman
%%IncludeResource: font Helvetica-BoldOblique
%%IncludeResource: font Helvetica-Bold
%%IncludeResource: font Helvetica-Oblique
%%IncludeResource: font Times-BoldItalic
%%IncludeResource: font Courier
%%IncludeResource: font Times-Italic
%%IncludeResource: font Times-Bold
%%IncludeResource: font Symbol
%%IncludeResource: font ZapfDingbats
%FOPEndFontDict
%%BeginResource: encoding WinAnsiEncoding
/WinAnsiEncoding [
/.notdef /.notdef /.notdef /.notdef /.notdef
/.notdef /.notdef /.notdef /.notdef /.notdef
/.notdef /.notdef /.notdef /.notdef /.notdef
/.notdef /.notdef /.notdef /.notdef /.notdef
/.notdef /.notdef /.notdef /.notdef /.notdef
/.notdef /.notdef /.notdef /.notdef /.notdef
/.notdef /.notdef /space /exclam /quotedbl
/numbersign /dollar /percent /ampersand /quotesingle
/parenleft /parenright /asterisk /plus /comma
/hyphen /period /slash /zero /one
/two /three /four /five /six
/seven /eight /nine /colon /semicolon
/less /equal /greater /question /at
/A /B /C /D /E
/F /G /H /I /J
/K /L /M /N /O
/P /Q /R /S /T
/U /V /W /X /Y
/Z /bracketleft /backslash /bracketright /asciicircum
/underscore /quoteleft /a /b /c
/d /e /f /g /h
/i /j /k /l /m
/n /o /p /q /r
/s /t /u /v /w
/x /y /z /braceleft /bar
/braceright /asciitilde /bullet /Euro /bullet
/quotesinglbase /florin /quotedblbase /ellipsis /dagger
/daggerdbl /circumflex /perthousand /Scaron /guilsinglleft
/OE /bullet /Zcaron /bullet /bullet
/quoteleft /quoteright /quotedblleft /quotedblright /bullet
/endash /emdash /asciitilde /trademark /scaron
/guilsinglright /oe /bullet /zcaron /Ydieresis
/space /exclamdown /cent /sterling /currency
/yen /brokenbar /section /dieresis /copyright
/ordfeminine /guillemotleft /logicalnot /sfthyphen /registered
/macron /degree /plusminus /twosuperior /threesuperior
/acute /mu /paragraph /middot /cedilla
/onesuperior /ordmasculine /guillemotright /onequarter /onehalf
/threequarters /questiondown /Agrave /Aacute /Acircumflex
/Atilde /Adieresis /Aring /AE /Ccedilla
/Egrave /Eacute /Ecircumflex /Edieresis /Igrave
/Iacute /Icircumflex /Idieresis /Eth /Ntilde
/Ograve /Oacute /Ocircumflex /Otilde /Odieresis
/multiply /Oslash /Ugrave /Uacute /Ucircumflex
/Udieresis /Yacute /Thorn /germandbls /agrave
/aacute /acircumflex /atilde /adieresis /aring
/ae /ccedilla /egrave /eacute /ecircumflex
/edieresis /igrave /iacute /icircumflex /idieresis
/eth /ntilde /ograve /oacute /ocircumflex
/otilde /odieresis /divide /oslash /ugrave
/uacute /ucircumflex /udieresis /yacute /thorn
/ydieresis
] def
%%EndResource
%FOPBeginFontReencode
/Courier-Bold findfont
dup length dict begin
  {1 index /FID ne {def} {pop pop} ifelse} forall
  /Encoding WinAnsiEncoding def
  currentdict
end
/Courier-Bold exch definefont pop
/Helvetica findfont
dup length dict begin
  {1 index /FID ne {def} {pop pop} ifelse} forall
  /Encoding WinAnsiEncoding def
  currentdict
end
/Helvetica exch definefont pop
/Courier-BoldOblique findfont
dup length dict begin
  {1 index /FID ne {def} {pop pop} ifelse} forall
  /Encoding WinAnsiEncoding def
  currentdict
end
/Courier-BoldOblique exch definefont pop
/Courier-Oblique findfont
dup length dict begin
  {1 index /FID ne {def} {pop pop} ifelse} forall
  /Encoding WinAnsiEncoding def
  currentdict
end
/Courier-Oblique exch definefont pop
/Times-Roman findfont
dup length dict begin
  {1 index /FID ne {def} {pop pop} ifelse} forall
  /Encoding WinAnsiEncoding def
  currentdict
end
/Times-Roman exch definefont pop
/Helvetica-BoldOblique findfont
dup length dict begin
  {1 index /FID ne {def} {pop pop} ifelse} forall
  /Encoding WinAnsiEncoding def
  currentdict
end
/Helvetica-BoldOblique exch definefont pop
/Helvetica-Bold findfont
dup length dict begin
  {1 index /FID ne {def} {pop pop} ifelse} forall
  /Encoding WinAnsiEncoding def
  currentdict
end
/Helvetica-Bold exch definefont pop
/Helvetica-Oblique findfont
dup length dict begin
  {1 index /FID ne {def} {pop pop} ifelse} forall
  /Encoding WinAnsiEncoding def
  currentdict
end
/Helvetica-Oblique exch definefont pop
/Times-BoldItalic findfont
dup length dict begin
  {1 index /FID ne {def} {pop pop} ifelse} forall
  /Encoding WinAnsiEncoding def
  currentdict
end
/Times-BoldItalic exch definefont pop
/Courier findfont
dup length dict begin
  {1 index /FID ne {def} {pop pop} ifelse} forall
  /Encoding WinAnsiEncoding def
  currentdict
end
/Courier exch definefont pop
/Times-Italic findfont
dup length dict begin
  {1 index /FID ne {def} {pop pop} ifelse} forall
  /Encoding WinAnsiEncoding def
  currentdict
end
/Times-Italic exch definefont pop
/Times-Bold findfont
dup length dict begin
  {1 index /FID ne {def} {pop pop} ifelse} forall
  /Encoding WinAnsiEncoding def
  currentdict
end
/Times-Bold exch definefont pop
%FOPEndFontReencode
%%EndProlog
%%Page: 1 1
%%PageBoundingBox: 0 0 450 450
%%BeginPageSetup
[1 0 0 -1 0 450] CT
%%EndPageSetup
GS
[0.75 0 0 0.75 0 0] CT
1 GC
N
0 0 600 600 re
f
GR
GS
[0.75 0 0 0.75 0 0] CT
1 GC
N
0 0 600 600 re
f
GR
GS
[0.75 0 0 0.75 0 0] CT
1 GC
N
85 518.5 M
543 518.5 L
543 60.5 L
85 60.5 L
cp
f
GR
GS
[0.75 0 0 0.75 235.5 420.59569] CT
0.149 GC
/Helvetica 29 F
GS
[1 0 0 1 0 0] CT
-75.743 29.156 moveto 
1 -1 scale
(1-specificity) t 
GR
GR
GS
[0.75 0 0 0.75 0 0] CT
0.149 GC
2 setlinecap
10.0 ML
N
85 518.5 M
543 518.5 L
S
GR
GS
[0.75 0 0 0.75 0 0] CT
0.149 GC
2 setlinecap
10.0 ML
N
85 518.5 M
85 513.92 L
S
GR
GS
[0.75 0 0 0.75 0 0] CT
0.149 GC
2 setlinecap
10.0 ML
N
176.6 518.5 M
176.6 513.92 L
S
GR
GS
[0.75 0 0 0.75 0 0] CT
0.149 GC
2 setlinecap
10.0 ML
N
268.2 518.5 M
268.2 513.92 L
S
GR
GS
[0.75 0 0 0.75 0 0] CT
0.149 GC
2 setlinecap
10.0 ML
N
359.8 518.5 M
359.8 513.92 L
S
GR
GS
[0.75 0 0 0.75 0 0] CT
0.149 GC
2 setlinecap
10.0 ML
N
451.4 518.5 M
451.4 513.92 L
S
GR
GS
[0.75 0 0 0.75 0 0] CT
0.149 GC
2 setlinecap
10.0 ML
N
543 518.5 M
543 513.92 L
S
GR
GS
[0.75 0 0 0.75 63.75 394.875] CT
0.149 GC
/Helvetica 27 F
GS
[1 0 0 1 0 0] CT
-7.508 27.145 moveto 
1 -1 scale
(0) t 
GR
GR
GS
[0.75 0 0 0.75 132.45 394.875] CT
0.149 GC
/Helvetica 27 F
GS
[1 0 0 1 0 0] CT
-18.767 27.145 moveto 
1 -1 scale
(0.2) t 
GR
GR
GS
[0.75 0 0 0.75 201.15001 394.875] CT
0.149 GC
/Helvetica 27 F
GS
[1 0 0 1 0 0] CT
-18.767 27.145 moveto 
1 -1 scale
(0.4) t 
GR
GR
GS
[0.75 0 0 0.75 269.85001 394.875] CT
0.149 GC
/Helvetica 27 F
GS
[1 0 0 1 0 0] CT
-18.767 27.145 moveto 
1 -1 scale
(0.6) t 
GR
GR
GS
[0.75 0 0 0.75 338.55 394.875] CT
0.149 GC
/Helvetica 27 F
GS
[1 0 0 1 0 0] CT
-18.767 27.145 moveto 
1 -1 scale
(0.8) t 
GR
GR
GS
[0.75 0 0 0.75 407.25 394.875] CT
0.149 GC
/Helvetica 27 F
GS
[1 0 0 1 0 0] CT
-7.508 27.145 moveto 
1 -1 scale
(1) t 
GR
GR
GS
[0 -0.75 0.75 0 26.59973 217.125] CT
0.149 GC
/Helvetica 29 F
GS
[1 0 0 1 0 0] CT
-62.85 -6.321 moveto 
1 -1 scale
(sensitivity) t 
GR
GR
GS
[0.75 0 0 0.75 0 0] CT
0.149 GC
2 setlinecap
10.0 ML
N
85 518.5 M
85 60.5 L
S
GR
GS
[0.75 0 0 0.75 0 0] CT
0.149 GC
2 setlinecap
10.0 ML
N
85 518.5 M
89.58 518.5 L
S
GR
GS
[0.75 0 0 0.75 0 0] CT
0.149 GC
2 setlinecap
10.0 ML
N
85 426.9 M
89.58 426.9 L
S
GR
GS
[0.75 0 0 0.75 0 0] CT
0.149 GC
2 setlinecap
10.0 ML
N
85 335.3 M
89.58 335.3 L
S
GR
GS
[0.75 0 0 0.75 0 0] CT
0.149 GC
2 setlinecap
10.0 ML
N
85 243.7 M
89.58 243.7 L
S
GR
GS
[0.75 0 0 0.75 0 0] CT
0.149 GC
2 setlinecap
10.0 ML
N
85 152.1 M
89.58 152.1 L
S
GR
GS
[0.75 0 0 0.75 0 0] CT
0.149 GC
2 setlinecap
10.0 ML
N
85 60.5 M
89.58 60.5 L
S
GR
GS
[0.75 0 0 0.75 57.75 388.875] CT
0.149 GC
/Helvetica 27 F
GS
[1 0 0 1 0 0] CT
-15.016 10.665 moveto 
1 -1 scale
(0) t 
GR
GR
GS
[0.75 0 0 0.75 57.75 320.175] CT
0.149 GC
/Helvetica 27 F
GS
[1 0 0 1 0 0] CT
-37.534 10.665 moveto 
1 -1 scale
(0.2) t 
GR
GR
GS
[0.75 0 0 0.75 57.75 251.47499] CT
0.149 GC
/Helvetica 27 F
GS
[1 0 0 1 0 0] CT
-37.534 10.665 moveto 
1 -1 scale
(0.4) t 
GR
GR
GS
[0.75 0 0 0.75 57.75 182.77499] CT
0.149 GC
/Helvetica 27 F
GS
[1 0 0 1 0 0] CT
-37.534 10.665 moveto 
1 -1 scale
(0.6) t 
GR
GR
GS
[0.75 0 0 0.75 57.75 114.07499] CT
0.149 GC
/Helvetica 27 F
GS
[1 0 0 1 0 0] CT
-37.534 10.665 moveto 
1 -1 scale
(0.8) t 
GR
GR
GS
[0.75 0 0 0.75 57.75 45.375] CT
0.149 GC
/Helvetica 27 F
GS
[1 0 0 1 0 0] CT
-15.016 10.665 moveto 
1 -1 scale
(1) t 
GR
GR
GS
[0.75 0 0 0.75 0 0] CT
0 0 1 RC
[16 4 8 4] 0 setdash
2 LJ
4 LW
N
543 60.5 M
543 60.5 L
543 60.5 L
543 60.5 L
543 60.5 L
543 60.5 L
543 60.5 L
543 60.5 L
543 60.5 L
543 60.5 L
543 60.5 L
543 60.5 L
543 60.5 L
543 60.5 L
543 60.5 L
543 60.5 L
543 60.5 L
543 60.5 L
543 60.5 L
543 60.5 L
543 60.5 L
543 60.5 L
543 60.5 L
543 60.5 L
543 60.5 L
543 60.5 L
543 60.5 L
543 60.5 L
543 60.5 L
543 60.5 L
543 60.5 L
543 60.5 L
543 60.5 L
543 60.5 L
543 60.5 L
543 60.5 L
543 60.5 L
543 60.5 L
543 60.5 L
543 60.5 L
543 60.5 L
543 60.5 L
543 60.5 L
543 60.5 L
543 60.5 L
543 60.5 L
543 60.5 L
543 60.5 L
543 60.5 L
543 60.5 L
543 60.5 L
543 60.5 L
543 60.5 L
543 60.5 L
543 60.5 L
543 60.5 L
543 60.5 L
543 60.5 L
543 60.5 L
543 60.5 L
543 60.5 L
543 60.5 L
543 60.5 L
543 60.5 L
543 60.5 L
543 60.5 L
543 60.5 L
543 60.5 L
543 60.5 L
543 60.5 L
543 60.5 L
543 60.5 L
543 60.5 L
543 60.5 L
543 60.5 L
543 60.5 L
543 60.5 L
543 60.5 L
543 60.5 L
543 60.5 L
543 60.5 L
543 60.5 L
543 60.5 L
543 60.5 L
543 60.5 L
543 60.5 L
543 60.5 L
543 60.5 L
543 60.5 L
543 60.5 L
543 60.5 L
543 60.5 L
543 60.5 L
543 60.5 L
543 60.5 L
543 60.5 L
543 60.5 L
543 60.5 L
543 60.5 L
543 60.5 L
543 60.5 L
543 60.5 L
543 60.5 L
543 60.5 L
543 60.5 L
543 60.5 L
543 60.5 L
543 60.5 L
543 60.5 L
543 60.5 L
543 60.5 L
543 60.5 L
543 60.5 L
543 60.5 L
543 60.5 L
543 60.5 L
543 60.5 L
543 60.5 L
543 60.5 L
543 60.5 L
543 60.5 L
543 60.5 L
543 60.5 L
543 60.5 L
543 60.5 L
543 60.5 L
543 60.5 L
543 60.5 L
543 60.5 L
543 60.5 L
543 60.5 L
543 60.5 L
543 60.5 L
543 60.5 L
543 60.5 L
543 60.5 L
543 60.5 L
543 60.5 L
543 60.5 L
543 60.5 L
543 60.5 L
543 60.5 L
543 60.5 L
543 60.5 L
543 60.5 L
543 60.5 L
543 60.5 L
543 60.5 L
543 60.5 L
543 60.5 L
543 60.5 L
543 60.5 L
543 60.5 L
543 60.5 L
543 60.5 L
543 60.5 L
543 60.5 L
543 60.5 L
543 60.5 L
543 60.5 L
543 60.5 L
543 60.5 L
543 60.5 L
543 60.5 L
543 60.5 L
543 60.5 L
543 60.5 L
543 60.5 L
543 60.5 L
543 60.5 L
543 60.5 L
543 60.5 L
543 60.5 L
543 60.5 L
543 60.5 L
543 60.5 L
543 60.5 L
543 60.5 L
543 60.5 L
543 60.5 L
543 60.5 L
543 60.5 L
543 60.5 L
543 60.5 L
543 60.5 L
543 60.5 L
543 60.5 L
543 60.5 L
543 60.5 L
543 60.5 L
543 60.5 L
543 60.5 L
543 60.5 L
543 60.5 L
543 60.5 L
543 60.5 L
543 60.5 L
543 60.5 L
543 60.5 L
543 60.5 L
543 60.5 L
543 60.5 L
543 60.5 L
543 60.5 L
543 60.5 L
543 60.5 L
543 60.5 L
543 60.5 L
543 60.5 L
543 60.5 L
543 60.5 L
543 60.5 L
543 60.5 L
543 60.5 L
543 60.5 L
543 60.5 L
543 60.5 L
543 60.5 L
543 60.5 L
543 60.5 L
543 60.5 L
543 60.5 L
543 60.5 L
543 60.5 L
543 60.5 L
543 60.5 L
543 60.5 L
543 60.5 L
543 60.5 L
543 60.5 L
543 60.5 L
543 60.5 L
543 60.5 L
543 60.5 L
543 60.5 L
543 60.5 L
543 60.5 L
543 60.5 L
543 60.5 L
543 60.5 L
543 60.5 L
543 60.5 L
543 60.5 L
543 60.5 L
543 60.5 L
543 60.5 L
543 60.5 L
543 60.5 L
543 60.5 L
543 60.5 L
543 60.5 L
543 60.5 L
543 60.5 L
543 60.5 L
543 60.5 L
543 60.5 L
543 60.5 L
543 60.5 L
543 60.5 L
543 60.5 L
543 60.5 L
543 60.5 L
543 60.5 L
543 60.5 L
543 60.5 L
543 60.5 L
543 60.5 L
543 60.5 L
543 60.5 L
543 60.5 L
543 60.5 L
543 60.5 L
543 60.5 L
543 60.5 L
543 60.5 L
543 60.5 L
543 60.5 L
543 60.5 L
543 60.5 L
543 60.5 L
543 60.5 L
543 60.5 L
543 60.5 L
543 60.5 L
543 60.5 L
543 60.5 L
543 60.5 L
543 60.5 L
543 60.5 L
543 60.5 L
543 60.5 L
543 60.5 L
543 60.5 L
543 60.5 L
543 60.5 L
543 60.5 L
543 60.5 L
543 60.5 L
543 60.5 L
543 60.5 L
543 60.5 L
543 60.5 L
543 60.5 L
543 60.5 L
543 60.5 L
543 60.5 L
543 60.5 L
543 60.5 L
543 60.5 L
543 60.5 L
543 60.5 L
543 60.5 L
543 60.5 L
543 60.5 L
543 60.5 L
543 60.5 L
543 60.5 L
543 60.5 L
543 60.5 L
543 60.5 L
543 60.5 L
543 60.5 L
543 60.5 L
543 60.5 L
543 60.5 L
543 60.5 L
543 60.5 L
543 60.5 L
543 60.5 L
543 60.5 L
543 60.5 L
543 60.5 L
543 60.5 L
543 60.5 L
543 60.5 L
543 60.5 L
543 60.5 L
543 60.5 L
543 60.5 L
543 60.5 L
543 60.5 L
543 60.5 L
543 60.5 L
543 60.5 L
543 60.5 L
543 60.5 L
543 60.5 L
543 60.5 L
543 60.5 L
543 60.5 L
543 60.5 L
543 60.5 L
543 60.5 L
543 60.5 L
543 60.5 L
543 60.5 L
543 60.5 L
543 60.5 L
543 60.5 L
543 60.5 L
543 60.5 L
543 60.5 L
543 60.5 L
543 60.5 L
543 60.5 L
543 60.5 L
543 60.5 L
543 60.5 L
543 60.5 L
543 60.5 L
543 60.5 L
543 60.5 L
543 60.5 L
543 60.5 L
543 60.5 L
543 60.5 L
543 60.5 L
543 60.5 L
543 60.5 L
543 60.5 L
543 60.5 L
543 60.5 L
543 60.5 L
543 60.5 L
543 60.5 L
543 60.5 L
543 60.5 L
543 60.5 L
543 60.5 L
543 60.5 L
543 60.5 L
543 60.5 L
543 60.5 L
543 60.5 L
543 60.5 L
543 60.5 L
543 60.5 L
543 60.5 L
543 60.5 L
543 60.5 L
543 60.5 L
543 60.5 L
543 60.5 L
543 60.5 L
543 60.5 L
543 60.5 L
543 60.5 L
543 60.5 L
543 60.5 L
543 60.5 L
543 60.5 L
543 60.5 L
543 60.5 L
543 60.5 L
543 60.5 L
543 60.5 L
543 60.5 L
543 60.5 L
543 60.5 L
543 60.5 L
543 60.5 L
543 60.5 L
543 60.5 L
543 60.5 L
543 60.5 L
543 60.5 L
543 60.5 L
543 60.5 L
543 60.5 L
543 60.5 L
543 60.5 L
543 60.5 L
543 60.5 L
543 60.5 L
543 60.5 L
543 60.5 L
543 60.5 L
543 60.5 L
543 60.5 L
543 60.5 L
543 60.5 L
543 60.5 L
543 60.5 L
543 60.5 L
543 60.5 L
543 60.5 L
543 60.5 L
543 60.5 L
543 60.5 L
543 60.5 L
543 60.5 L
543 60.5 L
543 60.5 L
543 60.5 L
543 60.5 L
543 60.5 L
543 60.5 L
543 60.5 L
543 60.5 L
543 60.5 L
543 60.5 L
543 60.5 L
543 60.5 L
543 60.5 L
543 60.5 L
543 60.5 L
543 60.5 L
543 60.5 L
543 60.5 L
543 60.5 L
543 60.5 L
543 60.5 L
543 60.5 L
543 60.5 L
543 60.5 L
543 60.5 L
543 60.5 L
543 60.5 L
543 60.5 L
543 60.5 L
543 60.5 L
543 60.5 L
543 60.5 L
543 60.5 L
543 60.5 L
543 60.5 L
543 60.5 L
543 60.5 L
543 60.5 L
543 60.5 L
543 60.5 L
543 60.5 L
543 60.5 L
543 60.5 L
543 60.5 L
543 60.5 L
543 60.5 L
543 60.5 L
543 60.5 L
543 60.5 L
543 60.5 L
543 60.5 L
543 60.5 L
543 60.5 L
543 60.5 L
543 60.5 L
543 60.5 L
543 60.5 L
543 60.5 L
543 60.5 L
543 60.5 L
543 60.5 L
543 60.5 L
543 60.5 L
543 60.5 L
543 60.5 L
543 60.5 L
543 60.5 L
543 60.5 L
543 60.5 L
543 60.5 L
543 60.5 L
543 60.5 L
543 60.5 L
543 60.5 L
543 60.5 L
543 60.5 L
543 60.5 L
543 60.5 L
543 60.5 L
543 60.5 L
543 60.5 L
543 60.5 L
543 60.5 L
543 60.5 L
543 60.5 L
543 60.5 L
543 60.5 L
543 60.5 L
543 60.5 L
543 60.5 L
543 60.5 L
543 60.5 L
543 60.5 L
543 60.5 L
543 60.5 L
543 60.5 L
543 60.5 L
543 60.5 L
543 60.5 L
543 60.5 L
543 60.5 L
543 60.5 L
543 60.5 L
543 60.5 L
543 60.5 L
543 60.5 L
543 60.5 L
543 60.5 L
543 60.5 L
543 60.5 L
543 60.5 L
543 60.5 L
543 60.5 L
543 60.5 L
543 60.5 L
543 60.5 L
543 60.5 L
543 60.5 L
543 60.5 L
543 60.5 L
543 60.5 L
543 60.5 L
543 60.5 L
543 60.5 L
543 60.5 L
543 60.5 L
543 60.5 L
543 60.5 L
543 60.5 L
543 60.5 L
543 60.5 L
543 60.5 L
543 60.5 L
543 60.5 L
543 60.5 L
543 60.5 L
543 60.5 L
543 60.5 L
543 60.5 L
543 60.5 L
543 60.5 L
543 60.5 L
543 60.5 L
543 60.5 L
543 60.5 L
543 60.5 L
543 60.5 L
543 60.5 L
543 60.5 L
543 60.5 L
543 60.5 L
543 60.5 L
543 60.5 L
543 60.5 L
543 60.5 L
543 60.5 L
543 60.5 L
543 60.5 L
543 60.5 L
543 60.5 L
543 60.5 L
543 60.5 L
543 60.5 L
543 60.5 L
543 60.5 L
543 60.5 L
543 60.5 L
543 60.5 L
543 60.5 L
543 60.5 L
543 60.5 L
543 60.5 L
543 60.5 L
543 60.5 L
543 60.5 L
543 60.5 L
543 60.5 L
543 60.5 L
543 60.5 L
543 60.5 L
543 60.5 L
543 60.5 L
543 60.5 L
543 60.5 L
543 60.5 L
543 60.5 L
543 60.5 L
543 60.5 L
543 60.5 L
543 60.5 L
543 60.5 L
543 60.5 L
543 60.5 L
543 60.5 L
543 60.5 L
543 60.5 L
543 60.5 L
543 60.5 L
543 60.5 L
543 60.5 L
543 60.5 L
543 60.5 L
543 60.5 L
543 60.5 L
543 60.5 L
543 60.5 L
543 60.5 L
543 60.5 L
543 60.5 L
543 60.5 L
543 60.5 L
543 60.5 L
543 60.5 L
543 60.5 L
543 60.5 L
543 60.5 L
543 60.5 L
543 60.5 L
543 60.5 L
543 60.5 L
543 60.5 L
543 60.5 L
543 60.5 L
543 60.5 L
543 60.5 L
543 60.5 L
543 60.5 L
543 60.5 L
543 60.5 L
543 60.5 L
543 60.5 L
543 60.5 L
543 60.5 L
543 60.5 L
543 60.5 L
543 60.5 L
543 60.5 L
543 60.5 L
543 60.5 L
543 60.5 L
543 60.5 L
543 60.5 L
543 60.5 L
543 60.5 L
543 60.5 L
543 60.5 L
543 60.5 L
543 60.5 L
543 60.5 L
543 60.5 L
543 60.5 L
543 60.5 L
543 60.5 L
543 60.5 L
543 60.5 L
543 60.5 L
543 60.5 L
543 60.5 L
543 60.5 L
543 60.5 L
543 60.5 L
543 60.5 L
543 60.5 L
543 60.5 L
543 60.5 L
543 60.5 L
543 60.5 L
543 60.5 L
543 60.5 L
543 60.5 L
543 60.5 L
543 60.5 L
543 60.5 L
543 60.5 L
543 60.5 L
543 60.5 L
543 60.5 L
543 60.5 L
543 60.5 L
543 60.5 L
543 60.5 L
543 60.5 L
543 60.5 L
534.821 60.5 L
534.821 60.714 L
530.732 60.927 L
514.375 62.209 L
498.018 65.2 L
461.214 69.686 L
440.768 74.385 L
416.232 79.512 L
379.429 87.416 L
354.893 94.038 L
342.625 97.883 L
334.446 101.515 L
326.268 105.146 L
318.089 106.215 L
318.089 108.137 L
318.089 109.205 L
318.089 109.632 L
318.089 110.06 L
318.089 110.273 L
318.089 110.701 L
318.089 110.701 L
318.089 110.914 L
318.089 111.128 L
318.089 111.555 L
318.089 111.982 L
318.089 112.196 L
318.089 112.837 L
318.089 112.837 L
318.089 112.837 L
318.089 112.837 L
318.089 112.837 L
318.089 112.837 L
318.089 112.837 L
318.089 113.05 L
318.089 113.05 L
318.089 113.05 L
318.089 113.05 L
318.089 113.05 L
318.089 113.05 L
318.089 113.05 L
318.089 113.05 L
318.089 113.05 L
318.089 113.05 L
318.089 113.05 L
318.089 113.264 L
318.089 113.264 L
318.089 113.264 L
318.089 113.264 L
318.089 113.264 L
318.089 113.264 L
318.089 113.264 L
318.089 113.264 L
318.089 113.264 L
318.089 113.264 L
318.089 113.264 L
318.089 113.264 L
318.089 113.264 L
318.089 113.478 L
318.089 113.478 L
318.089 113.478 L
318.089 113.478 L
318.089 113.478 L
318.089 113.478 L
318.089 113.478 L
318.089 113.478 L
318.089 113.478 L
318.089 113.478 L
318.089 113.478 L
318.089 113.478 L
318.089 113.478 L
318.089 113.691 L
318.089 113.691 L
318.089 113.691 L
318.089 113.691 L
318.089 113.691 L
318.089 113.691 L
318.089 113.691 L
318.089 113.691 L
318.089 113.691 L
318.089 113.691 L
318.089 113.691 L
318.089 113.691 L
318.089 113.691 L
318.089 113.691 L
318.089 113.691 L
318.089 113.691 L
318.089 113.691 L
318.089 113.691 L
318.089 113.691 L
318.089 113.905 L
318.089 113.905 L
318.089 113.905 L
318.089 113.905 L
318.089 113.905 L
318.089 113.905 L
318.089 113.905 L
318.089 113.905 L
318.089 113.905 L
318.089 113.905 L
318.089 113.905 L
318.089 113.905 L
318.089 113.905 L
318.089 113.905 L
318.089 113.905 L
318.089 113.905 L
318.089 113.905 L
318.089 113.905 L
318.089 113.905 L
318.089 113.905 L
318.089 113.905 L
318.089 114.118 L
318.089 114.118 L
318.089 114.118 L
318.089 114.118 L
318.089 114.118 L
318.089 114.118 L
318.089 114.118 L
318.089 114.118 L
318.089 114.118 L
318.089 114.118 L
318.089 114.118 L
318.089 114.118 L
318.089 114.118 L
318.089 114.118 L
318.089 114.118 L
318.089 114.118 L
318.089 114.118 L
318.089 114.332 L
318.089 114.332 L
318.089 114.332 L
318.089 114.332 L
318.089 114.332 L
318.089 114.332 L
318.089 114.332 L
318.089 114.332 L
318.089 114.332 L
318.089 114.332 L
318.089 114.332 L
318.089 114.332 L
318.089 114.332 L
318.089 114.332 L
318.089 114.332 L
318.089 114.332 L
318.089 114.332 L
318.089 114.332 L
318.089 114.332 L
318.089 114.332 L
318.089 114.332 L
318.089 114.546 L
318.089 114.546 L
318.089 114.546 L
318.089 114.546 L
318.089 114.546 L
318.089 114.546 L
318.089 114.546 L
318.089 114.546 L
318.089 114.546 L
318.089 114.546 L
318.089 114.546 L
318.089 114.546 L
318.089 114.546 L
318.089 114.546 L
318.089 114.546 L
318.089 114.546 L
318.089 114.546 L
318.089 114.759 L
318.089 114.759 L
318.089 114.759 L
318.089 114.759 L
318.089 114.759 L
318.089 114.973 L
318.089 115.187 L
318.089 115.187 L
318.089 116.468 L
318.089 117.323 L
318.089 118.818 L
318.089 119.673 L
318.089 121.168 L
318.089 122.022 L
318.089 123.518 L
318.089 126.081 L
318.089 127.149 L
318.089 128.431 L
318.089 129.713 L
318.089 131.422 L
318.089 134.199 L
318.089 135.267 L
318.089 136.121 L
318.089 137.189 L
318.089 139.966 L
318.089 144.025 L
318.089 149.579 L
318.089 152.997 L
318.089 154.279 L
318.089 154.706 L
318.089 155.774 L
318.089 157.056 L
318.089 157.697 L
318.089 158.124 L
318.089 158.979 L
318.089 160.26 L
318.089 161.115 L
318.089 161.542 L
318.089 162.61 L
318.089 162.824 L
318.089 163.465 L
318.089 166.455 L
318.089 171.368 L
318.089 177.991 L
318.089 186.535 L
318.089 189.526 L
318.089 191.235 L
318.089 192.944 L
318.089 195.721 L
318.089 198.925 L
318.089 201.916 L
318.089 205.975 L
318.089 210.461 L
318.089 217.938 L
318.089 224.987 L
318.089 229.259 L
318.089 232.891 L
318.089 236.736 L
318.089 240.581 L
318.089 242.504 L
318.089 243.572 L
318.089 244.854 L
318.089 245.922 L
318.089 247.631 L
318.089 249.34 L
318.089 250.835 L
318.089 255.321 L
318.089 257.671 L
318.089 261.943 L
318.089 269.42 L
318.089 272.41 L
318.089 275.615 L
318.089 277.537 L
318.089 278.605 L
318.089 279.673 L
318.089 282.237 L
318.089 285.655 L
318.089 288.218 L
154.518 291.85 L
85 323.679 L
85 398.446 L
85 431.343 L
85 451.637 L
85 474.494 L
85 480.262 L
85 485.816 L
85 491.798 L
85 492.866 L
85 494.361 L
85 495.643 L
85 496.284 L
85 496.711 L
85 497.565 L
85 498.206 L
85 498.847 L
85 499.488 L
85 500.342 L
85 502.265 L
85 507.178 L
85 513.8 L
85 514.868 L
85 518.5 L
85 518.5 L
S
GR
GS
[0.75 0 0 0.75 0 0] CT
0 1 0 RC
2 setlinecap
10.0 ML
4 LW
N
543 60.5 M
543 60.5 L
543 60.5 L
543 60.659 L
543 60.898 L
543 61.057 L
543 61.057 L
543 61.216 L
543 61.295 L
543 61.295 L
543 61.295 L
543 61.375 L
543 61.375 L
543 61.375 L
543 61.534 L
543 61.693 L
543 61.693 L
543 61.931 L
543 61.931 L
543 62.011 L
543 62.091 L
543 62.091 L
543 62.091 L
543 62.17 L
543 62.17 L
543 62.329 L
543 62.409 L
543 62.806 L
543 63.045 L
543 63.204 L
543 63.522 L
543 63.84 L
543 64.238 L
543 64.795 L
543 65.351 L
543 65.51 L
543 65.749 L
543 65.828 L
543 65.987 L
543 66.385 L
543 66.544 L
543 66.544 L
543 66.703 L
543 66.703 L
543 66.942 L
543 67.021 L
543 67.021 L
543 67.101 L
543 67.18 L
543 67.18 L
543 67.18 L
543 67.339 L
543 67.339 L
543 67.419 L
543 67.498 L
543 67.498 L
543 67.498 L
543 67.498 L
543 67.498 L
543 67.498 L
543 67.498 L
543 67.578 L
543 67.578 L
543 67.578 L
543 67.658 L
543 67.658 L
543 67.737 L
543 67.737 L
543 67.896 L
543 67.896 L
543 67.896 L
543 67.896 L
543 67.976 L
543 68.055 L
543 68.055 L
543 68.135 L
543 68.135 L
543 68.135 L
543 68.214 L
543 68.294 L
543 68.294 L
543 68.373 L
543 68.612 L
543 68.612 L
543 68.771 L
543 68.771 L
543 68.85 L
543 69.169 L
543 69.407 L
543 69.566 L
543 69.964 L
543 70.123 L
543 70.123 L
543 70.123 L
543 70.202 L
543 70.361 L
543 70.361 L
543 70.361 L
543 70.52 L
543 70.52 L
543 70.52 L
543 70.839 L
543 70.998 L
543 70.998 L
543 71.157 L
543 71.554 L
543 71.713 L
543 71.872 L
543 71.952 L
543 71.952 L
543 72.032 L
543 72.032 L
543 72.111 L
543 72.111 L
543 72.111 L
543 72.111 L
543 72.191 L
543 72.27 L
543 72.27 L
543 72.35 L
543 72.429 L
543 72.509 L
543 72.509 L
543 72.588 L
543 72.588 L
543 72.747 L
543 72.827 L
543 72.986 L
543 73.145 L
543 73.224 L
543 73.304 L
543 73.304 L
543 73.463 L
543 73.463 L
543 73.861 L
543 73.94 L
543 74.02 L
543 74.02 L
543 74.099 L
543 74.179 L
543 74.179 L
543 74.258 L
543 74.497 L
543 74.576 L
543 74.576 L
543 74.815 L
543 74.895 L
543 74.974 L
543 75.054 L
543 75.213 L
543 75.292 L
543 75.292 L
543 75.292 L
543 75.451 L
543 75.531 L
543 75.531 L
543 75.69 L
543 75.769 L
543 75.849 L
543 75.849 L
543 75.849 L
543 75.928 L
543 75.928 L
543 75.928 L
543 75.928 L
543 76.008 L
543 76.008 L
543 76.008 L
543 76.008 L
543 76.087 L
543 76.087 L
543 76.087 L
543 76.087 L
543 76.087 L
543 76.087 L
543 76.087 L
543 76.087 L
543 76.087 L
543 76.087 L
543 76.087 L
543 76.167 L
543 76.167 L
543 76.167 L
543 76.167 L
543 76.246 L
543 76.246 L
543 76.246 L
543 76.246 L
543 76.246 L
543 76.326 L
543 76.326 L
543 76.326 L
543 76.326 L
543 76.326 L
543 76.326 L
543 76.326 L
543 76.406 L
543 76.406 L
543 76.406 L
543 76.406 L
543 76.406 L
543 76.406 L
543 76.406 L
543 76.406 L
543 76.485 L
543 76.485 L
543 76.485 L
543 76.485 L
543 76.485 L
543 76.485 L
543 76.485 L
543 76.485 L
543 76.485 L
543 76.485 L
543 76.485 L
543 76.485 L
543 76.565 L
543 76.565 L
543 76.565 L
543 76.565 L
543 76.644 L
543 76.724 L
543 76.724 L
543 76.724 L
543 76.724 L
543 76.724 L
543 76.724 L
543 76.724 L
543 76.724 L
543 76.724 L
543 76.724 L
543 76.803 L
543 76.803 L
543 76.803 L
543 76.803 L
543 76.803 L
543 76.803 L
543 76.803 L
543 76.803 L
543 76.803 L
543 76.803 L
543 76.803 L
543 76.803 L
543 76.883 L
543 76.883 L
543 76.883 L
543 76.883 L
543 76.883 L
543 76.883 L
543 76.883 L
543 76.883 L
543 76.883 L
543 76.962 L
543 76.962 L
543 76.962 L
543 76.962 L
543 76.962 L
543 76.962 L
543 76.962 L
543 76.962 L
543 76.962 L
543 77.042 L
543 77.042 L
543 77.042 L
543 77.042 L
543 77.121 L
543 77.121 L
543 77.201 L
543 77.201 L
543 77.201 L
543 77.201 L
543 77.28 L
543 77.28 L
543 77.28 L
543 77.28 L
543 77.28 L
543 77.28 L
543 77.28 L
543 77.28 L
543 77.28 L
543 77.28 L
543 77.28 L
543 77.28 L
543 77.28 L
543 77.28 L
543 77.28 L
543 77.28 L
543 77.36 L
543 77.36 L
543 77.36 L
543 77.36 L
543 77.439 L
543 77.439 L
543 77.439 L
543 77.439 L
543 77.598 L
543 77.598 L
543 77.598 L
543 77.678 L
543 77.678 L
543 77.678 L
543 77.758 L
543 77.758 L
543 77.758 L
543 77.758 L
543 77.837 L
543 77.837 L
543 77.837 L
543 77.917 L
543 77.996 L
543 77.996 L
543 78.235 L
543 78.235 L
543 78.314 L
543 78.394 L
543 78.394 L
543 78.394 L
543 78.394 L
543 78.473 L
543 78.473 L
543 78.553 L
543 78.632 L
543 78.632 L
543 78.632 L
543 78.791 L
543 78.871 L
543 78.95 L
543 78.95 L
543 78.95 L
543 78.95 L
543 78.95 L
543 79.03 L
543 79.109 L
543 79.109 L
543 79.269 L
543 79.269 L
543 79.269 L
543 79.269 L
543 79.269 L
543 79.269 L
543 79.269 L
543 79.348 L
543 79.666 L
543 79.666 L
543 79.746 L
543 79.825 L
543 79.825 L
543 79.825 L
543 79.825 L
543 79.905 L
543 79.984 L
543 80.143 L
543 80.223 L
543 80.223 L
543 80.223 L
543 80.382 L
543 80.382 L
543 80.382 L
543 80.382 L
543 80.541 L
543 80.541 L
543 80.621 L
543 80.621 L
543 80.621 L
543 80.621 L
543 80.7 L
543 80.859 L
543 80.859 L
543 80.859 L
543 80.939 L
543 80.939 L
543 81.018 L
543 81.018 L
543 81.098 L
543 81.177 L
543 81.257 L
543 81.257 L
543 81.257 L
543 81.257 L
543 81.257 L
543 81.257 L
543 81.257 L
543 81.336 L
543 81.336 L
543 81.416 L
543 81.575 L
543 81.654 L
543 81.734 L
543 81.893 L
543 81.893 L
543 81.972 L
543 81.972 L
543 82.052 L
543 82.052 L
543 82.132 L
543 82.132 L
543 82.132 L
543 82.132 L
543 82.132 L
543 82.211 L
543 82.291 L
543 82.37 L
543 82.45 L
543 82.45 L
543 82.45 L
543 82.529 L
543 82.529 L
543 82.529 L
543 82.529 L
543 82.529 L
543 82.529 L
543 82.609 L
543 82.609 L
543 82.688 L
543 82.768 L
543 82.847 L
543 82.847 L
543 82.927 L
543 83.006 L
543 83.006 L
543 83.006 L
543 83.006 L
543 83.086 L
543 83.086 L
543 83.165 L
543 83.165 L
543 83.324 L
543 83.324 L
543 83.324 L
543 83.324 L
543 83.324 L
543 83.324 L
543 83.404 L
543 83.484 L
543 83.563 L
543 83.563 L
543 83.563 L
543 83.722 L
543 83.722 L
543 83.722 L
543 83.722 L
543 83.722 L
543 83.961 L
543 84.04 L
543 84.12 L
543 84.279 L
543 84.279 L
543 84.358 L
543 84.358 L
543 84.358 L
543 84.358 L
543 84.438 L
543 84.438 L
543 84.438 L
543 84.438 L
543 84.438 L
543 84.517 L
543 84.676 L
543 84.756 L
543 84.915 L
543 84.995 L
543 84.995 L
543 85.154 L
543 85.154 L
543 85.154 L
543 85.313 L
543 85.313 L
543 85.472 L
543 85.472 L
543 85.472 L
543 85.472 L
543 85.71 L
543 85.71 L
543 85.71 L
543 85.869 L
543 86.028 L
543 86.028 L
543 86.028 L
543 86.028 L
543 86.028 L
543 86.028 L
543 86.028 L
543 86.108 L
543 86.108 L
543 86.187 L
543 86.187 L
543 86.267 L
543 86.346 L
543 86.346 L
543 86.346 L
543 86.346 L
543 86.346 L
543 86.426 L
543 86.426 L
543 86.426 L
543 86.426 L
543 86.426 L
543 86.426 L
543 86.426 L
543 86.426 L
543 86.426 L
543 86.426 L
543 86.506 L
543 86.506 L
543 86.506 L
543 86.585 L
543 86.585 L
543 86.585 L
543 86.585 L
543 86.585 L
543 86.585 L
543 86.665 L
543 86.665 L
543 86.665 L
543 86.665 L
543 86.665 L
543 86.665 L
543 86.665 L
543 86.665 L
543 86.665 L
543 86.665 L
543 86.903 L
543 86.903 L
543 86.903 L
543 86.903 L
543 86.903 L
543 86.983 L
543 86.983 L
543 86.983 L
543 87.062 L
543 87.062 L
543 87.062 L
543 87.142 L
543 87.142 L
543 87.142 L
543 87.221 L
543 87.221 L
543 87.301 L
543 87.301 L
543 87.38 L
543 87.46 L
543 87.619 L
543 87.698 L
543 87.778 L
543 87.778 L
543 87.778 L
543 87.778 L
543 87.778 L
543 87.778 L
543 87.858 L
543 87.937 L
543 87.937 L
543 88.017 L
543 88.017 L
543 88.096 L
543 88.176 L
543 88.176 L
543 88.255 L
543 88.255 L
543 88.255 L
543 88.335 L
543 88.494 L
543 88.494 L
543 88.494 L
543 88.494 L
543 88.494 L
543 88.494 L
543 88.494 L
543 88.494 L
543 88.653 L
543 88.653 L
543 88.653 L
543 88.653 L
543 88.812 L
543 89.05 L
543 89.05 L
543 89.05 L
543 89.05 L
543 89.05 L
543 89.05 L
543 89.05 L
543 89.05 L
543 89.05 L
543 89.05 L
543 89.05 L
543 89.05 L
543 89.05 L
543 89.209 L
543 89.209 L
543 89.209 L
543 89.209 L
543 89.209 L
543 89.209 L
543 89.369 L
543 89.369 L
543 89.687 L
543 89.687 L
543 89.766 L
543 89.766 L
543 89.846 L
543 89.925 L
543 89.925 L
543 89.925 L
543 90.005 L
543 90.243 L
543 90.243 L
543 90.243 L
543 90.243 L
543 90.402 L
543 90.402 L
543 90.402 L
543 90.482 L
543 90.482 L
543 90.561 L
543 90.561 L
543 90.561 L
543 90.8 L
543 90.8 L
543 90.8 L
543 90.88 L
543 90.88 L
543 90.88 L
543 90.959 L
543 90.959 L
543 91.039 L
543 91.039 L
543 91.039 L
543 91.118 L
543 91.118 L
543 91.118 L
543 91.198 L
543 91.198 L
543 91.277 L
543 91.277 L
543 91.277 L
543 91.277 L
543 91.277 L
543 91.277 L
543 91.277 L
543 91.277 L
543 91.277 L
543 91.277 L
543 91.277 L
543 91.436 L
543 91.436 L
543 91.436 L
543 91.436 L
543 91.436 L
543 91.516 L
543 91.516 L
543 91.595 L
543 91.595 L
543 91.595 L
543 91.675 L
543 91.834 L
543 91.834 L
543 91.834 L
543 91.913 L
543 91.913 L
543 91.913 L
543 92.072 L
543 92.072 L
543 92.072 L
543 92.232 L
543 92.232 L
543 92.232 L
543 92.232 L
543 92.391 L
543 92.391 L
543 92.391 L
543 92.391 L
543 92.391 L
543 92.47 L
543 92.47 L
543 92.47 L
543 92.47 L
543 92.55 L
543 92.55 L
543 92.55 L
543 92.55 L
543 92.629 L
543 92.629 L
543 92.629 L
543 92.629 L
543 92.709 L
543 92.788 L
543 92.788 L
543 92.788 L
543 92.788 L
543 92.788 L
543 92.788 L
543 92.868 L
543 92.868 L
543 92.868 L
543 92.868 L
543 92.868 L
543 92.868 L
543 92.868 L
543 92.947 L
543 93.027 L
543 93.027 L
543 93.106 L
543 93.186 L
543 93.186 L
543 93.265 L
543 93.265 L
543 93.265 L
543 93.265 L
543 93.265 L
543 93.265 L
543 93.265 L
543 93.265 L
543 93.265 L
543 93.265 L
543 93.265 L
543 93.265 L
543 93.345 L
543 93.424 L
543 93.424 L
543 93.424 L
543 93.424 L
543 93.504 L
543 93.584 L
543 93.584 L
543 93.584 L
543 93.584 L
543 93.584 L
543 93.584 L
543 93.663 L
543 93.663 L
543 93.743 L
543 93.743 L
543 93.743 L
543 93.743 L
543 93.743 L
543 93.743 L
543 93.822 L
543 93.822 L
543 93.902 L
543 93.902 L
543 93.981 L
543 94.14 L
543 94.22 L
543 94.379 L
543 94.379 L
543 94.379 L
543 94.379 L
543 94.379 L
543 94.458 L
543 94.458 L
543 94.458 L
543 94.538 L
543 94.617 L
543 94.697 L
543 94.697 L
543 94.935 L
543 95.015 L
543 95.015 L
543 95.095 L
543 95.174 L
543 95.333 L
543 95.492 L
543 95.651 L
543 95.651 L
543 95.651 L
543 95.651 L
543 95.651 L
543 95.731 L
543 95.731 L
543 95.89 L
543 95.969 L
543 95.969 L
543 95.969 L
543 95.969 L
543 95.969 L
543 96.128 L
543 96.208 L
543 96.367 L
543 96.367 L
543 96.447 L
543 96.447 L
543 96.685 L
543 96.685 L
543 96.685 L
543 96.685 L
543 96.765 L
543 96.844 L
543 96.844 L
543 96.844 L
543 96.924 L
543 96.924 L
543 96.924 L
543 97.003 L
543 97.083 L
543 97.162 L
543 97.162 L
543 97.242 L
543 97.321 L
543 97.321 L
543 97.321 L
543 97.401 L
543 97.401 L
543 97.48 L
543 97.48 L
543 97.48 L
543 97.48 L
543 97.48 L
543 97.48 L
543 97.48 L
543 97.48 L
543 97.48 L
543 97.48 L
543 97.48 L
543 97.56 L
543 97.56 L
543 97.56 L
543 97.56 L
543 97.56 L
543 97.56 L
543 97.56 L
543 97.56 L
543 97.56 L
543 97.56 L
543 97.56 L
543 97.639 L
543 97.639 L
543 97.639 L
543 97.719 L
543 97.719 L
543 97.799 L
543 97.799 L
543 97.878 L
543 97.958 L
543 97.958 L
543 97.958 L
543 97.958 L
543 97.958 L
543 98.117 L
543 98.117 L
543 98.117 L
543 98.117 L
543 98.117 L
543 98.117 L
543 98.117 L
543 98.117 L
543 98.117 L
543 98.117 L
543 98.196 L
543 98.196 L
543 98.276 L
543 98.276 L
543 98.355 L
543 98.355 L
543 98.355 L
543 98.355 L
543 98.355 L
543 98.435 L
543 98.514 L
543 98.594 L
543 98.673 L
543 98.673 L
543 98.832 L
543 98.832 L
543 98.832 L
543 99.071 L
543 99.071 L
543 99.071 L
543 99.071 L
543 99.15 L
543 99.31 L
543 99.31 L
543 99.31 L
543 99.389 L
543 99.548 L
543 99.628 L
543 99.787 L
543 99.946 L
543 100.105 L
543 100.105 L
543 100.582 L
543 100.661 L
543 100.661 L
543 100.741 L
543 100.98 L
543 101.139 L
543 101.616 L
543 101.934 L
543 102.252 L
543 102.57 L
543 102.888 L
543 103.127 L
543 103.604 L
543 103.843 L
543 103.922 L
543 104.479 L
543 105.195 L
543 105.672 L
543 105.751 L
543 105.831 L
543 106.069 L
543 106.387 L
543 106.626 L
543 106.706 L
543 107.183 L
543 107.501 L
543 107.66 L
543 107.898 L
543 108.694 L
543 108.932 L
543 109.41 L
543 109.648 L
543 110.443 L
542.118 110.921 L
541.235 111.716 L
541.235 112.352 L
541.235 112.909 L
539.47 113.545 L
539.47 114.261 L
539.47 114.897 L
539.47 115.692 L
536.823 116.09 L
535.94 116.885 L
535.058 117.124 L
531.528 117.521 L
530.645 117.999 L
527.998 118.635 L
526.233 118.714 L
523.586 118.794 L
520.056 118.873 L
515.644 119.112 L
512.114 119.271 L
508.584 119.271 L
503.289 119.271 L
497.112 119.51 L
494.464 119.828 L
493.582 120.146 L
493.582 120.305 L
493.582 120.702 L
493.582 121.418 L
493.582 121.975 L
492.699 122.213 L
492.699 122.293 L
492.699 122.929 L
492.699 123.406 L
492.699 123.963 L
492.699 124.281 L
492.699 124.599 L
492.699 125.076 L
492.699 125.236 L
492.699 125.315 L
492.699 125.554 L
492.699 125.554 L
492.699 125.792 L
492.699 126.11 L
492.699 126.19 L
492.699 126.349 L
492.699 126.428 L
492.699 126.747 L
492.699 127.224 L
492.699 127.78 L
492.699 128.576 L
492.699 129.212 L
492.699 129.53 L
492.699 129.928 L
492.699 130.564 L
492.699 131.28 L
492.699 131.518 L
492.699 132.393 L
492.699 133.188 L
492.699 133.825 L
492.699 134.699 L
492.699 135.892 L
492.699 137.006 L
492.699 138.437 L
492.699 140.187 L
492.699 142.095 L
492.699 142.97 L
492.699 144.163 L
492.699 145.674 L
492.699 147.424 L
492.699 149.173 L
492.699 151.559 L
492.699 153.786 L
492.699 157.444 L
492.699 161.898 L
492.699 165.158 L
492.699 167.942 L
492.699 172.555 L
492.699 176.292 L
490.934 179.951 L
466.225 182.495 L
370.919 186.233 L
341.798 188.858 L
341.798 193.232 L
341.798 198.64 L
341.798 206.195 L
341.798 215.102 L
341.798 224.088 L
330.326 240.153 L
218.252 274.509 L
85 507.843 L
85 518.5 L
S
GR
GS
[0.75 0 0 0.75 0 0] CT
1 0 0 RC
[16 16] 0 setdash
2 LJ
4 LW
N
199.674 518.5 M
199.674 211.756 L
201.064 207.525 L
203.149 206.115 L
207.319 201.179 L
209.404 194.48 L
210.099 193.07 L
212.184 190.602 L
216.354 187.781 L
217.049 185.313 L
217.049 182.492 L
219.829 179.319 L
224.693 176.146 L
228.168 172.973 L
236.508 169.799 L
243.458 167.331 L
247.628 162.748 L
250.408 162.748 L
252.493 162.043 L
255.968 160.28 L
259.443 159.927 L
261.528 157.459 L
265.003 154.991 L
267.088 152.523 L
271.953 148.645 L
278.208 145.119 L
283.768 143.356 L
287.938 140.888 L
292.108 139.125 L
295.583 138.42 L
300.448 135.952 L
305.313 133.484 L
310.178 128.548 L
312.958 126.785 L
316.432 125.727 L
317.822 122.906 L
320.602 120.791 L
321.992 119.733 L
325.467 119.028 L
328.247 117.97 L
328.942 117.265 L
331.722 116.207 L
335.197 114.445 L
336.587 112.682 L
337.282 111.271 L
340.062 109.508 L
344.927 105.278 L
349.097 102.457 L
352.572 101.047 L
368.557 99.989 L
376.202 99.636 L
381.762 97.168 L
381.762 96.463 L
385.237 96.463 L
385.237 96.11 L
387.322 94.348 L
389.407 93.642 L
391.492 92.937 L
395.662 91.527 L
401.222 89.411 L
403.307 88.001 L
404.697 86.943 L
406.086 84.828 L
408.171 83.77 L
414.426 80.95 L
417.206 79.892 L
420.681 78.834 L
423.461 77.424 L
426.241 76.719 L
431.106 75.661 L
435.276 73.898 L
438.056 72.84 L
443.616 71.077 L
449.871 69.667 L
452.651 68.257 L
456.126 67.904 L
459.601 66.846 L
461.686 65.789 L
464.466 65.436 L
469.331 64.378 L
470.026 63.321 L
472.111 63.321 L
509.64 62.968 L
516.59 62.615 L
520.065 62.263 L
528.405 61.91 L
537.44 61.91 L
539.525 61.558 L
540.915 61.205 L
541.61 61.205 L
542.305 61.205 L
542.305 60.5 L
543 60.5 L
543 60.5 L
543 60.5 L
543 60.5 L
543 60.5 L
543 60.5 L
543 60.5 L
543 60.5 L
543 60.5 L
543 60.5 L
543 60.5 L
S
GR
GS
[0.75 0 0 0.75 0 0] CT
1 GC
N
272 505 M
272 411 L
530 411 L
530 505 L
cp
f
GR
GS
[0.75 0 0 0.75 243.09293 321.16383] CT
/Helvetica 24 F
GS
[1 0 0 1 0 0] CT
0 9.535 moveto 
1 -1 scale
(CNN same-subject) t 
GR
GR
GS
[0.75 0 0 0.75 0 0] CT
0 0 1 RC
[16 4 8 4] 0 setdash
2 LJ
4 LW
N
280.019 428.218 M
320.114 428.218 L
S
GR
GS
[0.75 0 0 0.75 243.09293 343.5] CT
/Helvetica 24 F
GS
[1 0 0 1 0 0] CT
0 9.535 moveto 
1 -1 scale
(CNN cross-subject) t 
GR
GR
GS
[0.75 0 0 0.75 0 0] CT
0 1 0 RC
2 setlinecap
10.0 ML
4 LW
N
280.019 458 M
320.114 458 L
S
GR
GS
[0.75 0 0 0.75 243.09293 365.83617] CT
/Helvetica 24 F
GS
[1 0 0 1 0 0] CT
0 9.535 moveto 
1 -1 scale
(Pisani et al.) t 
GR
GR
GS
[0.75 0 0 0.75 0 0] CT
1 0 0 RC
[16 16] 0 setdash
2 LJ
4 LW
N
280.019 487.782 M
320.114 487.782 L
S
GR
GS
[0.75 0 0 0.75 0 0] CT
0.149 GC
2 setlinecap
10.0 ML
N
272 505 M
272 411 L
530 411 L
530 505 L
272 505 L
S
GR
%%Trailer
%%Pages: 1
%%EOF
