%!PS-Adobe-3.0 EPSF-3.0
%%Creator: (MATLAB, The Mathworks, Inc. Version 8.4.0.150421 \(R2014b\). Operating System: Windows 8)
%%Title: C:/Projects/SD_MICCAI_paper/tex/images/SameSubjectComparison_slim.eps
%%CreationDate: 2015-03-07T05:27:27
%%Pages: (atend)
%%BoundingBox: 0 0 765 251
%%LanguageLevel: 2
%%EndComments
%%BeginProlog
%%BeginResource: procset (Apache XML Graphics Std ProcSet) 1.2 0
%%Version: 1.2 0
%%Copyright: (Copyright 2001-2003,2010 The Apache Software Foundation. License terms: http://www.apache.org/licenses/LICENSE-2.0)
/bd{bind def}bind def
/ld{load def}bd
/GR/grestore ld
/M/moveto ld
/LJ/setlinejoin ld
/C/curveto ld
/f/fill ld
/LW/setlinewidth ld
/GC/setgray ld
/t/show ld
/N/newpath ld
/CT/concat ld
/cp/closepath ld
/S/stroke ld
/L/lineto ld
/CC/setcmykcolor ld
/A/ashow ld
/GS/gsave ld
/RC/setrgbcolor ld
/RM/rmoveto ld
/ML/setmiterlimit ld
/re {4 2 roll M
1 index 0 rlineto
0 exch rlineto
neg 0 rlineto
cp } bd
/_ctm matrix def
/_tm matrix def
/BT { _ctm currentmatrix pop matrix _tm copy pop 0 0 moveto } bd
/ET { _ctm setmatrix } bd
/iTm { _ctm setmatrix _tm concat } bd
/Tm { _tm astore pop iTm 0 0 moveto } bd
/ux 0.0 def
/uy 0.0 def
/F {
  /Tp exch def
  /Tf exch def
  Tf findfont Tp scalefont setfont
  /cf Tf def  /cs Tp def
} bd
/ULS {currentpoint /uy exch def /ux exch def} bd
/ULE {
  /Tcx currentpoint pop def
  gsave
  newpath
  cf findfont cs scalefont dup
  /FontMatrix get 0 get /Ts exch def /FontInfo get dup
  /UnderlinePosition get Ts mul /To exch def
  /UnderlineThickness get Ts mul /Tt exch def
  ux uy To add moveto  Tcx uy To add lineto
  Tt setlinewidth stroke
  grestore
} bd
/OLE {
  /Tcx currentpoint pop def
  gsave
  newpath
  cf findfont cs scalefont dup
  /FontMatrix get 0 get /Ts exch def /FontInfo get dup
  /UnderlinePosition get Ts mul /To exch def
  /UnderlineThickness get Ts mul /Tt exch def
  ux uy To add cs add moveto Tcx uy To add cs add lineto
  Tt setlinewidth stroke
  grestore
} bd
/SOE {
  /Tcx currentpoint pop def
  gsave
  newpath
  cf findfont cs scalefont dup
  /FontMatrix get 0 get /Ts exch def /FontInfo get dup
  /UnderlinePosition get Ts mul /To exch def
  /UnderlineThickness get Ts mul /Tt exch def
  ux uy To add cs 10 mul 26 idiv add moveto Tcx uy To add cs 10 mul 26 idiv add lineto
  Tt setlinewidth stroke
  grestore
} bd
/QT {
/Y22 exch store
/X22 exch store
/Y21 exch store
/X21 exch store
currentpoint
/Y21 load 2 mul add 3 div exch
/X21 load 2 mul add 3 div exch
/X21 load 2 mul /X22 load add 3 div
/Y21 load 2 mul /Y22 load add 3 div
/X22 load /Y22 load curveto
} bd
/SSPD {
dup length /d exch dict def
{
/v exch def
/k exch def
currentpagedevice k known {
/cpdv currentpagedevice k get def
v cpdv ne {
/upd false def
/nullv v type /nulltype eq def
/nullcpdv cpdv type /nulltype eq def
nullv nullcpdv or
{
/upd true def
} {
/sametype v type cpdv type eq def
sametype {
v type /arraytype eq {
/vlen v length def
/cpdvlen cpdv length def
vlen cpdvlen eq {
0 1 vlen 1 sub {
/i exch def
/obj v i get def
/cpdobj cpdv i get def
obj cpdobj ne {
/upd true def
exit
} if
} for
} {
/upd true def
} ifelse
} {
v type /dicttype eq {
v {
/dv exch def
/dk exch def
/cpddv cpdv dk get def
dv cpddv ne {
/upd true def
exit
} if
} forall
} {
/upd true def
} ifelse
} ifelse
} if
} ifelse
upd true eq {
d k v put
} if
} if
} if
} forall
d length 0 gt {
d setpagedevice
} if
} bd
%%EndResource
%%BeginResource: procset (Apache XML Graphics EPS ProcSet) 1.0 0
%%Version: 1.0 0
%%Copyright: (Copyright 2002-2003 The Apache Software Foundation. License terms: http://www.apache.org/licenses/LICENSE-2.0)
/BeginEPSF { %def
/b4_Inc_state save def         % Save state for cleanup
/dict_count countdictstack def % Count objects on dict stack
/op_count count 1 sub def      % Count objects on operand stack
userdict begin                 % Push userdict on dict stack
/showpage { } def              % Redefine showpage, { } = null proc
0 setgray 0 setlinecap         % Prepare graphics state
1 setlinewidth 0 setlinejoin
10 setmiterlimit [ ] 0 setdash newpath
/languagelevel where           % If level not equal to 1 then
{pop languagelevel             % set strokeadjust and
1 ne                           % overprint to their defaults.
{false setstrokeadjust false setoverprint
} if
} if
} bd
/EndEPSF { %def
count op_count sub {pop} repeat            % Clean up stacks
countdictstack dict_count sub {end} repeat
b4_Inc_state restore
} bd
%%EndResource
%FOPBeginFontDict
%%IncludeResource: font Courier-Bold
%%IncludeResource: font Helvetica
%%IncludeResource: font Courier-BoldOblique
%%IncludeResource: font Courier-Oblique
%%IncludeResource: font Times-Roman
%%IncludeResource: font Helvetica-BoldOblique
%%IncludeResource: font Helvetica-Bold
%%IncludeResource: font Helvetica-Oblique
%%IncludeResource: font Times-BoldItalic
%%IncludeResource: font Courier
%%IncludeResource: font Times-Italic
%%IncludeResource: font Times-Bold
%%IncludeResource: font Symbol
%%IncludeResource: font ZapfDingbats
%FOPEndFontDict
%%BeginResource: encoding WinAnsiEncoding
/WinAnsiEncoding [
/.notdef /.notdef /.notdef /.notdef /.notdef
/.notdef /.notdef /.notdef /.notdef /.notdef
/.notdef /.notdef /.notdef /.notdef /.notdef
/.notdef /.notdef /.notdef /.notdef /.notdef
/.notdef /.notdef /.notdef /.notdef /.notdef
/.notdef /.notdef /.notdef /.notdef /.notdef
/.notdef /.notdef /space /exclam /quotedbl
/numbersign /dollar /percent /ampersand /quotesingle
/parenleft /parenright /asterisk /plus /comma
/hyphen /period /slash /zero /one
/two /three /four /five /six
/seven /eight /nine /colon /semicolon
/less /equal /greater /question /at
/A /B /C /D /E
/F /G /H /I /J
/K /L /M /N /O
/P /Q /R /S /T
/U /V /W /X /Y
/Z /bracketleft /backslash /bracketright /asciicircum
/underscore /quoteleft /a /b /c
/d /e /f /g /h
/i /j /k /l /m
/n /o /p /q /r
/s /t /u /v /w
/x /y /z /braceleft /bar
/braceright /asciitilde /bullet /Euro /bullet
/quotesinglbase /florin /quotedblbase /ellipsis /dagger
/daggerdbl /circumflex /perthousand /Scaron /guilsinglleft
/OE /bullet /Zcaron /bullet /bullet
/quoteleft /quoteright /quotedblleft /quotedblright /bullet
/endash /emdash /asciitilde /trademark /scaron
/guilsinglright /oe /bullet /zcaron /Ydieresis
/space /exclamdown /cent /sterling /currency
/yen /brokenbar /section /dieresis /copyright
/ordfeminine /guillemotleft /logicalnot /sfthyphen /registered
/macron /degree /plusminus /twosuperior /threesuperior
/acute /mu /paragraph /middot /cedilla
/onesuperior /ordmasculine /guillemotright /onequarter /onehalf
/threequarters /questiondown /Agrave /Aacute /Acircumflex
/Atilde /Adieresis /Aring /AE /Ccedilla
/Egrave /Eacute /Ecircumflex /Edieresis /Igrave
/Iacute /Icircumflex /Idieresis /Eth /Ntilde
/Ograve /Oacute /Ocircumflex /Otilde /Odieresis
/multiply /Oslash /Ugrave /Uacute /Ucircumflex
/Udieresis /Yacute /Thorn /germandbls /agrave
/aacute /acircumflex /atilde /adieresis /aring
/ae /ccedilla /egrave /eacute /ecircumflex
/edieresis /igrave /iacute /icircumflex /idieresis
/eth /ntilde /ograve /oacute /ocircumflex
/otilde /odieresis /divide /oslash /ugrave
/uacute /ucircumflex /udieresis /yacute /thorn
/ydieresis
] def
%%EndResource
%FOPBeginFontReencode
/Courier-Bold findfont
dup length dict begin
  {1 index /FID ne {def} {pop pop} ifelse} forall
  /Encoding WinAnsiEncoding def
  currentdict
end
/Courier-Bold exch definefont pop
/Helvetica findfont
dup length dict begin
  {1 index /FID ne {def} {pop pop} ifelse} forall
  /Encoding WinAnsiEncoding def
  currentdict
end
/Helvetica exch definefont pop
/Courier-BoldOblique findfont
dup length dict begin
  {1 index /FID ne {def} {pop pop} ifelse} forall
  /Encoding WinAnsiEncoding def
  currentdict
end
/Courier-BoldOblique exch definefont pop
/Courier-Oblique findfont
dup length dict begin
  {1 index /FID ne {def} {pop pop} ifelse} forall
  /Encoding WinAnsiEncoding def
  currentdict
end
/Courier-Oblique exch definefont pop
/Times-Roman findfont
dup length dict begin
  {1 index /FID ne {def} {pop pop} ifelse} forall
  /Encoding WinAnsiEncoding def
  currentdict
end
/Times-Roman exch definefont pop
/Helvetica-BoldOblique findfont
dup length dict begin
  {1 index /FID ne {def} {pop pop} ifelse} forall
  /Encoding WinAnsiEncoding def
  currentdict
end
/Helvetica-BoldOblique exch definefont pop
/Helvetica-Bold findfont
dup length dict begin
  {1 index /FID ne {def} {pop pop} ifelse} forall
  /Encoding WinAnsiEncoding def
  currentdict
end
/Helvetica-Bold exch definefont pop
/Helvetica-Oblique findfont
dup length dict begin
  {1 index /FID ne {def} {pop pop} ifelse} forall
  /Encoding WinAnsiEncoding def
  currentdict
end
/Helvetica-Oblique exch definefont pop
/Times-BoldItalic findfont
dup length dict begin
  {1 index /FID ne {def} {pop pop} ifelse} forall
  /Encoding WinAnsiEncoding def
  currentdict
end
/Times-BoldItalic exch definefont pop
/Courier findfont
dup length dict begin
  {1 index /FID ne {def} {pop pop} ifelse} forall
  /Encoding WinAnsiEncoding def
  currentdict
end
/Courier exch definefont pop
/Times-Italic findfont
dup length dict begin
  {1 index /FID ne {def} {pop pop} ifelse} forall
  /Encoding WinAnsiEncoding def
  currentdict
end
/Times-Italic exch definefont pop
/Times-Bold findfont
dup length dict begin
  {1 index /FID ne {def} {pop pop} ifelse} forall
  /Encoding WinAnsiEncoding def
  currentdict
end
/Times-Bold exch definefont pop
%FOPEndFontReencode
%%EndProlog
%%Page: 1 1
%%PageBoundingBox: 0 0 765 251
%%BeginPageSetup
[1 0 0 -1 0 251] CT
%%EndPageSetup
GS
[0.75 0 0 0.75 0 -0.25] CT
N
0 0 M
1020 0 L
1020 335 L
0 335 L
0 0 L
cp
clip
1 GC
N
0 0 1020 335 re
f
GR
GS
[0.75 0 0 0.75 0 -0.25] CT
N
0 0 M
1020 0 L
1020 335 L
0 335 L
0 0 L
cp
clip
1 GC
N
0 0 1020 335 re
f
GR
GS
[0.75 0 0 0.75 0 -0.25] CT
1 GC
N
133 294 M
923 294 L
923 43 L
133 43 L
cp
f
GR
GS
[0.75 0 0 0.75 0 -0.25] CT
0.873 GC
2 setlinecap
10.0 ML
N
217.043 294 M
217.043 43 L
S
GR
GS
[0.75 0 0 0.75 0 -0.25] CT
0.873 GC
2 setlinecap
10.0 ML
N
385.128 294 M
385.128 43 L
S
GR
GS
[0.75 0 0 0.75 0 -0.25] CT
0.873 GC
2 setlinecap
10.0 ML
N
553.213 294 M
553.213 43 L
S
GR
GS
[0.75 0 0 0.75 0 -0.25] CT
0.873 GC
2 setlinecap
10.0 ML
N
721.298 294 M
721.298 43 L
S
GR
GS
[0.75 0 0 0.75 0 -0.25] CT
0.873 GC
2 setlinecap
10.0 ML
N
889.383 294 M
889.383 43 L
S
GR
GS
[0.75 0 0 0.75 0 -0.25] CT
0.873 GC
2 setlinecap
10.0 ML
N
923 294 M
133 294 L
S
GR
GS
[0.75 0 0 0.75 0 -0.25] CT
0.873 GC
2 setlinecap
10.0 ML
N
923 168.5 M
133 168.5 L
S
GR
GS
[0.75 0 0 0.75 0 -0.25] CT
0.873 GC
2 setlinecap
10.0 ML
N
923 43 M
133 43 L
S
GR
GS
[0.75 0 0 0.75 0 -0.25] CT
0.149 GC
2 setlinecap
10.0 ML
N
133 294 M
923 294 L
S
GR
GS
[0.75 0 0 0.75 0 -0.25] CT
0.149 GC
2 setlinecap
10.0 ML
N
133 43 M
923 43 L
S
GR
GS
[0.75 0 0 0.75 0 -0.25] CT
0.149 GC
2 setlinecap
10.0 ML
N
217.043 294 M
217.043 286.1 L
S
GR
GS
[0.75 0 0 0.75 0 -0.25] CT
0.149 GC
2 setlinecap
10.0 ML
N
217.043 43 M
217.043 50.9 L
S
GR
GS
[0.75 0 0 0.75 0 -0.25] CT
0.149 GC
2 setlinecap
10.0 ML
N
385.128 294 M
385.128 286.1 L
S
GR
GS
[0.75 0 0 0.75 0 -0.25] CT
0.149 GC
2 setlinecap
10.0 ML
N
385.128 43 M
385.128 50.9 L
S
GR
GS
[0.75 0 0 0.75 0 -0.25] CT
0.149 GC
2 setlinecap
10.0 ML
N
553.213 294 M
553.213 286.1 L
S
GR
GS
[0.75 0 0 0.75 0 -0.25] CT
0.149 GC
2 setlinecap
10.0 ML
N
553.213 43 M
553.213 50.9 L
S
GR
GS
[0.75 0 0 0.75 0 -0.25] CT
0.149 GC
2 setlinecap
10.0 ML
N
721.298 294 M
721.298 286.1 L
S
GR
GS
[0.75 0 0 0.75 0 -0.25] CT
0.149 GC
2 setlinecap
10.0 ML
N
721.298 43 M
721.298 50.9 L
S
GR
GS
[0.75 0 0 0.75 0 -0.25] CT
0.149 GC
2 setlinecap
10.0 ML
N
889.383 294 M
889.383 286.1 L
S
GR
GS
[0.75 0 0 0.75 0 -0.25] CT
0.149 GC
2 setlinecap
10.0 ML
N
889.383 43 M
889.383 50.9 L
S
GR
GS
[0.75 0 0 0.75 162.78192 226.25] CT
0.149 GC
/Helvetica 27 F
GS
[1 0 0 1 0 0] CT
-51.792 27.145 moveto 
1 -1 scale
(patient 1) t 
GR
GR
GS
[0.75 0 0 0.75 288.84574 226.25] CT
0.149 GC
/Helvetica 27 F
GS
[1 0 0 1 0 0] CT
-51.792 27.145 moveto 
1 -1 scale
(patient 2) t 
GR
GR
GS
[0.75 0 0 0.75 414.90958 226.25] CT
0.149 GC
/Helvetica 27 F
GS
[1 0 0 1 0 0] CT
-51.792 27.145 moveto 
1 -1 scale
(patient 3) t 
GR
GR
GS
[0.75 0 0 0.75 540.97339 226.25] CT
0.149 GC
/Helvetica 27 F
GS
[1 0 0 1 0 0] CT
-48.786 27.145 moveto 
1 -1 scale
(average) t 
GR
GR
GS
[0 -0.75 0.75 0 56.96375 126.125] CT
0.149 GC
/Helvetica 29 F
GS
[1 0 0 1 0 0] CT
-70.907 -6.321 moveto 
1 -1 scale
(AUC in [%]) t 
GR
GR
GS
[0.75 0 0 0.75 0 -0.25] CT
0.149 GC
2 setlinecap
10.0 ML
N
133 294 M
133 43 L
S
GR
GS
[0.75 0 0 0.75 0 -0.25] CT
0.149 GC
2 setlinecap
10.0 ML
N
923 294 M
923 43 L
S
GR
GS
[0.75 0 0 0.75 0 -0.25] CT
0.149 GC
2 setlinecap
10.0 ML
N
133 294 M
140.9 294 L
S
GR
GS
[0.75 0 0 0.75 0 -0.25] CT
0.149 GC
2 setlinecap
10.0 ML
N
923 294 M
915.1 294 L
S
GR
GS
[0.75 0 0 0.75 0 -0.25] CT
0.149 GC
2 setlinecap
10.0 ML
N
133 168.5 M
140.9 168.5 L
S
GR
GS
[0.75 0 0 0.75 0 -0.25] CT
0.149 GC
2 setlinecap
10.0 ML
N
923 168.5 M
915.1 168.5 L
S
GR
GS
[0.75 0 0 0.75 0 -0.25] CT
0.149 GC
2 setlinecap
10.0 ML
N
133 43 M
140.9 43 L
S
GR
GS
[0.75 0 0 0.75 0 -0.25] CT
0.149 GC
2 setlinecap
10.0 ML
N
923 43 M
915.1 43 L
S
GR
GS
[0.75 0 0 0.75 93.75 220.25] CT
0.149 GC
/Helvetica 27 F
GS
[1 0 0 1 0 0] CT
-15.016 10.665 moveto 
1 -1 scale
(0) t 
GR
GR
GS
[0.75 0 0 0.75 93.75 126.125] CT
0.149 GC
/Helvetica 27 F
GS
[1 0 0 1 0 0] CT
-30.032 10.665 moveto 
1 -1 scale
(50) t 
GR
GR
GS
[0.75 0 0 0.75 93.75 32] CT
0.149 GC
/Helvetica 27 F
GS
[1 0 0 1 0 0] CT
-45.048 10.665 moveto 
1 -1 scale
(100) t 
GR
GR
GS
[0.75 0 0 0.75 0 -0.25] CT
0.208 0.165 0.525 RC
N
154.98 294 M
154.98 110.218 L
175.668 110.218 L
175.668 294 L
cp
f
GR
GS
[0.75 0 0 0.75 0 -0.25] CT
0.208 0.165 0.525 RC
N
323.065 294 M
323.065 96.061 L
343.753 96.061 L
343.753 294 L
cp
f
GR
GS
[0.75 0 0 0.75 0 -0.25] CT
0.208 0.165 0.525 RC
N
491.151 294 M
491.151 91.895 L
511.838 91.895 L
511.838 294 L
cp
f
GR
GS
[0.75 0 0 0.75 0 -0.25] CT
0.208 0.165 0.525 RC
N
659.236 294 M
659.236 99.4 L
679.923 99.4 L
679.923 294 L
cp
f
GR
GS
[0.75 0 0 0.75 0 -0.25] CT
2 setlinecap
10.0 ML
N
154.98 294 M
154.98 110.218 L
175.668 110.218 L
175.668 294 L
154.98 294 L
S
GR
GS
[0.75 0 0 0.75 0 -0.25] CT
2 setlinecap
10.0 ML
N
323.065 294 M
323.065 96.061 L
343.753 96.061 L
343.753 294 L
323.065 294 L
S
GR
GS
[0.75 0 0 0.75 0 -0.25] CT
2 setlinecap
10.0 ML
N
491.151 294 M
491.151 91.895 L
511.838 91.895 L
511.838 294 L
491.151 294 L
S
GR
GS
[0.75 0 0 0.75 0 -0.25] CT
2 setlinecap
10.0 ML
N
659.236 294 M
659.236 99.4 L
679.923 99.4 L
679.923 294 L
659.236 294 L
S
GR
GS
[0.75 0 0 0.75 0 -0.25] CT
0.078 0.518 0.827 RC
N
180.84 294 M
180.84 119.806 L
201.527 119.806 L
201.527 294 L
cp
f
GR
GS
[0.75 0 0 0.75 0 -0.25] CT
0.078 0.518 0.827 RC
N
348.925 294 M
348.925 94.455 L
369.612 94.455 L
369.612 294 L
cp
f
GR
GS
[0.75 0 0 0.75 0 -0.25] CT
0.078 0.518 0.827 RC
N
517.01 294 M
517.01 87.302 L
537.697 87.302 L
537.697 294 L
cp
f
GR
GS
[0.75 0 0 0.75 0 -0.25] CT
0.078 0.518 0.827 RC
N
685.095 294 M
685.095 100.529 L
705.782 100.529 L
705.782 294 L
cp
f
GR
GS
[0.75 0 0 0.75 0 -0.25] CT
2 setlinecap
10.0 ML
N
180.84 294 M
180.84 119.806 L
201.527 119.806 L
201.527 294 L
180.84 294 L
S
GR
GS
[0.75 0 0 0.75 0 -0.25] CT
2 setlinecap
10.0 ML
N
348.925 294 M
348.925 94.455 L
369.612 94.455 L
369.612 294 L
348.925 294 L
S
GR
GS
[0.75 0 0 0.75 0 -0.25] CT
2 setlinecap
10.0 ML
N
517.01 294 M
517.01 87.302 L
537.697 87.302 L
537.697 294 L
517.01 294 L
S
GR
GS
[0.75 0 0 0.75 0 -0.25] CT
2 setlinecap
10.0 ML
N
685.095 294 M
685.095 100.529 L
705.782 100.529 L
705.782 294 L
685.095 294 L
S
GR
GS
[0.75 0 0 0.75 0 -0.25] CT
0.216 0.722 0.616 RC
N
206.699 294 M
206.699 104.495 L
227.386 104.495 L
227.386 294 L
cp
f
GR
GS
[0.75 0 0 0.75 0 -0.25] CT
0.216 0.722 0.616 RC
N
374.784 294 M
374.784 100.379 L
395.471 100.379 L
395.471 294 L
cp
f
GR
GS
[0.75 0 0 0.75 0 -0.25] CT
0.216 0.722 0.616 RC
N
542.869 294 M
542.869 101.583 L
563.556 101.583 L
563.556 294 L
cp
f
GR
GS
[0.75 0 0 0.75 0 -0.25] CT
0.216 0.722 0.616 RC
N
710.954 294 M
710.954 102.161 L
731.642 102.161 L
731.642 294 L
cp
f
GR
GS
[0.75 0 0 0.75 0 -0.25] CT
2 setlinecap
10.0 ML
N
206.699 294 M
206.699 104.495 L
227.386 104.495 L
227.386 294 L
206.699 294 L
S
GR
GS
[0.75 0 0 0.75 0 -0.25] CT
2 setlinecap
10.0 ML
N
374.784 294 M
374.784 100.379 L
395.471 100.379 L
395.471 294 L
374.784 294 L
S
GR
GS
[0.75 0 0 0.75 0 -0.25] CT
2 setlinecap
10.0 ML
N
542.869 294 M
542.869 101.583 L
563.556 101.583 L
563.556 294 L
542.869 294 L
S
GR
GS
[0.75 0 0 0.75 0 -0.25] CT
2 setlinecap
10.0 ML
N
710.954 294 M
710.954 102.161 L
731.642 102.161 L
731.642 294 L
710.954 294 L
S
GR
GS
[0.75 0 0 0.75 0 -0.25] CT
0.847 0.729 0.333 RC
N
232.558 294 M
232.558 168.5 L
253.245 168.5 L
253.245 294 L
cp
f
GR
GS
[0.75 0 0 0.75 0 -0.25] CT
0.847 0.729 0.333 RC
N
400.643 294 M
400.643 108.059 L
421.331 108.059 L
421.331 294 L
cp
f
GR
GS
[0.75 0 0 0.75 0 -0.25] CT
0.847 0.729 0.333 RC
N
568.728 294 M
568.728 86.498 L
589.416 86.498 L
589.416 294 L
cp
f
GR
GS
[0.75 0 0 0.75 0 -0.25] CT
0.847 0.729 0.333 RC
N
736.813 294 M
736.813 121.011 L
757.501 121.011 L
757.501 294 L
cp
f
GR
GS
[0.75 0 0 0.75 0 -0.25] CT
2 setlinecap
10.0 ML
N
232.558 294 M
232.558 168.5 L
253.245 168.5 L
253.245 294 L
232.558 294 L
S
GR
GS
[0.75 0 0 0.75 0 -0.25] CT
2 setlinecap
10.0 ML
N
400.643 294 M
400.643 108.059 L
421.331 108.059 L
421.331 294 L
400.643 294 L
S
GR
GS
[0.75 0 0 0.75 0 -0.25] CT
2 setlinecap
10.0 ML
N
568.728 294 M
568.728 86.498 L
589.416 86.498 L
589.416 294 L
568.728 294 L
S
GR
GS
[0.75 0 0 0.75 0 -0.25] CT
2 setlinecap
10.0 ML
N
736.813 294 M
736.813 121.011 L
757.501 121.011 L
757.501 294 L
736.813 294 L
S
GR
GS
[0.75 0 0 0.75 0 -0.25] CT
0.973 0.98 0.051 RC
N
258.417 294 M
258.417 99.701 L
279.105 99.701 L
279.105 294 L
cp
f
GR
GS
[0.75 0 0 0.75 0 -0.25] CT
0.973 0.98 0.051 RC
N
426.502 294 M
426.502 205.974 L
447.19 205.974 L
447.19 294 L
cp
f
GR
GS
[0.75 0 0 0.75 0 -0.25] CT
0.973 0.98 0.051 RC
N
594.588 294 M
594.588 155.021 L
615.275 155.021 L
615.275 294 L
cp
f
GR
GS
[0.75 0 0 0.75 0 -0.25] CT
0.973 0.98 0.051 RC
N
762.673 294 M
762.673 153.565 L
783.36 153.565 L
783.36 294 L
cp
f
GR
GS
[0.75 0 0 0.75 0 -0.25] CT
2 setlinecap
10.0 ML
N
258.417 294 M
258.417 99.701 L
279.105 99.701 L
279.105 294 L
258.417 294 L
S
GR
GS
[0.75 0 0 0.75 0 -0.25] CT
2 setlinecap
10.0 ML
N
426.502 294 M
426.502 205.974 L
447.19 205.974 L
447.19 294 L
426.502 294 L
S
GR
GS
[0.75 0 0 0.75 0 -0.25] CT
2 setlinecap
10.0 ML
N
594.588 294 M
594.588 155.021 L
615.275 155.021 L
615.275 294 L
594.588 294 L
S
GR
GS
[0.75 0 0 0.75 0 -0.25] CT
2 setlinecap
10.0 ML
N
762.673 294 M
762.673 153.565 L
783.36 153.565 L
783.36 294 L
762.673 294 L
S
GR
GS
[0.75 0 0 0.75 396 26.5] CT
/Helvetica-Bold 29 F
GS
[1 0 0 1 0 0] CT
-157.114 -6.321 moveto 
1 -1 scale
(Same-Subject Training) t 
GR
GR
GS
[0.75 0 0 0.75 0 -0.25] CT
0.149 GC
2 setlinecap
10.0 ML
N
133 294 M
923 294 L
S
GR
GS
[0.75 0 0 0.75 0 -0.25] CT
1 GC
N
790 202 M
790 48 L
918 48 L
918 202 L
cp
f
GR
GS
[0.75 0 0 0.75 631.69016 48.70056] CT
/Helvetica 24 F
GS
[1 0 0 1 0 0] CT
0 9.535 moveto 
1 -1 scale
(N = 1) t 
GR
GR
GS
[0.75 0 0 0.75 0 -0.25] CT
0.208 0.165 0.525 RC
N
798.039 76.614 M
798.039 53.921 L
838.234 53.921 L
838.234 76.614 L
cp
f
GR
GS
[0.75 0 0 0.75 0 -0.25] CT
2 setlinecap
10.0 ML
N
798.039 76.614 M
798.039 53.921 L
838.234 53.921 L
838.234 76.614 L
798.039 76.614 L
S
GR
GS
[0.75 0 0 0.75 631.69016 71.10028] CT
/Helvetica 24 F
GS
[1 0 0 1 0 0] CT
0 9.535 moveto 
1 -1 scale
(N = 2) t 
GR
GR
GS
[0.75 0 0 0.75 0 -0.25] CT
0.078 0.518 0.827 RC
N
798.039 106.48 M
798.039 83.787 L
838.234 83.787 L
838.234 106.48 L
cp
f
GR
GS
[0.75 0 0 0.75 0 -0.25] CT
2 setlinecap
10.0 ML
N
798.039 106.48 M
798.039 83.787 L
838.234 83.787 L
838.234 106.48 L
798.039 106.48 L
S
GR
GS
[0.75 0 0 0.75 631.69016 93.5] CT
/Helvetica 24 F
GS
[1 0 0 1 0 0] CT
0 9.535 moveto 
1 -1 scale
(N = 5) t 
GR
GR
GS
[0.75 0 0 0.75 0 -0.25] CT
0.216 0.722 0.616 RC
N
798.039 136.346 M
798.039 113.654 L
838.234 113.654 L
838.234 136.346 L
cp
f
GR
GS
[0.75 0 0 0.75 0 -0.25] CT
2 setlinecap
10.0 ML
N
798.039 136.346 M
798.039 113.654 L
838.234 113.654 L
838.234 136.346 L
798.039 136.346 L
S
GR
GS
[0.75 0 0 0.75 631.69016 115.89972] CT
/Helvetica 24 F
GS
[1 0 0 1 0 0] CT
0 9.535 moveto 
1 -1 scale
(N = 10) t 
GR
GR
GS
[0.75 0 0 0.75 0 -0.25] CT
0.847 0.729 0.333 RC
N
798.039 166.213 M
798.039 143.52 L
838.234 143.52 L
838.234 166.213 L
cp
f
GR
GS
[0.75 0 0 0.75 0 -0.25] CT
2 setlinecap
10.0 ML
N
798.039 166.213 M
798.039 143.52 L
838.234 143.52 L
838.234 166.213 L
798.039 166.213 L
S
GR
GS
[0.75 0 0 0.75 631.69016 138.29943] CT
/Helvetica 24 F
GS
[1 0 0 1 0 0] CT
0 9.535 moveto 
1 -1 scale
([11]) t 
GR
GR
GS
[0.75 0 0 0.75 0 -0.25] CT
0.973 0.98 0.051 RC
N
798.039 196.079 M
798.039 173.386 L
838.234 173.386 L
838.234 196.079 L
cp
f
GR
GS
[0.75 0 0 0.75 0 -0.25] CT
2 setlinecap
10.0 ML
N
798.039 196.079 M
798.039 173.386 L
838.234 173.386 L
838.234 196.079 L
798.039 196.079 L
S
GR
GS
[0.75 0 0 0.75 0 -0.25] CT
0.149 GC
2 setlinecap
10.0 ML
N
790 202 M
790 48 L
918 48 L
918 202 L
790 202 L
S
GR
%%Trailer
%%Pages: 1
%%EOF
