%!PS-Adobe-3.0 EPSF-3.0 
%%BoundingBox: 0 0 482 448
%%Pages: 0
%%Creator: LibreOffice 4.2
%%Title: none
%%CreationDate: none
%%LanguageLevel: 2
%%EndComments
%%BeginProlog
%%BeginResource: procset SDRes-Prolog 1.0 0
/b4_inc_state save def
/dict_count countdictstack def
/op_count count 1 sub def
userdict begin
0 setgray 0 setlinecap 1 setlinewidth 0 setlinejoin 10 setmiterlimit[] 0 setdash newpath
/languagelevel where {pop languagelevel 1 ne {false setstrokeadjust false setoverprint} if} if
/bdef {bind def} bind def
/c {setrgbcolor} bdef
/l {neg lineto} bdef
/rl {neg rlineto} bdef
/lc {setlinecap} bdef
/lj {setlinejoin} bdef
/lw {setlinewidth} bdef
/ml {setmiterlimit} bdef
/ld {setdash} bdef
/m {neg moveto} bdef
/ct {6 2 roll neg 6 2 roll neg 6 2 roll neg curveto} bdef
/r {rotate} bdef
/t {neg translate} bdef
/s {scale} bdef
/sw {show} bdef
/gs {gsave} bdef
/gr {grestore} bdef
/f {findfont dup length dict begin
{1 index /FID ne {def} {pop pop} ifelse} forall /Encoding ISOLatin1Encoding def
currentdict end /NFont exch definefont pop /NFont findfont} bdef
/p {closepath} bdef
/sf {scalefont setfont} bdef
/ef {eofill}bdef
/pc {closepath stroke}bdef
/ps {stroke}bdef
/pum {matrix currentmatrix}bdef
/pom {setmatrix}bdef
/bs {/aString exch def /nXOfs exch def /nWidth exch def currentpoint nXOfs 0 rmoveto pum nWidth aString stringwidth pop div 1 scale aString show pom moveto} bdef
%%EndResource
%%EndProlog
%%BeginSetup
%%EndSetup
%%Page: 1 1
%%BeginPageSetup
%%EndPageSetup
pum
0.02835 0.02835 s 
0 -15800 t
/tm matrix currentmatrix def
gs
tm setmatrix
-1133 -1145 t 
1 1 s 
1133 1145 m 18132 1145 l 18132 16944 l 1133 16944 l 1133 1145 l eoclip newpath
gs
0 0 m 16999 0 l 16999 15799 l 0 15799 l 0 0 l eoclip newpath
gs
170 9380 m 19097 9380 l 19097 16537 l 170 16537 l 170 9380 l eoclip newpath
gs
170 9391 m 19097 9391 l 19097 16527 l 170 16527 l 170 9391 l eoclip newpath
1.000 1.000 1.000 c 10143 16527 m  -612 16527 l  -612 9391 l  20899 9391 l 
20899 16527 l  10143 16527 l  p ef
gr
gs
170 9391 m 19097 9391 l 19097 16527 l 170 16527 l 170 9391 l eoclip newpath
1.000 1.000 1.000 c 10143 16527 m  -612 16527 l  -612 9391 l  20899 9391 l 
20899 16527 l  10143 16527 l  p ef
gr
1.000 1.000 1.000 c 2193 15653 m  18853 15653 l  18853 10307 l  2193 10307 l 
2193 15653 l  p ef
21.42557 lw 2 lc 164.14768 ml 0.152 0.152 0.152 c 3965 15653 m  3965 10306 l 
ps
21.3524 lw 163.58713 ml 7510 15653 m  7510 10306 l  ps
11054 15653 m  11054 10306 l  ps
21.42557 lw 164.14768 ml 14599 15653 m  14599 10306 l  ps
21.31552 lw 163.30456 ml 18852 15653 m  2192 15653 l  ps
20.82544 lw 159.54993 ml 18852 12980 m  2192 12980 l  ps
21.24273 lw 162.74689 ml 18852 10306 m  2192 10306 l  ps
21.19625 lw 162.39081 ml 2193 15653 m  18853 15653 l  ps
2193 10306 m  18853 10306 l  ps
3965 15653 m  3965 15485 l  ps
3965 10306 m  3965 10474 l  ps
7510 15653 m  7510 15485 l  ps
7510 10306 m  7510 10474 l  ps
11054 15653 m  11054 15485 l  ps
11054 10306 m  11054 10474 l  ps
14599 15653 m  14599 15485 l  ps
14599 10306 m  14599 10474 l  ps
pum
2873 16402 t
296 -153 m  296 -47 259 6 184 6 ct 137 6 106 -12 90 -47 ct 88 -47 l  89 -45 89 -29 89 1 ct 
89 119 l  39 119 l  39 -242 l  39 -273 38 -294 37 -304 ct 86 -304 l  86 -303 86 -301 87 -296 ct 
87 -291 88 -284 88 -275 ct 89 -265 89 -258 89 -255 ct 90 -255 l  99 -273 111 -287 126 -296 ct 
140 -305 160 -309 184 -309 ct 221 -309 249 -296 268 -271 ct 287 -246 296 -207 296 -153 ct 
p
243 -152 m  243 -194 237 -224 226 -243 ct 214 -261 196 -270 171 -270 ct 151 -270 135 -266 124 -257 ct 
113 -249 104 -236 98 -218 ct 92 -200 89 -177 89 -148 ct 89 -108 96 -78 108 -59 ct 
121 -40 142 -31 171 -31 ct 196 -31 214 -40 225 -59 ct 237 -77 243 -108 243 -152 ct 
p ef
436 6 m  406 6 383 -2 367 -18 ct 352 -34 344 -56 344 -84 ct 344 -116 355 -140 375 -157 ct 
396 -174 430 -183 476 -184 ct 544 -185 l  544 -202 l  544 -226 539 -244 528 -255 ct 
518 -266 501 -271 479 -271 ct 456 -271 440 -267 429 -259 ct 419 -252 413 -239 411 -222 ct 
358 -227 l  367 -282 407 -309 480 -309 ct 518 -309 547 -300 566 -283 ct 585 -265 595 -240 595 -207 ct 
595 -76 l  595 -61 597 -50 601 -42 ct 605 -35 612 -31 623 -31 ct 628 -31 634 -32 640 -33 ct 
640 -2 l  627 1 614 3 601 3 ct 582 3 569 -2 560 -12 ct 552 -21 547 -37 546 -58 ct 
544 -58 l  531 -35 516 -18 499 -8 ct 482 1 461 6 436 6 ct p
448 -32 m  466 -32 483 -36 497 -45 ct 512 -53 523 -65 531 -79 ct 540 -94 544 -109 544 -125 ct 
544 -150 l  489 -149 l  465 -149 447 -146 434 -142 ct 422 -137 413 -130 406 -121 ct 
400 -111 396 -99 396 -84 ct 396 -67 401 -55 410 -46 ct 419 -37 431 -32 448 -32 ct 
p ef
796 -2 m  779 3 762 5 745 5 ct 704 5 684 -18 684 -64 ct 684 -267 l  649 -267 l 
649 -304 l  686 -304 l  701 -372 l  734 -372 l  734 -304 l  791 -304 l 
791 -267 l  734 -267 l  734 -75 l  734 -60 737 -50 742 -44 ct 746 -38 755 -35 767 -35 ct 
773 -35 783 -36 796 -39 ct 796 -2 l  p ef
839 -369 m  839 -417 l  889 -417 l  889 -369 l  839 -369 l  p
839 0 m  839 -304 l  889 -304 l  889 0 l  839 0 l  p ef
1006 -141 m  1006 -106 1013 -79 1027 -60 ct 1042 -41 1063 -32 1090 -32 ct 1112 -32 1130 -36 1143 -45 ct 
1156 -54 1165 -65 1170 -79 ct 1214 -66 l  1196 -18 1155 6 1090 6 ct 1045 6 1011 -7 988 -34 ct 
964 -61 952 -101 952 -153 ct 952 -204 964 -242 988 -269 ct 1011 -296 1045 -309 1088 -309 ct 
1178 -309 1222 -255 1222 -148 ct 1222 -141 l  1006 -141 l  p
1170 -180 m  1167 -212 1159 -235 1146 -250 ct 1132 -265 1113 -272 1088 -272 ct 
1063 -272 1044 -264 1029 -247 ct 1015 -231 1007 -209 1006 -180 ct 1170 -180 l 
p ef
1480 0 m  1480 -192 l  1480 -212 1478 -228 1474 -239 ct 1470 -250 1464 -258 1455 -263 ct 
1446 -268 1434 -270 1417 -270 ct 1393 -270 1374 -262 1360 -245 ct 1345 -228 1338 -205 1338 -176 ct 
1338 0 l  1288 0 l  1288 -239 l  1288 -275 1287 -296 1286 -304 ct 1334 -304 l 
1334 -303 1334 -300 1334 -296 ct 1335 -292 1335 -287 1335 -282 ct 1335 -277 1336 -266 1336 -252 ct 
1337 -252 l  1349 -272 1362 -287 1377 -296 ct 1393 -305 1412 -309 1434 -309 ct 
1468 -309 1492 -301 1507 -284 ct 1523 -268 1531 -240 1531 -202 ct 1531 0 l  1480 0 l 
p ef
1724 -2 m  1707 3 1690 5 1673 5 ct 1632 5 1612 -18 1612 -64 ct 1612 -267 l  1577 -267 l 
1577 -304 l  1614 -304 l  1629 -372 l  1662 -372 l  1662 -304 l  1719 -304 l 
1719 -267 l  1662 -267 l  1662 -75 l  1662 -60 1665 -50 1670 -44 ct 1674 -38 1683 -35 1695 -35 ct 
1701 -35 1711 -36 1724 -39 ct 1724 -2 l  p ef
1932 0 m  1932 -43 l  2033 -43 l  2033 -348 l  1943 -284 l  1943 -332 l 
2037 -396 l  2084 -396 l  2084 -43 l  2180 -43 l  2180 0 l  1932 0 l  p ef
pom
pum
6418 16402 t
296 -153 m  296 -47 259 6 184 6 ct 137 6 106 -12 90 -47 ct 88 -47 l  89 -45 89 -29 89 1 ct 
89 119 l  39 119 l  39 -242 l  39 -273 38 -294 37 -304 ct 86 -304 l  86 -303 86 -301 87 -296 ct 
87 -291 88 -284 88 -275 ct 89 -265 89 -258 89 -255 ct 90 -255 l  99 -273 111 -287 126 -296 ct 
140 -305 160 -309 184 -309 ct 221 -309 249 -296 268 -271 ct 287 -246 296 -207 296 -153 ct 
p
243 -152 m  243 -194 237 -224 226 -243 ct 214 -261 196 -270 171 -270 ct 151 -270 135 -266 124 -257 ct 
113 -249 104 -236 98 -218 ct 92 -200 89 -177 89 -148 ct 89 -108 96 -78 108 -59 ct 
121 -40 142 -31 171 -31 ct 196 -31 214 -40 225 -59 ct 237 -77 243 -108 243 -152 ct 
p ef
436 6 m  406 6 383 -2 367 -18 ct 352 -34 344 -56 344 -84 ct 344 -116 355 -140 375 -157 ct 
396 -174 430 -183 476 -184 ct 544 -185 l  544 -202 l  544 -226 539 -244 528 -255 ct 
518 -266 501 -271 479 -271 ct 456 -271 440 -267 429 -259 ct 419 -252 413 -239 411 -222 ct 
358 -227 l  367 -282 407 -309 480 -309 ct 518 -309 547 -300 566 -283 ct 585 -265 595 -240 595 -207 ct 
595 -76 l  595 -61 597 -50 601 -42 ct 605 -35 612 -31 623 -31 ct 628 -31 634 -32 640 -33 ct 
640 -2 l  627 1 614 3 601 3 ct 582 3 569 -2 560 -12 ct 552 -21 547 -37 546 -58 ct 
544 -58 l  531 -35 516 -18 499 -8 ct 482 1 461 6 436 6 ct p
448 -32 m  466 -32 483 -36 497 -45 ct 512 -53 523 -65 531 -79 ct 540 -94 544 -109 544 -125 ct 
544 -150 l  489 -149 l  465 -149 447 -146 434 -142 ct 422 -137 413 -130 406 -121 ct 
400 -111 396 -99 396 -84 ct 396 -67 401 -55 410 -46 ct 419 -37 431 -32 448 -32 ct 
p ef
796 -2 m  779 3 762 5 745 5 ct 704 5 684 -18 684 -64 ct 684 -267 l  649 -267 l 
649 -304 l  686 -304 l  701 -372 l  734 -372 l  734 -304 l  791 -304 l 
791 -267 l  734 -267 l  734 -75 l  734 -60 737 -50 742 -44 ct 746 -38 755 -35 767 -35 ct 
773 -35 783 -36 796 -39 ct 796 -2 l  p ef
839 -369 m  839 -417 l  889 -417 l  889 -369 l  839 -369 l  p
839 0 m  839 -304 l  889 -304 l  889 0 l  839 0 l  p ef
1006 -141 m  1006 -106 1013 -79 1027 -60 ct 1042 -41 1063 -32 1090 -32 ct 1112 -32 1130 -36 1143 -45 ct 
1156 -54 1165 -65 1170 -79 ct 1214 -66 l  1196 -18 1155 6 1090 6 ct 1045 6 1011 -7 988 -34 ct 
964 -61 952 -101 952 -153 ct 952 -204 964 -242 988 -269 ct 1011 -296 1045 -309 1088 -309 ct 
1178 -309 1222 -255 1222 -148 ct 1222 -141 l  1006 -141 l  p
1170 -180 m  1167 -212 1159 -235 1146 -250 ct 1132 -265 1113 -272 1088 -272 ct 
1063 -272 1044 -264 1029 -247 ct 1015 -231 1007 -209 1006 -180 ct 1170 -180 l 
p ef
1480 0 m  1480 -192 l  1480 -212 1478 -228 1474 -239 ct 1470 -250 1464 -258 1455 -263 ct 
1446 -268 1434 -270 1417 -270 ct 1393 -270 1374 -262 1360 -245 ct 1345 -228 1338 -205 1338 -176 ct 
1338 0 l  1288 0 l  1288 -239 l  1288 -275 1287 -296 1286 -304 ct 1334 -304 l 
1334 -303 1334 -300 1334 -296 ct 1335 -292 1335 -287 1335 -282 ct 1335 -277 1336 -266 1336 -252 ct 
1337 -252 l  1349 -272 1362 -287 1377 -296 ct 1393 -305 1412 -309 1434 -309 ct 
1468 -309 1492 -301 1507 -284 ct 1523 -268 1531 -240 1531 -202 ct 1531 0 l  1480 0 l 
p ef
1724 -2 m  1707 3 1690 5 1673 5 ct 1632 5 1612 -18 1612 -64 ct 1612 -267 l  1577 -267 l 
1577 -304 l  1614 -304 l  1629 -372 l  1662 -372 l  1662 -304 l  1719 -304 l 
1719 -267 l  1662 -267 l  1662 -75 l  1662 -60 1665 -50 1670 -44 ct 1674 -38 1683 -35 1695 -35 ct 
1701 -35 1711 -36 1724 -39 ct 1724 -2 l  p ef
1917 0 m  1917 -36 l  1926 -58 1938 -77 1952 -94 ct 1966 -110 1980 -125 1995 -139 ct 
2011 -153 2026 -165 2040 -177 ct 2055 -188 2069 -200 2081 -211 ct 2093 -223 2102 -235 2110 -248 ct 
2117 -261 2121 -275 2121 -291 ct 2121 -313 2115 -329 2102 -341 ct 2089 -353 2071 -359 2049 -359 ct 
2027 -359 2009 -353 1995 -342 ct 1981 -330 1973 -314 1971 -293 ct 1919 -297 l 
1923 -329 1936 -354 1960 -373 ct 1983 -392 2012 -401 2049 -401 ct 2089 -401 2119 -392 2141 -373 ct 
2162 -354 2173 -327 2173 -293 ct 2173 -277 2169 -262 2162 -247 ct 2155 -232 2145 -217 2131 -202 ct 
2117 -187 2091 -163 2051 -131 ct 2030 -114 2013 -98 2000 -84 ct 1987 -70 1978 -56 1973 -43 ct 
2179 -43 l  2179 0 l  1917 0 l  p ef
pom
pum
9963 16402 t
296 -153 m  296 -47 259 6 184 6 ct 137 6 106 -12 90 -47 ct 88 -47 l  89 -45 89 -29 89 1 ct 
89 119 l  39 119 l  39 -242 l  39 -273 38 -294 37 -304 ct 86 -304 l  86 -303 86 -301 87 -296 ct 
87 -291 88 -284 88 -275 ct 89 -265 89 -258 89 -255 ct 90 -255 l  99 -273 111 -287 126 -296 ct 
140 -305 160 -309 184 -309 ct 221 -309 249 -296 268 -271 ct 287 -246 296 -207 296 -153 ct 
p
243 -152 m  243 -194 237 -224 226 -243 ct 214 -261 196 -270 171 -270 ct 151 -270 135 -266 124 -257 ct 
113 -249 104 -236 98 -218 ct 92 -200 89 -177 89 -148 ct 89 -108 96 -78 108 -59 ct 
121 -40 142 -31 171 -31 ct 196 -31 214 -40 225 -59 ct 237 -77 243 -108 243 -152 ct 
p ef
436 6 m  406 6 383 -2 367 -18 ct 352 -34 344 -56 344 -84 ct 344 -116 355 -140 375 -157 ct 
396 -174 430 -183 476 -184 ct 544 -185 l  544 -202 l  544 -226 539 -244 528 -255 ct 
518 -266 501 -271 479 -271 ct 456 -271 440 -267 429 -259 ct 419 -252 413 -239 411 -222 ct 
358 -227 l  367 -282 407 -309 480 -309 ct 518 -309 547 -300 566 -283 ct 585 -265 595 -240 595 -207 ct 
595 -76 l  595 -61 597 -50 601 -42 ct 605 -35 612 -31 623 -31 ct 628 -31 634 -32 640 -33 ct 
640 -2 l  627 1 614 3 601 3 ct 582 3 569 -2 560 -12 ct 552 -21 547 -37 546 -58 ct 
544 -58 l  531 -35 516 -18 499 -8 ct 482 1 461 6 436 6 ct p
448 -32 m  466 -32 483 -36 497 -45 ct 512 -53 523 -65 531 -79 ct 540 -94 544 -109 544 -125 ct 
544 -150 l  489 -149 l  465 -149 447 -146 434 -142 ct 422 -137 413 -130 406 -121 ct 
400 -111 396 -99 396 -84 ct 396 -67 401 -55 410 -46 ct 419 -37 431 -32 448 -32 ct 
p ef
796 -2 m  779 3 762 5 745 5 ct 704 5 684 -18 684 -64 ct 684 -267 l  649 -267 l 
649 -304 l  686 -304 l  701 -372 l  734 -372 l  734 -304 l  791 -304 l 
791 -267 l  734 -267 l  734 -75 l  734 -60 737 -50 742 -44 ct 746 -38 755 -35 767 -35 ct 
773 -35 783 -36 796 -39 ct 796 -2 l  p ef
839 -369 m  839 -417 l  889 -417 l  889 -369 l  839 -369 l  p
839 0 m  839 -304 l  889 -304 l  889 0 l  839 0 l  p ef
1006 -141 m  1006 -106 1013 -79 1027 -60 ct 1042 -41 1063 -32 1090 -32 ct 1112 -32 1130 -36 1143 -45 ct 
1156 -54 1165 -65 1170 -79 ct 1214 -66 l  1196 -18 1155 6 1090 6 ct 1045 6 1011 -7 988 -34 ct 
964 -61 952 -101 952 -153 ct 952 -204 964 -242 988 -269 ct 1011 -296 1045 -309 1088 -309 ct 
1178 -309 1222 -255 1222 -148 ct 1222 -141 l  1006 -141 l  p
1170 -180 m  1167 -212 1159 -235 1146 -250 ct 1132 -265 1113 -272 1088 -272 ct 
1063 -272 1044 -264 1029 -247 ct 1015 -231 1007 -209 1006 -180 ct 1170 -180 l 
p ef
1480 0 m  1480 -192 l  1480 -212 1478 -228 1474 -239 ct 1470 -250 1464 -258 1455 -263 ct 
1446 -268 1434 -270 1417 -270 ct 1393 -270 1374 -262 1360 -245 ct 1345 -228 1338 -205 1338 -176 ct 
1338 0 l  1288 0 l  1288 -239 l  1288 -275 1287 -296 1286 -304 ct 1334 -304 l 
1334 -303 1334 -300 1334 -296 ct 1335 -292 1335 -287 1335 -282 ct 1335 -277 1336 -266 1336 -252 ct 
1337 -252 l  1349 -272 1362 -287 1377 -296 ct 1393 -305 1412 -309 1434 -309 ct 
1468 -309 1492 -301 1507 -284 ct 1523 -268 1531 -240 1531 -202 ct 1531 0 l  1480 0 l 
p ef
1724 -2 m  1707 3 1690 5 1673 5 ct 1632 5 1612 -18 1612 -64 ct 1612 -267 l  1577 -267 l 
1577 -304 l  1614 -304 l  1629 -372 l  1662 -372 l  1662 -304 l  1719 -304 l 
1719 -267 l  1662 -267 l  1662 -75 l  1662 -60 1665 -50 1670 -44 ct 1674 -38 1683 -35 1695 -35 ct 
1701 -35 1711 -36 1724 -39 ct 1724 -2 l  p ef
2183 -109 m  2183 -72 2171 -44 2148 -24 ct 2125 -4 2092 6 2048 6 ct 2008 6 1976 -3 1952 -21 ct 
1929 -39 1914 -66 1910 -101 ct 1962 -106 l  1969 -59 1998 -36 2048 -36 ct 2074 -36 2094 -42 2108 -55 ct 
2123 -67 2130 -86 2130 -111 ct 2130 -132 2122 -149 2105 -161 ct 2089 -173 2065 -179 2034 -179 ct 
2005 -179 l  2005 -223 l  2032 -223 l  2060 -223 2082 -229 2097 -241 ct 2112 -253 2120 -270 2120 -291 ct 
2120 -312 2114 -329 2101 -341 ct 2089 -353 2070 -359 2046 -359 ct 2023 -359 2005 -353 1992 -342 ct 
1978 -331 1970 -315 1967 -294 ct 1917 -298 l  1920 -330 1934 -356 1957 -374 ct 
1980 -392 2010 -401 2046 -401 ct 2086 -401 2117 -392 2139 -373 ct 2161 -355 2172 -329 2172 -296 ct 
2172 -271 2165 -251 2151 -235 ct 2136 -219 2116 -208 2089 -203 ct 2089 -202 l 
2118 -198 2142 -188 2158 -172 ct 2174 -155 2183 -134 2183 -109 ct p ef
pom
pum
13571 16402 t
116 6 m  86 6 63 -2 47 -18 ct 32 -34 24 -56 24 -84 ct 24 -116 35 -140 55 -157 ct 
76 -174 110 -183 156 -184 ct 224 -185 l  224 -202 l  224 -226 219 -244 208 -255 ct 
198 -266 181 -271 159 -271 ct 136 -271 120 -267 109 -259 ct 99 -252 93 -239 91 -222 ct 
38 -227 l  47 -282 87 -309 160 -309 ct 198 -309 227 -300 246 -283 ct 265 -265 275 -240 275 -207 ct 
275 -76 l  275 -61 277 -50 281 -42 ct 285 -35 292 -31 303 -31 ct 308 -31 314 -32 320 -33 ct 
320 -2 l  307 1 294 3 281 3 ct 262 3 249 -2 240 -12 ct 232 -21 227 -37 226 -58 ct 
224 -58 l  211 -35 196 -18 179 -8 ct 162 1 141 6 116 6 ct p
128 -32 m  146 -32 163 -36 177 -45 ct 192 -53 203 -65 211 -79 ct 220 -94 224 -109 224 -125 ct 
224 -150 l  169 -149 l  145 -149 127 -146 114 -142 ct 102 -137 93 -130 86 -121 ct 
80 -111 76 -99 76 -84 ct 76 -67 81 -55 90 -46 ct 99 -37 111 -32 128 -32 ct p ef
492 0 m  433 0 l  322 -304 l  376 -304 l  443 -106 l  445 -99 452 -77 462 -40 ct 
472 -72 l  483 -106 l  552 -304 l  606 -304 l  492 0 l  p ef
686 -141 m  686 -106 693 -79 707 -60 ct 722 -41 743 -32 770 -32 ct 792 -32 810 -36 823 -45 ct 
836 -54 845 -65 850 -79 ct 894 -66 l  876 -18 835 6 770 6 ct 725 6 691 -7 668 -34 ct 
644 -61 632 -101 632 -153 ct 632 -204 644 -242 668 -269 ct 691 -296 725 -309 768 -309 ct 
858 -309 902 -255 902 -148 ct 902 -141 l  686 -141 l  p
850 -180 m  847 -212 839 -235 826 -250 ct 812 -265 793 -272 768 -272 ct 743 -272 724 -264 709 -247 ct 
695 -231 687 -209 686 -180 ct 850 -180 l  p ef
968 0 m  968 -233 l  968 -255 967 -278 966 -304 ct 1014 -304 l  1015 -269 1016 -248 1016 -241 ct 
1017 -241 l  1025 -267 1034 -285 1045 -295 ct 1055 -304 1070 -309 1089 -309 ct 
1096 -309 1103 -308 1109 -306 ct 1109 -260 l  1103 -262 1094 -263 1083 -263 ct 
1062 -263 1046 -254 1035 -236 ct 1024 -218 1018 -192 1018 -158 ct 1018 0 l  968 0 l 
p ef
1235 6 m  1205 6 1182 -2 1166 -18 ct 1151 -34 1143 -56 1143 -84 ct 1143 -116 1154 -140 1174 -157 ct 
1195 -174 1229 -183 1275 -184 ct 1343 -185 l  1343 -202 l  1343 -226 1338 -244 1327 -255 ct 
1317 -266 1300 -271 1278 -271 ct 1255 -271 1239 -267 1228 -259 ct 1218 -252 1212 -239 1210 -222 ct 
1157 -227 l  1166 -282 1206 -309 1279 -309 ct 1317 -309 1346 -300 1365 -283 ct 
1384 -265 1394 -240 1394 -207 ct 1394 -76 l  1394 -61 1396 -50 1400 -42 ct 1404 -35 1411 -31 1422 -31 ct 
1427 -31 1433 -32 1439 -33 ct 1439 -2 l  1426 1 1413 3 1400 3 ct 1381 3 1368 -2 1359 -12 ct 
1351 -21 1346 -37 1345 -58 ct 1343 -58 l  1330 -35 1315 -18 1298 -8 ct 1281 1 1260 6 1235 6 ct 
p
1247 -32 m  1265 -32 1282 -36 1296 -45 ct 1311 -53 1322 -65 1330 -79 ct 1339 -94 1343 -109 1343 -125 ct 
1343 -150 l  1288 -149 l  1264 -149 1246 -146 1233 -142 ct 1221 -137 1212 -130 1205 -121 ct 
1199 -111 1195 -99 1195 -84 ct 1195 -67 1200 -55 1209 -46 ct 1218 -37 1230 -32 1247 -32 ct 
p ef
1593 119 m  1560 119 1533 112 1514 99 ct 1494 86 1481 68 1476 44 ct 1527 37 l 
1530 51 1537 62 1549 70 ct 1560 77 1576 81 1594 81 ct 1645 81 1670 51 1670 -8 ct 
1670 -57 l  1669 -57 l  1660 -37 1647 -23 1630 -13 ct 1613 -3 1594 2 1572 2 ct 
1534 2 1507 -10 1489 -35 ct 1472 -60 1463 -99 1463 -152 ct 1463 -205 1473 -245 1491 -271 ct 
1510 -296 1539 -309 1577 -309 ct 1599 -309 1617 -304 1633 -294 ct 1649 -284 1661 -270 1670 -252 ct 
1671 -252 l  1671 -258 1671 -268 1672 -281 ct 1672 -295 1673 -303 1674 -304 ct 
1722 -304 l  1721 -294 1720 -273 1720 -241 ct 1720 -9 l  1720 76 1678 119 1593 119 ct 
p
1670 -152 m  1670 -177 1667 -198 1660 -216 ct 1653 -234 1644 -247 1631 -257 ct 
1619 -266 1605 -271 1590 -271 ct 1564 -271 1545 -262 1533 -243 ct 1521 -224 1515 -194 1515 -152 ct 
1515 -110 1521 -80 1532 -62 ct 1543 -44 1562 -35 1589 -35 ct 1605 -35 1619 -40 1631 -49 ct 
1644 -58 1653 -72 1660 -89 ct 1667 -107 1670 -128 1670 -152 ct p ef
1837 -141 m  1837 -106 1844 -79 1858 -60 ct 1873 -41 1894 -32 1921 -32 ct 1943 -32 1961 -36 1974 -45 ct 
1987 -54 1996 -65 2001 -79 ct 2045 -66 l  2027 -18 1986 6 1921 6 ct 1876 6 1842 -7 1819 -34 ct 
1795 -61 1783 -101 1783 -153 ct 1783 -204 1795 -242 1819 -269 ct 1842 -296 1876 -309 1919 -309 ct 
2009 -309 2053 -255 2053 -148 ct 2053 -141 l  1837 -141 l  p
2001 -180 m  1998 -212 1990 -235 1977 -250 ct 1963 -265 1944 -272 1919 -272 ct 
1894 -272 1875 -264 1860 -247 ct 1846 -231 1838 -209 1837 -180 ct 2001 -180 l 
p ef
pom
pum
857 14490 t
90.0 r 352 0 m  303 -124 l  110 -124 l  61 0 l  1 0 l  175 -425 l  240 -425 l 
411 0 l  352 0 l  p
207 -382 m  204 -373 l  199 -356 191 -335 182 -309 ct 127 -169 l  286 -169 l 
232 -309 l  226 -323 220 -339 215 -356 ct 207 -382 l  p ef
632 6 m  598 6 567 0 541 -13 ct 515 -26 495 -44 481 -68 ct 467 -92 460 -121 460 -154 ct 
460 -425 l  517 -425 l  517 -159 l  517 -121 527 -91 547 -71 ct 567 -51 595 -41 632 -41 ct 
670 -41 700 -51 721 -72 ct 742 -93 753 -123 753 -163 ct 753 -425 l  810 -425 l 
810 -160 l  810 -126 803 -96 788 -71 ct 774 -46 753 -27 727 -14 ct 700 -1 669 6 632 6 ct 
p ef
1097 -385 m  1050 -385 1013 -370 987 -339 ct 961 -309 948 -268 948 -215 ct 948 -162 962 -120 989 -89 ct 
1016 -57 1053 -41 1099 -41 ct 1159 -41 1203 -71 1233 -130 ct 1280 -106 l  1263 -70 1238 -42 1207 -23 ct 
1175 -4 1138 6 1097 6 ct 1054 6 1017 -3 985 -21 ct 954 -39 930 -64 914 -97 ct 898 -130 889 -170 889 -215 ct 
889 -283 908 -336 944 -374 ct 981 -413 1031 -432 1096 -432 ct 1141 -432 1179 -423 1210 -406 ct 
1240 -388 1262 -362 1277 -327 ct 1222 -309 l  1212 -334 1196 -352 1174 -365 ct 
1153 -378 1127 -385 1097 -385 ct p ef
1517 -396 m  1517 -448 l  1572 -448 l  1572 -396 l  1517 -396 l  p
1517 0 m  1517 -327 l  1572 -327 l  1572 0 l  1517 0 l  p ef
1862 0 m  1862 -207 l  1862 -229 1860 -246 1856 -257 ct 1852 -269 1845 -278 1836 -283 ct 
1826 -288 1813 -291 1795 -291 ct 1769 -291 1748 -282 1733 -264 ct 1718 -246 1710 -221 1710 -189 ct 
1710 0 l  1656 0 l  1656 -257 l  1656 -295 1655 -319 1654 -327 ct 1705 -327 l 
1706 -326 1706 -323 1706 -319 ct 1706 -314 1706 -309 1707 -304 ct 1707 -298 1707 -287 1708 -271 ct 
1709 -271 l  1721 -294 1736 -310 1752 -319 ct 1768 -328 1789 -333 1813 -333 ct 
1849 -333 1875 -324 1892 -306 ct 1909 -288 1917 -259 1917 -218 ct 1917 0 l  1862 0 l 
p ef
2173 128 m  2173 -448 l  2296 -448 l  2296 -409 l  2226 -409 l  2226 89 l 
2296 89 l  2296 128 l  2173 128 l  p ef
2829 -131 m  2829 -87 2821 -54 2804 -31 ct 2788 -8 2764 4 2732 4 ct 2701 4 2677 -7 2661 -30 ct 
2645 -53 2637 -86 2637 -131 ct 2637 -177 2645 -211 2660 -233 ct 2676 -256 2700 -267 2734 -267 ct 
2767 -267 2791 -255 2806 -232 ct 2821 -209 2829 -175 2829 -131 ct p
2460 0 m  2413 0 l  2692 -425 l  2739 -425 l  2460 0 l  p
2420 -429 m  2452 -429 2476 -418 2491 -395 ct 2507 -373 2515 -339 2515 -294 ct 
2515 -251 2507 -217 2491 -193 ct 2475 -170 2451 -158 2419 -158 ct 2387 -158 2363 -170 2347 -193 ct 
2331 -216 2323 -250 2323 -294 ct 2323 -339 2331 -373 2346 -395 ct 2362 -418 2386 -429 2420 -429 ct 
p
2784 -130 m  2784 -166 2780 -193 2773 -209 ct 2765 -225 2752 -233 2734 -233 ct 
2715 -233 2702 -225 2694 -209 ct 2686 -193 2682 -167 2682 -130 ct 2682 -96 2685 -70 2693 -54 ct 
2701 -37 2715 -29 2733 -29 ct 2751 -29 2764 -37 2772 -54 ct 2780 -71 2784 -96 2784 -130 ct 
p
2470 -294 m  2470 -329 2466 -355 2459 -372 ct 2451 -388 2438 -396 2420 -396 ct 
2401 -396 2388 -388 2380 -372 ct 2371 -356 2367 -330 2367 -294 ct 2367 -259 2371 -233 2380 -217 ct 
2388 -200 2401 -192 2419 -192 ct 2437 -192 2450 -200 2458 -217 ct 2466 -234 2470 -260 2470 -294 ct 
p ef
2856 128 m  2856 89 l  2926 89 l  2926 -409 l  2856 -409 l  2856 -448 l 
2979 -448 l  2979 128 l  2856 128 l  p ef
pom
2193 15653 m  2193 10306 l  ps
18853 15653 m  18853 10306 l  ps
2193 15653 m  2359 15653 l  ps
18853 15653 m  18686 15653 l  ps
2193 12980 m  2359 12980 l  ps
18853 12980 m  18686 12980 l  ps
2193 10306 m  2359 10306 l  ps
18853 10306 m  18686 10306 l  ps
pum
1708 15880 t
298 -198 m  298 -131 286 -81 263 -46 ct 239 -11 205 6 159 6 ct 114 6 80 -11 57 -46 ct 
34 -81 22 -131 22 -198 ct 22 -265 34 -316 56 -350 ct 78 -384 113 -401 161 -401 ct 
208 -401 242 -384 264 -350 ct 286 -315 298 -265 298 -198 ct p
246 -197 m  246 -254 240 -296 226 -322 ct 213 -347 191 -360 161 -360 ct 130 -360 108 -347 94 -322 ct 
80 -297 74 -255 74 -197 ct 74 -141 80 -100 94 -74 ct 108 -48 130 -35 160 -35 ct 
190 -35 211 -48 225 -75 ct 239 -101 246 -142 246 -197 ct p ef
pom
pum
1392 13208 t
296 -129 m  296 -87 283 -54 259 -30 ct 234 -6 199 6 155 6 ct 118 6 89 -2 66 -18 ct 
43 -34 29 -58 23 -88 ct 74 -94 l  85 -55 112 -35 157 -35 ct 184 -35 205 -43 220 -60 ct 
236 -76 243 -99 243 -128 ct 243 -153 236 -173 220 -189 ct 205 -204 184 -212 158 -212 ct 
144 -212 131 -210 119 -206 ct 108 -201 96 -194 84 -184 ct 35 -184 l  48 -396 l 
273 -396 l  273 -353 l  94 -353 l  86 -228 l  108 -245 135 -253 168 -253 ct 
207 -253 238 -242 261 -219 ct 284 -196 296 -166 296 -129 ct p ef
618 -198 m  618 -131 606 -81 583 -46 ct 559 -11 525 6 479 6 ct 434 6 400 -11 377 -46 ct 
354 -81 342 -131 342 -198 ct 342 -265 354 -316 376 -350 ct 398 -384 433 -401 481 -401 ct 
528 -401 562 -384 584 -350 ct 606 -315 618 -265 618 -198 ct p
566 -197 m  566 -254 560 -296 546 -322 ct 533 -347 511 -360 481 -360 ct 450 -360 428 -347 414 -322 ct 
400 -297 394 -255 394 -197 ct 394 -141 400 -100 414 -74 ct 428 -48 450 -35 480 -35 ct 
510 -35 531 -48 545 -75 ct 559 -101 566 -142 566 -197 ct p ef
pom
pum
1074 10534 t
44 0 m  44 -43 l  145 -43 l  145 -348 l  55 -284 l  55 -332 l  149 -396 l 
196 -396 l  196 -43 l  292 -43 l  292 0 l  44 0 l  p ef
618 -198 m  618 -131 606 -81 583 -46 ct 559 -11 525 6 479 6 ct 434 6 400 -11 377 -46 ct 
354 -81 342 -131 342 -198 ct 342 -265 354 -316 376 -350 ct 398 -384 433 -401 481 -401 ct 
528 -401 562 -384 584 -350 ct 606 -315 618 -265 618 -198 ct p
566 -197 m  566 -254 560 -296 546 -322 ct 533 -347 511 -360 481 -360 ct 450 -360 428 -347 414 -322 ct 
400 -297 394 -255 394 -197 ct 394 -141 400 -100 414 -74 ct 428 -48 450 -35 480 -35 ct 
510 -35 531 -48 545 -75 ct 559 -101 566 -142 566 -197 ct p ef
938 -198 m  938 -131 926 -81 903 -46 ct 879 -11 845 6 799 6 ct 754 6 720 -11 697 -46 ct 
674 -81 662 -131 662 -198 ct 662 -265 674 -316 696 -350 ct 718 -384 753 -401 801 -401 ct 
848 -401 882 -384 904 -350 ct 926 -315 938 -265 938 -198 ct p
886 -197 m  886 -254 880 -296 866 -322 ct 853 -347 831 -360 801 -360 ct 770 -360 748 -347 734 -322 ct 
720 -297 714 -255 714 -197 ct 714 -141 720 -100 734 -74 ct 748 -48 770 -35 800 -35 ct 
830 -35 851 -48 865 -75 ct 879 -101 886 -142 886 -197 ct p ef
pom
0.003 0.449 0.742 c 2742 15653 m  2742 13480 l  3257 13480 l  3257 15653 l 
2742 15653 l  p ef
6285 15653 m  6285 14214 l  6801 14214 l  6801 15653 l  6285 15653 l  p ef
9831 15653 m  9831 12921 l  10346 12921 l  10346 15653 l  9831 15653 l 
p ef
13376 15653 m  13376 13539 l  13891 13539 l  13891 15653 l  13376 15653 l 
p ef
0.003 0.003 0.003 c 2741 15653 m  2741 13480 l  3257 13480 l  3257 15653 l 
2741 15653 l  pc
6285 15653 m  6285 14214 l  6801 14214 l  6801 15653 l  6285 15653 l  pc
9830 15653 m  9830 12920 l  10346 12920 l  10346 15653 l  9830 15653 l 
pc
13375 15653 m  13375 13538 l  13891 13538 l  13891 15653 l  13375 15653 l 
pc
0.871 0.492 0.003 c 3385 15653 m  3385 13480 l  3901 13480 l  3901 15653 l 
3385 15653 l  p ef
6930 15653 m  6930 11694 l  7446 11694 l  7446 15653 l  6930 15653 l  p ef
10475 15653 m  10475 13020 l  10991 13020 l  10991 15653 l  10475 15653 l 
p ef
14019 15653 m  14019 12732 l  14535 12732 l  14535 15653 l  14019 15653 l 
p ef
0.003 0.003 0.003 c 3385 15653 m  3385 13480 l  3900 13480 l  3900 15653 l 
3385 15653 l  pc
6930 15653 m  6930 11694 l  7446 11694 l  7446 15653 l  6930 15653 l  pc
10475 15653 m  10475 13020 l  10991 13020 l  10991 15653 l  10475 15653 l 
pc
14019 15653 m  14019 12731 l  14535 12731 l  14535 15653 l  14019 15653 l 
pc
1.000 0.843 0.003 c 4030 15653 m  4030 12618 l  4546 12618 l  4546 15653 l 
4030 15653 l  p ef
7575 15653 m  7575 11923 l  8091 11923 l  8091 15653 l  7575 15653 l  p ef
11119 15653 m  11119 13026 l  11635 13026 l  11635 15653 l  11119 15653 l 
p ef
14664 15653 m  14664 12522 l  15180 12522 l  15180 15653 l  14664 15653 l 
p ef
0.003 0.003 0.003 c 4030 15653 m  4030 12618 l  4545 12618 l  4545 15653 l 
4030 15653 l  pc
7575 15653 m  7575 11923 l  8090 11923 l  8090 15653 l  7575 15653 l  pc
11119 15653 m  11119 13025 l  11634 13025 l  11634 15653 l  11119 15653 l 
pc
14664 15653 m  14664 12522 l  15179 12522 l  15179 15653 l  14664 15653 l 
pc
0.496 0.187 0.558 c 4675 15653 m  4675 13319 l  5191 13319 l  5191 15653 l 
4675 15653 l  p ef
8219 15653 m  8219 11276 l  8735 11276 l  8735 15653 l  8219 15653 l  p ef
11764 15653 m  11764 12894 l  12280 12894 l  12280 15653 l  11764 15653 l 
p ef
15309 15653 m  15309 12497 l  15825 12497 l  15825 15653 l  15309 15653 l 
p ef
0.003 0.003 0.003 c 4675 15653 m  4675 13318 l  5190 13318 l  5190 15653 l 
4675 15653 l  pc
8218 15653 m  8218 11276 l  8734 11276 l  8734 15653 l  8218 15653 l  pc
11764 15653 m  11764 12894 l  12279 12894 l  12279 15653 l  11764 15653 l 
pc
15309 15653 m  15309 12496 l  15824 12496 l  15824 15653 l  15309 15653 l 
pc
pum
7159 10016 t
240 -64 m  293 -64 331 -91 352 -145 ct 429 -116 l  412 -75 388 -44 356 -24 ct 
323 -4 285 6 240 6 ct 171 6 119 -13 81 -52 ct 44 -91 25 -145 25 -215 ct 25 -285 43 -338 79 -376 ct 
115 -413 167 -432 236 -432 ct 286 -432 326 -422 358 -402 ct 389 -382 411 -352 424 -313 ct 
345 -292 l  339 -313 326 -330 306 -343 ct 287 -356 264 -362 238 -362 ct 197 -362 167 -350 146 -325 ct 
125 -300 115 -263 115 -215 ct 115 -166 126 -128 147 -103 ct 168 -77 199 -64 240 -64 ct 
p ef
489 0 m  489 -250 l  489 -268 489 -283 488 -295 ct 488 -307 487 -318 487 -327 ct 
568 -327 l  568 -323 569 -312 570 -294 ct 571 -275 572 -263 572 -257 ct 573 -257 l 
581 -280 588 -296 595 -305 ct 601 -315 609 -322 618 -326 ct 627 -331 638 -333 651 -333 ct 
662 -333 671 -331 678 -328 ct 678 -257 l  664 -260 652 -262 641 -262 ct 620 -262 604 -253 592 -236 ct 
580 -219 574 -194 574 -160 ct 574 0 l  489 0 l  p ef
1041 -164 m  1041 -111 1026 -69 997 -39 ct 967 -9 927 6 875 6 ct 824 6 784 -9 755 -39 ct 
726 -70 711 -111 711 -164 ct 711 -216 726 -258 755 -288 ct 784 -318 824 -333 876 -333 ct 
930 -333 971 -318 999 -289 ct 1027 -260 1041 -218 1041 -164 ct p
952 -164 m  952 -203 946 -231 933 -249 ct 920 -266 902 -275 878 -275 ct 826 -275 800 -238 800 -164 ct 
800 -127 806 -100 819 -81 ct 832 -62 850 -52 874 -52 ct 926 -52 952 -89 952 -164 ct 
p ef
1384 -95 m  1384 -64 1371 -39 1345 -21 ct 1319 -3 1283 6 1237 6 ct 1193 6 1158 -1 1134 -15 ct 
1110 -30 1095 -52 1087 -82 ct 1161 -93 l  1166 -77 1173 -66 1183 -60 ct 1194 -53 1212 -50 1237 -50 ct 
1261 -50 1279 -53 1289 -59 ct 1300 -65 1306 -75 1306 -88 ct 1306 -98 1301 -106 1293 -112 ct 
1284 -119 1269 -124 1248 -128 ct 1200 -137 1168 -146 1151 -154 ct 1134 -163 1122 -173 1113 -186 ct 
1104 -199 1100 -215 1100 -234 ct 1100 -265 1112 -289 1136 -307 ct 1160 -324 1194 -333 1238 -333 ct 
1277 -333 1308 -325 1332 -310 ct 1355 -295 1370 -273 1376 -245 ct 1301 -237 l 
1299 -250 1293 -260 1283 -267 ct 1274 -274 1259 -277 1238 -277 ct 1218 -277 1203 -274 1193 -269 ct 
1183 -264 1178 -255 1178 -243 ct 1178 -234 1181 -226 1189 -221 ct 1197 -215 1210 -210 1228 -207 ct 
1254 -202 1277 -196 1296 -191 ct 1316 -185 1332 -179 1344 -171 ct 1356 -163 1366 -153 1373 -141 ct 
1380 -129 1384 -114 1384 -95 ct p ef
1728 -95 m  1728 -64 1715 -39 1689 -21 ct 1663 -3 1627 6 1581 6 ct 1537 6 1502 -1 1478 -15 ct 
1454 -30 1439 -52 1431 -82 ct 1505 -93 l  1510 -77 1517 -66 1527 -60 ct 1538 -53 1556 -50 1581 -50 ct 
1605 -50 1623 -53 1633 -59 ct 1644 -65 1650 -75 1650 -88 ct 1650 -98 1645 -106 1637 -112 ct 
1628 -119 1613 -124 1592 -128 ct 1544 -137 1512 -146 1495 -154 ct 1478 -163 1466 -173 1457 -186 ct 
1448 -199 1444 -215 1444 -234 ct 1444 -265 1456 -289 1480 -307 ct 1504 -324 1538 -333 1582 -333 ct 
1621 -333 1652 -325 1676 -310 ct 1699 -295 1714 -273 1720 -245 ct 1645 -237 l 
1643 -250 1637 -260 1627 -267 ct 1618 -274 1603 -277 1582 -277 ct 1562 -277 1547 -274 1537 -269 ct 
1527 -264 1522 -255 1522 -243 ct 1522 -234 1525 -226 1533 -221 ct 1541 -215 1554 -210 1572 -207 ct 
1598 -202 1621 -196 1640 -191 ct 1660 -185 1676 -179 1688 -171 ct 1700 -163 1710 -153 1717 -141 ct 
1724 -129 1728 -114 1728 -95 ct p ef
1777 -123 m  1777 -197 l  1934 -197 l  1934 -123 l  1777 -123 l  p ef
2347 -123 m  2347 -81 2331 -49 2301 -27 ct 2270 -5 2224 6 2165 6 ct 2110 6 2067 -4 2037 -23 ct 
2006 -42 1986 -72 1977 -111 ct 2063 -125 l  2069 -103 2080 -86 2097 -76 ct 2114 -66 2137 -61 2167 -61 ct 
2229 -61 2260 -80 2260 -118 ct 2260 -130 2257 -140 2250 -147 ct 2242 -155 2232 -162 2219 -167 ct 
2206 -172 2182 -179 2145 -186 ct 2113 -194 2091 -200 2078 -204 ct 2066 -209 2055 -214 2045 -220 ct 
2035 -226 2026 -234 2019 -242 ct 2012 -251 2007 -261 2003 -273 ct 1999 -284 1997 -298 1997 -313 ct 
1997 -351 2011 -381 2040 -401 ct 2069 -422 2111 -432 2166 -432 ct 2219 -432 2258 -424 2285 -407 ct 
2311 -391 2328 -364 2336 -326 ct 2249 -314 l  2245 -332 2236 -346 2222 -355 ct 
2209 -364 2189 -369 2164 -369 ct 2110 -369 2083 -352 2083 -318 ct 2083 -307 2086 -298 2092 -291 ct 
2098 -284 2106 -278 2117 -273 ct 2129 -268 2151 -262 2186 -254 ct 2227 -246 2256 -238 2273 -230 ct 
2291 -223 2305 -214 2315 -205 ct 2325 -195 2333 -183 2339 -170 ct 2344 -156 2347 -140 2347 -123 ct 
p ef
2494 -327 m  2494 -143 l  2494 -86 2514 -57 2552 -57 ct 2573 -57 2589 -66 2602 -83 ct 
2615 -101 2621 -124 2621 -151 ct 2621 -327 l  2706 -327 l  2706 -73 l  2706 -45 2707 -21 2708 0 ct 
2627 0 l  2625 -29 2624 -51 2624 -65 ct 2622 -65 l  2611 -40 2597 -22 2579 -11 ct 
2562 0 2541 6 2517 6 ct 2482 6 2456 -5 2437 -26 ct 2419 -47 2409 -78 2409 -119 ct 
2409 -327 l  2494 -327 l  p ef
3102 -165 m  3102 -111 3091 -69 3069 -39 ct 3047 -9 3016 6 2976 6 ct 2953 6 2933 1 2916 -9 ct 
2899 -19 2886 -34 2877 -53 ct 2876 -53 l  2876 -45 2876 -36 2875 -24 ct 2874 -11 2873 -3 2872 0 ct 
2790 0 l  2791 -19 2792 -44 2792 -75 ct 2792 -448 l  2877 -448 l  2877 -323 l 
2876 -270 l  2877 -270 l  2896 -312 2931 -333 2982 -333 ct 3020 -333 3050 -318 3071 -289 ct 
3091 -260 3102 -218 3102 -165 ct p
3013 -165 m  3013 -202 3008 -229 2997 -247 ct 2986 -265 2969 -274 2946 -274 ct 
2923 -274 2906 -264 2894 -245 ct 2882 -226 2876 -198 2876 -162 ct 2876 -127 2882 -100 2893 -81 ct 
2905 -62 2923 -52 2946 -52 ct 2991 -52 3013 -90 3013 -165 ct p ef
3171 -386 m  3171 -448 l  3255 -448 l  3255 -386 l  3171 -386 l  p
3169 128 m  3149 128 3131 127 3117 125 ct 3117 66 l  3133 67 l  3147 67 3157 64 3163 57 ct 
3168 51 3171 38 3171 18 ct 3171 -327 l  3255 -327 l  3255 38 l  3255 67 3248 89 3233 105 ct 
3219 120 3197 128 3169 128 ct p ef
3476 6 m  3427 6 3389 -9 3363 -38 ct 3336 -67 3323 -109 3323 -165 ct 3323 -219 3337 -260 3363 -289 ct 
3390 -318 3428 -333 3477 -333 ct 3524 -333 3560 -317 3585 -286 ct 3609 -255 3622 -210 3622 -149 ct 
3622 -147 l  3412 -147 l  3412 -115 3418 -91 3430 -75 ct 3442 -59 3458 -51 3480 -51 ct 
3510 -51 3529 -64 3537 -90 ct 3617 -83 l  3594 -24 3547 6 3476 6 ct p
3476 -280 m  3456 -280 3441 -273 3430 -259 ct 3419 -245 3413 -225 3413 -200 ct 
3540 -200 l  3538 -227 3532 -247 3521 -260 ct 3510 -273 3495 -280 3476 -280 ct 
p ef
3822 6 m  3773 6 3735 -9 3708 -38 ct 3681 -68 3667 -109 3667 -162 ct 3667 -216 3681 -258 3708 -288 ct 
3735 -318 3774 -333 3824 -333 ct 3862 -333 3894 -323 3919 -304 ct 3944 -285 3960 -258 3966 -224 ct 
3881 -220 l  3879 -237 3873 -250 3863 -260 ct 3853 -270 3840 -275 3822 -275 ct 
3778 -275 3756 -238 3756 -165 ct 3756 -90 3778 -52 3823 -52 ct 3839 -52 3853 -57 3864 -67 ct 
3874 -78 3881 -93 3884 -113 ct 3969 -109 l  3966 -87 3958 -67 3945 -49 ct 3932 -32 3915 -18 3894 -8 ct 
3873 1 3849 6 3822 6 ct p ef
4114 5 m  4089 5 4070 -2 4056 -15 ct 4043 -29 4036 -50 4036 -77 ct 4036 -270 l 
3995 -270 l  3995 -327 l  4040 -327 l  4067 -404 l  4120 -404 l  4120 -327 l 
4182 -327 l  4182 -270 l  4120 -270 l  4120 -100 l  4120 -85 4123 -73 4129 -65 ct 
4135 -58 4144 -54 4157 -54 ct 4164 -54 4173 -55 4185 -58 ct 4185 -5 l  4164 2 4141 5 4114 5 ct 
p ef
4598 -356 m  4598 0 l  4509 0 l  4509 -356 l  4372 -356 l  4372 -425 l 
4736 -425 l  4736 -356 l  4598 -356 l  p ef
4786 0 m  4786 -250 l  4786 -268 4786 -283 4785 -295 ct 4785 -307 4784 -318 4784 -327 ct 
4865 -327 l  4865 -323 4866 -312 4867 -294 ct 4868 -275 4869 -263 4869 -257 ct 
4870 -257 l  4878 -280 4885 -296 4892 -305 ct 4898 -315 4906 -322 4915 -326 ct 
4924 -331 4935 -333 4948 -333 ct 4959 -333 4968 -331 4975 -328 ct 4975 -257 l 
4961 -260 4949 -262 4938 -262 ct 4917 -262 4901 -253 4889 -236 ct 4877 -219 4871 -194 4871 -160 ct 
4871 0 l  4786 0 l  p ef
5103 6 m  5071 6 5046 -3 5029 -20 ct 5011 -37 5002 -61 5002 -92 ct 5002 -126 5013 -152 5035 -170 ct 
5057 -188 5089 -197 5131 -197 ct 5202 -198 l  5202 -215 l  5202 -236 5198 -252 5190 -262 ct 
5183 -273 5171 -278 5154 -278 ct 5138 -278 5126 -274 5119 -267 ct 5112 -260 5107 -248 5105 -232 ct 
5017 -236 l  5022 -268 5037 -292 5061 -308 ct 5084 -325 5116 -333 5157 -333 ct 
5199 -333 5230 -323 5253 -302 ct 5275 -282 5286 -253 5286 -216 ct 5286 -97 l 
5286 -78 5288 -66 5293 -59 ct 5297 -52 5304 -48 5313 -48 ct 5320 -48 5326 -49 5332 -50 ct 
5332 -4 l  5327 -3 5322 -2 5318 -1 ct 5314 0 5310 1 5306 1 ct 5302 2 5298 3 5293 3 ct 
5289 3 5284 4 5278 4 ct 5256 4 5241 -2 5230 -12 ct 5220 -23 5214 -38 5212 -58 ct 
5210 -58 l  5187 -15 5151 6 5103 6 ct p
5202 -152 m  5158 -151 l  5138 -150 5124 -148 5116 -144 ct 5108 -141 5101 -136 5097 -128 ct 
5093 -121 5091 -111 5091 -99 ct 5091 -84 5094 -72 5101 -64 ct 5108 -57 5118 -53 5130 -53 ct 
5143 -53 5155 -57 5166 -64 ct 5177 -71 5186 -81 5192 -94 ct 5198 -107 5202 -121 5202 -135 ct 
5202 -152 l  p ef
5371 -386 m  5371 -448 l  5456 -448 l  5456 -386 l  5371 -386 l  p
5371 0 m  5371 -327 l  5456 -327 l  5456 0 l  5371 0 l  p ef
5755 0 m  5755 -183 l  5755 -240 5736 -269 5697 -269 ct 5676 -269 5660 -260 5647 -243 ct 
5634 -225 5628 -202 5628 -175 ct 5628 0 l  5543 0 l  5543 -254 l  5543 -271 5543 -286 5542 -297 ct 
5542 -308 5541 -318 5541 -327 ct 5622 -327 l  5622 -323 5623 -313 5624 -296 ct 
5625 -280 5626 -268 5626 -262 ct 5627 -262 l  5638 -287 5653 -305 5670 -316 ct 
5687 -327 5708 -333 5732 -333 ct 5767 -333 5793 -322 5812 -301 ct 5830 -280 5840 -248 5840 -207 ct 
5840 0 l  5755 0 l  p ef
5921 -386 m  5921 -448 l  6006 -448 l  6006 -386 l  5921 -386 l  p
5921 0 m  5921 -327 l  6006 -327 l  6006 0 l  5921 0 l  p ef
6305 0 m  6305 -183 l  6305 -240 6286 -269 6247 -269 ct 6226 -269 6210 -260 6197 -243 ct 
6184 -225 6178 -202 6178 -175 ct 6178 0 l  6093 0 l  6093 -254 l  6093 -271 6093 -286 6092 -297 ct 
6092 -308 6091 -318 6091 -327 ct 6172 -327 l  6172 -323 6173 -313 6174 -296 ct 
6175 -280 6176 -268 6176 -262 ct 6177 -262 l  6188 -287 6203 -305 6220 -316 ct 
6237 -327 6258 -333 6282 -333 ct 6317 -333 6343 -322 6362 -301 ct 6380 -280 6390 -248 6390 -207 ct 
6390 0 l  6305 0 l  p ef
6608 131 m  6568 131 6536 123 6512 108 ct 6488 93 6473 71 6467 43 ct 6552 33 l 
6555 46 6561 56 6571 64 ct 6581 71 6594 75 6611 75 ct 6634 75 6651 68 6662 53 ct 
6673 39 6679 17 6679 -11 ct 6679 -29 l  6679 -61 l  6679 -61 l  6660 -21 6625 -1 6573 -1 ct 
6535 -1 6506 -15 6485 -44 ct 6464 -72 6453 -113 6453 -166 ct 6453 -220 6464 -261 6486 -290 ct 
6507 -319 6539 -333 6580 -333 ct 6627 -333 6660 -313 6679 -274 ct 6680 -274 l 
6680 -281 6681 -291 6681 -303 ct 6682 -315 6683 -323 6684 -327 ct 6765 -327 l 
6763 -305 6763 -280 6763 -251 ct 6763 -10 l  6763 36 6750 72 6723 95 ct 6697 119 6658 131 6608 131 ct 
p
6679 -168 m  6679 -202 6673 -228 6661 -247 ct 6649 -266 6632 -275 6610 -275 ct 
6565 -275 6542 -239 6542 -166 ct 6542 -95 6564 -60 6609 -60 ct 6632 -60 6649 -69 6661 -88 ct 
6673 -107 6679 -134 6679 -168 ct p ef
pom
0.152 0.152 0.152 c 2193 15653 m  18853 15653 l  ps
1.000 1.000 1.000 c 15964 13119 m  15964 10477 l  18664 10477 l  18664 13119 l 
15964 13119 l  p ef
pum
17066 11047 t
0.003 0.003 0.003 c 268 0 m  81 -299 l  83 -275 l  84 -234 l  84 0 l  42 0 l 
42 -352 l  97 -352 l  286 -50 l  284 -83 283 -106 283 -121 ct 283 -352 l 
325 -352 l  325 0 l  268 0 l  p ef
533 -214 m  533 -251 l  780 -251 l  780 -214 l  533 -214 l  p
533 -86 m  533 -123 l  780 -123 l  780 -86 l  533 -86 l  p ef
984 0 m  984 -38 l  1073 -38 l  1073 -309 l  994 -252 l  994 -294 l  1076 -352 l 
1118 -352 l  1118 -38 l  1203 -38 l  1203 0 l  984 0 l  p ef
pom
0.003 0.449 0.742 c 16134 11086 m  16134 10603 l  16982 10603 l  16982 11086 l 
16134 11086 l  p ef
0.003 0.003 0.003 c 16134 11086 m  16134 10603 l  16981 10603 l  16981 11086 l 
16134 11086 l  pc
pum
17066 11683 t
268 0 m  81 -299 l  83 -275 l  84 -234 l  84 0 l  42 0 l  42 -352 l  97 -352 l 
286 -50 l  284 -83 283 -106 283 -121 ct 283 -352 l  325 -352 l  325 0 l  268 0 l 
p ef
533 -214 m  533 -251 l  780 -251 l  780 -214 l  533 -214 l  p
533 -86 m  533 -123 l  780 -123 l  780 -86 l  533 -86 l  p ef
971 0 m  971 -32 l  979 -51 989 -68 1001 -83 ct 1014 -98 1026 -112 1040 -124 ct 
1053 -136 1066 -147 1080 -157 ct 1093 -168 1105 -178 1115 -188 ct 1126 -198 1134 -209 1141 -221 ct 
1147 -232 1151 -245 1151 -259 ct 1151 -278 1145 -293 1134 -304 ct 1123 -315 1107 -320 1087 -320 ct 
1068 -320 1052 -315 1040 -304 ct 1028 -294 1020 -279 1018 -260 ct 973 -265 l 
976 -293 988 -315 1008 -332 ct 1029 -348 1055 -357 1087 -357 ct 1122 -357 1149 -348 1168 -332 ct 
1187 -315 1197 -291 1197 -260 ct 1197 -247 1193 -233 1187 -220 ct 1181 -206 1172 -193 1160 -179 ct 
1147 -166 1124 -145 1089 -117 ct 1070 -101 1055 -87 1044 -74 ct 1033 -62 1025 -50 1020 -38 ct 
1202 -38 l  1202 0 l  971 0 l  p ef
pom
0.871 0.492 0.003 c 16134 11722 m  16134 11239 l  16982 11239 l  16982 11722 l 
16134 11722 l  p ef
0.003 0.003 0.003 c 16134 11721 m  16134 11238 l  16981 11238 l  16981 11721 l 
16134 11721 l  pc
pum
17066 12318 t
268 0 m  81 -299 l  83 -275 l  84 -234 l  84 0 l  42 0 l  42 -352 l  97 -352 l 
286 -50 l  284 -83 283 -106 283 -121 ct 283 -352 l  325 -352 l  325 0 l  268 0 l 
p ef
533 -214 m  533 -251 l  780 -251 l  780 -214 l  533 -214 l  p
533 -86 m  533 -123 l  780 -123 l  780 -86 l  533 -86 l  p ef
1206 -115 m  1206 -77 1195 -48 1173 -27 ct 1151 -6 1121 5 1082 5 ct 1050 5 1023 -2 1003 -16 ct 
983 -31 971 -51 965 -79 ct 1010 -84 l  1020 -49 1044 -32 1083 -32 ct 1107 -32 1126 -39 1139 -54 ct 
1153 -68 1160 -88 1160 -114 ct 1160 -136 1153 -154 1139 -167 ct 1126 -181 1107 -188 1084 -188 ct 
1072 -188 1061 -186 1050 -182 ct 1040 -178 1030 -172 1019 -162 ct 976 -162 l 
987 -352 l  1186 -352 l  1186 -313 l  1028 -313 l  1021 -202 l  1041 -217 1065 -224 1093 -224 ct 
1128 -224 1155 -214 1176 -194 ct 1196 -174 1206 -147 1206 -115 ct p ef
pom
1.000 0.843 0.003 c 16134 12357 m  16134 11874 l  16982 11874 l  16982 12357 l 
16134 12357 l  p ef
0.003 0.003 0.003 c 16134 12357 m  16134 11874 l  16981 11874 l  16981 12357 l 
16134 12357 l  pc
pum
17066 12955 t
268 0 m  81 -299 l  83 -275 l  84 -234 l  84 0 l  42 0 l  42 -352 l  97 -352 l 
286 -50 l  284 -83 283 -106 283 -121 ct 283 -352 l  325 -352 l  325 0 l  268 0 l 
p ef
533 -214 m  533 -251 l  780 -251 l  780 -214 l  533 -214 l  p
533 -86 m  533 -123 l  780 -123 l  780 -86 l  533 -86 l  p ef
984 0 m  984 -38 l  1073 -38 l  1073 -309 l  994 -252 l  994 -294 l  1076 -352 l 
1118 -352 l  1118 -38 l  1203 -38 l  1203 0 l  984 0 l  p ef
1490 -176 m  1490 -117 1479 -72 1459 -41 ct 1438 -10 1408 5 1368 5 ct 1327 5 1297 -10 1277 -41 ct 
1257 -72 1247 -117 1247 -176 ct 1247 -236 1257 -282 1276 -312 ct 1296 -342 1327 -357 1369 -357 ct 
1410 -357 1441 -342 1460 -311 ct 1480 -281 1490 -236 1490 -176 ct p
1444 -176 m  1444 -227 1438 -263 1427 -286 ct 1415 -309 1396 -320 1369 -320 ct 
1342 -320 1322 -309 1310 -287 ct 1298 -264 1292 -227 1292 -176 ct 1292 -126 1298 -89 1310 -66 ct 
1322 -43 1342 -32 1368 -32 ct 1394 -32 1414 -43 1426 -67 ct 1438 -91 1444 -127 1444 -176 ct 
p ef
pom
0.496 0.187 0.558 c 16134 12993 m  16134 12509 l  16982 12509 l  16982 12993 l 
16134 12993 l  p ef
0.003 0.003 0.003 c 16134 12992 m  16134 12509 l  16981 12509 l  16981 12992 l 
16134 12992 l  pc
0.152 0.152 0.152 c 15964 13118 m  15964 10477 l  18663 10477 l  18663 13118 l 
15964 13118 l  pc
gr
gs
283 343 m 18983 343 l 18983 7511 l 283 7511 l 283 343 l eoclip newpath
gs
283 354 m 18983 354 l 18983 7500 l 283 7500 l 283 354 l eoclip newpath
1.000 1.000 1.000 c 10143 7500 m  -613 7500 l  -613 354 l  20900 354 l 
20900 7500 l  10143 7500 l  p ef
gr
gs
283 354 m 18983 354 l 18983 7500 l 283 7500 l 283 354 l eoclip newpath
1.000 1.000 1.000 c 10143 7500 m  -613 7500 l  -613 354 l  20900 354 l 
20900 7500 l  10143 7500 l  p ef
gr
1.000 1.000 1.000 c 2192 6626 m  18853 6626 l  18853 1271 l  2192 1271 l 
2192 6626 l  p ef
21.3518 lw 2 lc 163.58253 ml 0.152 0.152 0.152 c 3964 6625 m  3964 1271 l 
ps
7508 6625 m  7508 1271 l  ps
21.42496 lw 164.14306 ml 11054 6625 m  11054 1271 l  ps
14599 6625 m  14599 1271 l  ps
21.31685 lw 163.31474 ml 18852 6625 m  2191 6625 l  ps
21.24405 lw 162.75703 ml 18852 3948 m  2191 3948 l  ps
20.77709 lw 159.17951 ml 18852 1271 m  2191 1271 l  ps
21.19766 lw 162.40158 ml 2191 6625 m  18853 6625 l  ps
2191 1270 m  18853 1270 l  ps
3964 6625 m  3964 6457 l  ps
3964 1270 m  3964 1440 l  ps
7509 6625 m  7509 6457 l  ps
7509 1270 m  7509 1440 l  ps
11054 6625 m  11054 6457 l  ps
11054 1270 m  11054 1440 l  ps
14599 6625 m  14599 6457 l  ps
14599 1270 m  14599 1440 l  ps
pum
2873 7376 t
292 -154 m  292 -47 255 6 182 6 ct 135 6 104 -12 88 -47 ct 87 -47 l  88 -46 88 -30 88 1 ct 
88 120 l  38 120 l  38 -242 l  38 -273 38 -294 37 -304 ct 85 -304 l  85 -304 85 -301 86 -296 ct 
86 -292 86 -285 87 -275 ct 87 -266 88 -259 88 -255 ct 89 -255 l  98 -274 109 -288 124 -297 ct 
139 -305 158 -310 182 -310 ct 219 -310 246 -297 265 -272 ct 283 -247 292 -207 292 -154 ct 
p
240 -152 m  240 -195 234 -225 223 -243 ct 211 -261 194 -271 169 -271 ct 149 -271 134 -266 122 -258 ct 
111 -249 103 -236 97 -218 ct 91 -200 88 -177 88 -149 ct 88 -109 94 -79 107 -60 ct 
120 -41 140 -32 168 -32 ct 193 -32 211 -41 223 -59 ct 234 -78 240 -109 240 -152 ct 
p ef
431 6 m  401 6 378 -2 363 -19 ct 348 -35 340 -57 340 -85 ct 340 -116 350 -141 371 -158 ct 
391 -174 424 -183 470 -185 ct 537 -186 l  537 -202 l  537 -227 532 -245 522 -255 ct 
511 -266 495 -271 473 -271 ct 450 -271 434 -268 424 -260 ct 414 -252 408 -240 406 -223 ct 
353 -228 l  362 -283 402 -310 474 -310 ct 512 -310 540 -301 559 -284 ct 578 -266 588 -241 588 -208 ct 
588 -77 l  588 -62 589 -50 593 -43 ct 597 -35 605 -31 616 -31 ct 620 -31 626 -32 632 -33 ct 
632 -2 l  619 1 606 3 593 3 ct 575 3 561 -2 553 -12 ct 545 -22 540 -37 539 -58 ct 
537 -58 l  524 -35 509 -19 493 -9 ct 476 1 455 6 431 6 ct p
442 -32 m  461 -32 477 -37 491 -45 ct 505 -53 516 -65 525 -80 ct 533 -94 537 -110 537 -125 ct 
537 -150 l  482 -149 l  459 -149 441 -146 429 -142 ct 417 -137 408 -130 401 -121 ct 
395 -112 391 -99 391 -84 ct 391 -68 396 -55 405 -46 ct 413 -37 426 -32 442 -32 ct 
p ef
786 -2 m  769 2 752 4 735 5 ct 695 4 675 -18 675 -64 ct 675 -267 l  641 -267 l 
641 -304 l  677 -304 l  692 -372 l  725 -372 l  725 -304 l  781 -304 l 
781 -267 l  725 -267 l  725 -75 l  725 -61 728 -50 732 -45 ct 737 -39 745 -36 757 -36 ct 
763 -36 773 -37 786 -40 ct 786 -2 l  p ef
828 -369 m  828 -417 l  878 -417 l  878 -369 l  828 -369 l  p
828 0 m  828 -304 l  878 -304 l  878 0 l  828 0 l  p ef
993 -141 m  993 -107 1000 -80 1014 -61 ct 1028 -42 1049 -32 1076 -32 ct 1098 -32 1115 -37 1128 -46 ct 
1141 -54 1150 -66 1155 -79 ct 1199 -66 l  1181 -18 1140 6 1076 6 ct 1032 6 998 -8 975 -35 ct 
952 -61 940 -101 940 -154 ct 940 -204 952 -243 975 -270 ct 998 -297 1031 -310 1074 -310 ct 
1163 -310 1207 -256 1207 -148 ct 1207 -141 l  993 -141 l  p
1155 -180 m  1152 -212 1144 -236 1131 -250 ct 1118 -265 1098 -273 1074 -273 ct 
1049 -273 1030 -264 1016 -248 ct 1002 -232 994 -209 993 -180 ct 1155 -180 l 
p ef
1461 0 m  1461 -193 l  1461 -213 1459 -229 1455 -240 ct 1451 -251 1445 -259 1436 -264 ct 
1428 -268 1415 -271 1399 -271 ct 1375 -271 1356 -263 1342 -246 ct 1328 -229 1321 -206 1321 -176 ct 
1321 0 l  1271 0 l  1271 -239 l  1271 -275 1271 -296 1270 -304 ct 1317 -304 l 
1317 -303 1317 -301 1317 -297 ct 1318 -293 1318 -288 1318 -283 ct 1318 -277 1319 -267 1319 -252 ct 
1320 -252 l  1331 -273 1345 -288 1360 -297 ct 1375 -306 1394 -310 1416 -310 ct 
1449 -310 1473 -302 1488 -285 ct 1503 -268 1511 -241 1511 -203 ct 1511 0 l  1461 0 l 
p ef
1702 -2 m  1685 2 1668 4 1651 5 ct 1611 4 1591 -18 1591 -64 ct 1591 -267 l  1557 -267 l 
1557 -304 l  1593 -304 l  1608 -372 l  1641 -372 l  1641 -304 l  1697 -304 l 
1697 -267 l  1641 -267 l  1641 -75 l  1641 -61 1644 -50 1648 -45 ct 1653 -39 1661 -36 1673 -36 ct 
1679 -36 1689 -37 1702 -40 ct 1702 -2 l  p ef
1907 0 m  1907 -43 l  2007 -43 l  2007 -348 l  1919 -284 l  1919 -332 l 
2011 -396 l  2057 -396 l  2057 -43 l  2152 -43 l  2152 0 l  1907 0 l  p ef
pom
pum
6417 7376 t
292 -154 m  292 -47 255 6 182 6 ct 135 6 104 -12 88 -47 ct 87 -47 l  88 -46 88 -30 88 1 ct 
88 120 l  38 120 l  38 -242 l  38 -273 38 -294 37 -304 ct 85 -304 l  85 -304 85 -301 86 -296 ct 
86 -292 86 -285 87 -275 ct 87 -266 88 -259 88 -255 ct 89 -255 l  98 -274 109 -288 124 -297 ct 
139 -305 158 -310 182 -310 ct 219 -310 246 -297 265 -272 ct 283 -247 292 -207 292 -154 ct 
p
240 -152 m  240 -195 234 -225 223 -243 ct 211 -261 194 -271 169 -271 ct 149 -271 134 -266 122 -258 ct 
111 -249 103 -236 97 -218 ct 91 -200 88 -177 88 -149 ct 88 -109 94 -79 107 -60 ct 
120 -41 140 -32 168 -32 ct 193 -32 211 -41 223 -59 ct 234 -78 240 -109 240 -152 ct 
p ef
431 6 m  401 6 378 -2 363 -19 ct 348 -35 340 -57 340 -85 ct 340 -116 350 -141 371 -158 ct 
391 -174 424 -183 470 -185 ct 537 -186 l  537 -202 l  537 -227 532 -245 522 -255 ct 
511 -266 495 -271 473 -271 ct 450 -271 434 -268 424 -260 ct 414 -252 408 -240 406 -223 ct 
353 -228 l  362 -283 402 -310 474 -310 ct 512 -310 540 -301 559 -284 ct 578 -266 588 -241 588 -208 ct 
588 -77 l  588 -62 589 -50 593 -43 ct 597 -35 605 -31 616 -31 ct 620 -31 626 -32 632 -33 ct 
632 -2 l  619 1 606 3 593 3 ct 575 3 561 -2 553 -12 ct 545 -22 540 -37 539 -58 ct 
537 -58 l  524 -35 509 -19 493 -9 ct 476 1 455 6 431 6 ct p
442 -32 m  461 -32 477 -37 491 -45 ct 505 -53 516 -65 525 -80 ct 533 -94 537 -110 537 -125 ct 
537 -150 l  482 -149 l  459 -149 441 -146 429 -142 ct 417 -137 408 -130 401 -121 ct 
395 -112 391 -99 391 -84 ct 391 -68 396 -55 405 -46 ct 413 -37 426 -32 442 -32 ct 
p ef
786 -2 m  769 2 752 4 735 5 ct 695 4 675 -18 675 -64 ct 675 -267 l  641 -267 l 
641 -304 l  677 -304 l  692 -372 l  725 -372 l  725 -304 l  781 -304 l 
781 -267 l  725 -267 l  725 -75 l  725 -61 728 -50 732 -45 ct 737 -39 745 -36 757 -36 ct 
763 -36 773 -37 786 -40 ct 786 -2 l  p ef
828 -369 m  828 -417 l  878 -417 l  878 -369 l  828 -369 l  p
828 0 m  828 -304 l  878 -304 l  878 0 l  828 0 l  p ef
993 -141 m  993 -107 1000 -80 1014 -61 ct 1028 -42 1049 -32 1076 -32 ct 1098 -32 1115 -37 1128 -46 ct 
1141 -54 1150 -66 1155 -79 ct 1199 -66 l  1181 -18 1140 6 1076 6 ct 1032 6 998 -8 975 -35 ct 
952 -61 940 -101 940 -154 ct 940 -204 952 -243 975 -270 ct 998 -297 1031 -310 1074 -310 ct 
1163 -310 1207 -256 1207 -148 ct 1207 -141 l  993 -141 l  p
1155 -180 m  1152 -212 1144 -236 1131 -250 ct 1118 -265 1098 -273 1074 -273 ct 
1049 -273 1030 -264 1016 -248 ct 1002 -232 994 -209 993 -180 ct 1155 -180 l 
p ef
1461 0 m  1461 -193 l  1461 -213 1459 -229 1455 -240 ct 1451 -251 1445 -259 1436 -264 ct 
1428 -268 1415 -271 1399 -271 ct 1375 -271 1356 -263 1342 -246 ct 1328 -229 1321 -206 1321 -176 ct 
1321 0 l  1271 0 l  1271 -239 l  1271 -275 1271 -296 1270 -304 ct 1317 -304 l 
1317 -303 1317 -301 1317 -297 ct 1318 -293 1318 -288 1318 -283 ct 1318 -277 1319 -267 1319 -252 ct 
1320 -252 l  1331 -273 1345 -288 1360 -297 ct 1375 -306 1394 -310 1416 -310 ct 
1449 -310 1473 -302 1488 -285 ct 1503 -268 1511 -241 1511 -203 ct 1511 0 l  1461 0 l 
p ef
1702 -2 m  1685 2 1668 4 1651 5 ct 1611 4 1591 -18 1591 -64 ct 1591 -267 l  1557 -267 l 
1557 -304 l  1593 -304 l  1608 -372 l  1641 -372 l  1641 -304 l  1697 -304 l 
1697 -267 l  1641 -267 l  1641 -75 l  1641 -61 1644 -50 1648 -45 ct 1653 -39 1661 -36 1673 -36 ct 
1679 -36 1689 -37 1702 -40 ct 1702 -2 l  p ef
1893 0 m  1893 -36 l  1902 -58 1914 -77 1927 -94 ct 1941 -111 1955 -126 1970 -139 ct 
1985 -153 2000 -166 2014 -177 ct 2029 -189 2042 -200 2054 -212 ct 2066 -224 2076 -236 2083 -249 ct 
2090 -261 2094 -276 2094 -292 ct 2094 -314 2088 -331 2075 -343 ct 2062 -355 2045 -361 2023 -361 ct 
2001 -361 1984 -355 1970 -343 ct 1956 -331 1948 -315 1946 -294 ct 1895 -298 l 
1898 -330 1912 -355 1935 -374 ct 1957 -393 1987 -402 2023 -402 ct 2062 -402 2092 -393 2113 -374 ct 
2135 -355 2145 -328 2145 -294 ct 2145 -278 2142 -263 2135 -248 ct 2128 -233 2118 -217 2104 -202 ct 
2090 -187 2064 -164 2025 -132 ct 2004 -114 1987 -98 1975 -84 ct 1962 -70 1953 -56 1947 -43 ct 
2151 -43 l  2151 0 l  1893 0 l  p ef
pom
pum
9962 7376 t
292 -154 m  292 -47 255 6 182 6 ct 135 6 104 -12 88 -47 ct 87 -47 l  88 -46 88 -30 88 1 ct 
88 120 l  38 120 l  38 -242 l  38 -273 38 -294 37 -304 ct 85 -304 l  85 -304 85 -301 86 -296 ct 
86 -292 86 -285 87 -275 ct 87 -266 88 -259 88 -255 ct 89 -255 l  98 -274 109 -288 124 -297 ct 
139 -305 158 -310 182 -310 ct 219 -310 246 -297 265 -272 ct 283 -247 292 -207 292 -154 ct 
p
240 -152 m  240 -195 234 -225 223 -243 ct 211 -261 194 -271 169 -271 ct 149 -271 134 -266 122 -258 ct 
111 -249 103 -236 97 -218 ct 91 -200 88 -177 88 -149 ct 88 -109 94 -79 107 -60 ct 
120 -41 140 -32 168 -32 ct 193 -32 211 -41 223 -59 ct 234 -78 240 -109 240 -152 ct 
p ef
431 6 m  401 6 378 -2 363 -19 ct 348 -35 340 -57 340 -85 ct 340 -116 350 -141 371 -158 ct 
391 -174 424 -183 470 -185 ct 537 -186 l  537 -202 l  537 -227 532 -245 522 -255 ct 
511 -266 495 -271 473 -271 ct 450 -271 434 -268 424 -260 ct 414 -252 408 -240 406 -223 ct 
353 -228 l  362 -283 402 -310 474 -310 ct 512 -310 540 -301 559 -284 ct 578 -266 588 -241 588 -208 ct 
588 -77 l  588 -62 589 -50 593 -43 ct 597 -35 605 -31 616 -31 ct 620 -31 626 -32 632 -33 ct 
632 -2 l  619 1 606 3 593 3 ct 575 3 561 -2 553 -12 ct 545 -22 540 -37 539 -58 ct 
537 -58 l  524 -35 509 -19 493 -9 ct 476 1 455 6 431 6 ct p
442 -32 m  461 -32 477 -37 491 -45 ct 505 -53 516 -65 525 -80 ct 533 -94 537 -110 537 -125 ct 
537 -150 l  482 -149 l  459 -149 441 -146 429 -142 ct 417 -137 408 -130 401 -121 ct 
395 -112 391 -99 391 -84 ct 391 -68 396 -55 405 -46 ct 413 -37 426 -32 442 -32 ct 
p ef
786 -2 m  769 2 752 4 735 5 ct 695 4 675 -18 675 -64 ct 675 -267 l  641 -267 l 
641 -304 l  677 -304 l  692 -372 l  725 -372 l  725 -304 l  781 -304 l 
781 -267 l  725 -267 l  725 -75 l  725 -61 728 -50 732 -45 ct 737 -39 745 -36 757 -36 ct 
763 -36 773 -37 786 -40 ct 786 -2 l  p ef
828 -369 m  828 -417 l  878 -417 l  878 -369 l  828 -369 l  p
828 0 m  828 -304 l  878 -304 l  878 0 l  828 0 l  p ef
993 -141 m  993 -107 1000 -80 1014 -61 ct 1028 -42 1049 -32 1076 -32 ct 1098 -32 1115 -37 1128 -46 ct 
1141 -54 1150 -66 1155 -79 ct 1199 -66 l  1181 -18 1140 6 1076 6 ct 1032 6 998 -8 975 -35 ct 
952 -61 940 -101 940 -154 ct 940 -204 952 -243 975 -270 ct 998 -297 1031 -310 1074 -310 ct 
1163 -310 1207 -256 1207 -148 ct 1207 -141 l  993 -141 l  p
1155 -180 m  1152 -212 1144 -236 1131 -250 ct 1118 -265 1098 -273 1074 -273 ct 
1049 -273 1030 -264 1016 -248 ct 1002 -232 994 -209 993 -180 ct 1155 -180 l 
p ef
1461 0 m  1461 -193 l  1461 -213 1459 -229 1455 -240 ct 1451 -251 1445 -259 1436 -264 ct 
1428 -268 1415 -271 1399 -271 ct 1375 -271 1356 -263 1342 -246 ct 1328 -229 1321 -206 1321 -176 ct 
1321 0 l  1271 0 l  1271 -239 l  1271 -275 1271 -296 1270 -304 ct 1317 -304 l 
1317 -303 1317 -301 1317 -297 ct 1318 -293 1318 -288 1318 -283 ct 1318 -277 1319 -267 1319 -252 ct 
1320 -252 l  1331 -273 1345 -288 1360 -297 ct 1375 -306 1394 -310 1416 -310 ct 
1449 -310 1473 -302 1488 -285 ct 1503 -268 1511 -241 1511 -203 ct 1511 0 l  1461 0 l 
p ef
1702 -2 m  1685 2 1668 4 1651 5 ct 1611 4 1591 -18 1591 -64 ct 1591 -267 l  1557 -267 l 
1557 -304 l  1593 -304 l  1608 -372 l  1641 -372 l  1641 -304 l  1697 -304 l 
1697 -267 l  1641 -267 l  1641 -75 l  1641 -61 1644 -50 1648 -45 ct 1653 -39 1661 -36 1673 -36 ct 
1679 -36 1689 -37 1702 -40 ct 1702 -2 l  p ef
2155 -109 m  2155 -73 2143 -45 2121 -24 ct 2098 -4 2065 6 2022 6 ct 1983 6 1951 -3 1928 -22 ct 
1904 -40 1890 -66 1886 -102 ct 1937 -107 l  1944 -60 1972 -36 2022 -36 ct 2048 -36 2067 -43 2082 -55 ct 
2096 -68 2103 -86 2103 -111 ct 2103 -133 2095 -149 2079 -162 ct 2062 -174 2039 -180 2008 -180 ct 
1979 -180 l  1979 -224 l  2007 -224 l  2034 -224 2055 -230 2070 -242 ct 2085 -254 2093 -271 2093 -292 ct 
2093 -313 2087 -330 2074 -342 ct 2062 -354 2044 -361 2020 -361 ct 1998 -361 1980 -355 1966 -343 ct 
1953 -332 1945 -316 1942 -295 ct 1892 -299 l  1896 -331 1909 -357 1932 -375 ct 
1955 -393 1984 -402 2020 -402 ct 2059 -402 2090 -393 2112 -374 ct 2133 -356 2144 -330 2144 -297 ct 
2144 -272 2137 -251 2123 -236 ct 2109 -220 2089 -209 2062 -203 ct 2062 -202 l 
2092 -199 2114 -189 2131 -172 ct 2147 -156 2155 -135 2155 -109 ct p ef
pom
pum
13571 7376 t
115 6 m  85 6 62 -2 47 -19 ct 32 -35 24 -57 24 -85 ct 24 -116 34 -141 55 -158 ct 
75 -174 108 -183 154 -185 ct 221 -186 l  221 -202 l  221 -227 216 -245 206 -255 ct 
195 -266 179 -271 157 -271 ct 134 -271 118 -268 108 -260 ct 98 -252 92 -240 90 -223 ct 
37 -228 l  46 -283 86 -310 158 -310 ct 196 -310 224 -301 243 -284 ct 262 -266 272 -241 272 -208 ct 
272 -77 l  272 -62 273 -50 277 -43 ct 281 -35 289 -31 300 -31 ct 304 -31 310 -32 316 -33 ct 
316 -2 l  303 1 290 3 277 3 ct 259 3 245 -2 237 -12 ct 229 -22 224 -37 223 -58 ct 
221 -58 l  208 -35 193 -19 177 -9 ct 160 1 139 6 115 6 ct p
126 -32 m  145 -32 161 -37 175 -45 ct 189 -53 200 -65 209 -80 ct 217 -94 221 -110 221 -125 ct 
221 -150 l  166 -149 l  143 -149 125 -146 113 -142 ct 101 -137 92 -130 85 -121 ct 
79 -112 75 -99 75 -84 ct 75 -68 80 -55 89 -46 ct 97 -37 110 -32 126 -32 ct p ef
486 0 m  427 0 l  318 -304 l  371 -304 l  437 -106 l  440 -99 446 -77 456 -40 ct 
466 -73 l  477 -106 l  545 -304 l  598 -304 l  486 0 l  p ef
677 -141 m  677 -107 684 -80 698 -61 ct 712 -42 733 -32 760 -32 ct 782 -32 799 -37 812 -46 ct 
825 -54 834 -66 839 -79 ct 883 -66 l  865 -18 824 6 760 6 ct 716 6 682 -8 659 -35 ct 
636 -61 624 -101 624 -154 ct 624 -204 636 -243 659 -270 ct 682 -297 715 -310 758 -310 ct 
847 -310 891 -256 891 -148 ct 891 -141 l  677 -141 l  p
839 -180 m  836 -212 828 -236 815 -250 ct 802 -265 782 -273 758 -273 ct 733 -273 714 -264 700 -248 ct 
686 -232 678 -209 677 -180 ct 839 -180 l  p ef
955 0 m  955 -233 l  955 -255 955 -278 954 -304 ct 1001 -304 l  1002 -270 1003 -249 1003 -242 ct 
1004 -242 l  1012 -268 1021 -286 1032 -296 ct 1042 -305 1057 -310 1075 -310 ct 
1082 -310 1089 -309 1096 -307 ct 1096 -261 l  1089 -263 1080 -264 1069 -264 ct 
1048 -264 1033 -254 1022 -236 ct 1011 -218 1005 -192 1005 -159 ct 1005 0 l  955 0 l 
p ef
1220 6 m  1190 6 1167 -2 1152 -19 ct 1137 -35 1129 -57 1129 -85 ct 1129 -116 1139 -141 1160 -158 ct 
1180 -174 1213 -183 1259 -185 ct 1326 -186 l  1326 -202 l  1326 -227 1321 -245 1311 -255 ct 
1300 -266 1284 -271 1262 -271 ct 1239 -271 1223 -268 1213 -260 ct 1203 -252 1197 -240 1195 -223 ct 
1142 -228 l  1151 -283 1191 -310 1263 -310 ct 1301 -310 1329 -301 1348 -284 ct 
1367 -266 1377 -241 1377 -208 ct 1377 -77 l  1377 -62 1378 -50 1382 -43 ct 1386 -35 1394 -31 1405 -31 ct 
1409 -31 1415 -32 1421 -33 ct 1421 -2 l  1408 1 1395 3 1382 3 ct 1364 3 1350 -2 1342 -12 ct 
1334 -22 1329 -37 1328 -58 ct 1326 -58 l  1313 -35 1298 -19 1282 -9 ct 1265 1 1244 6 1220 6 ct 
p
1231 -32 m  1250 -32 1266 -37 1280 -45 ct 1294 -53 1305 -65 1314 -80 ct 1322 -94 1326 -110 1326 -125 ct 
1326 -150 l  1271 -149 l  1248 -149 1230 -146 1218 -142 ct 1206 -137 1197 -130 1190 -121 ct 
1184 -112 1180 -99 1180 -84 ct 1180 -68 1185 -55 1194 -46 ct 1202 -37 1215 -32 1231 -32 ct 
p ef
1573 120 m  1540 120 1514 113 1495 100 ct 1475 87 1463 68 1457 44 ct 1508 37 l 
1511 51 1518 62 1530 70 ct 1541 77 1556 81 1574 81 ct 1624 81 1649 51 1649 -8 ct 
1649 -57 l  1648 -57 l  1639 -37 1626 -22 1610 -13 ct 1593 -3 1574 2 1552 2 ct 
1515 2 1488 -10 1471 -35 ct 1454 -60 1445 -99 1445 -152 ct 1445 -205 1454 -245 1473 -271 ct 
1491 -296 1520 -309 1557 -309 ct 1579 -309 1597 -304 1613 -294 ct 1628 -284 1640 -270 1649 -252 ct 
1650 -252 l  1650 -258 1650 -268 1651 -282 ct 1651 -295 1652 -303 1653 -304 ct 
1700 -304 l  1699 -294 1699 -273 1699 -241 ct 1699 -9 l  1699 77 1657 120 1573 120 ct 
p
1649 -152 m  1649 -177 1646 -198 1639 -216 ct 1632 -234 1623 -248 1611 -257 ct 
1599 -267 1585 -271 1570 -271 ct 1544 -271 1526 -262 1514 -243 ct 1502 -225 1496 -194 1496 -152 ct 
1496 -111 1502 -81 1513 -62 ct 1524 -44 1542 -35 1569 -35 ct 1585 -35 1599 -40 1611 -49 ct 
1623 -59 1632 -72 1639 -90 ct 1646 -107 1649 -128 1649 -152 ct p ef
1814 -141 m  1814 -107 1821 -80 1835 -61 ct 1849 -42 1870 -32 1897 -32 ct 1919 -32 1936 -37 1949 -46 ct 
1962 -54 1971 -66 1976 -79 ct 2020 -66 l  2002 -18 1961 6 1897 6 ct 1853 6 1819 -8 1796 -35 ct 
1773 -61 1761 -101 1761 -154 ct 1761 -204 1773 -243 1796 -270 ct 1819 -297 1852 -310 1895 -310 ct 
1984 -310 2028 -256 2028 -148 ct 2028 -141 l  1814 -141 l  p
1976 -180 m  1973 -212 1965 -236 1952 -250 ct 1939 -265 1919 -273 1895 -273 ct 
1870 -273 1851 -264 1837 -248 ct 1823 -232 1815 -209 1814 -180 ct 1976 -180 l 
p ef
pom
pum
856 5461 t
90.0 r 352 0 m  303 -124 l  110 -124 l  61 0 l  1 0 l  175 -425 l  240 -425 l 
411 0 l  352 0 l  p
207 -382 m  204 -373 l  199 -356 191 -335 182 -309 ct 127 -169 l  286 -169 l 
232 -309 l  226 -323 220 -339 215 -356 ct 207 -382 l  p ef
632 6 m  598 6 567 0 541 -13 ct 515 -26 495 -44 481 -68 ct 467 -92 460 -121 460 -154 ct 
460 -425 l  517 -425 l  517 -159 l  517 -121 527 -91 547 -71 ct 567 -51 595 -41 632 -41 ct 
670 -41 700 -51 721 -72 ct 742 -93 753 -123 753 -163 ct 753 -425 l  810 -425 l 
810 -160 l  810 -126 803 -96 788 -71 ct 774 -46 753 -27 727 -14 ct 700 -1 669 6 632 6 ct 
p ef
1097 -385 m  1050 -385 1013 -370 987 -339 ct 961 -309 948 -268 948 -215 ct 948 -162 962 -120 989 -89 ct 
1016 -57 1053 -41 1099 -41 ct 1159 -41 1203 -71 1233 -130 ct 1280 -106 l  1263 -70 1238 -42 1207 -23 ct 
1175 -4 1138 6 1097 6 ct 1054 6 1017 -3 985 -21 ct 954 -39 930 -64 914 -97 ct 898 -130 889 -170 889 -215 ct 
889 -283 908 -336 944 -374 ct 981 -413 1031 -432 1096 -432 ct 1141 -432 1179 -423 1210 -406 ct 
1240 -388 1262 -362 1277 -327 ct 1222 -309 l  1212 -334 1196 -352 1174 -365 ct 
1153 -378 1127 -385 1097 -385 ct p ef
1517 -396 m  1517 -448 l  1572 -448 l  1572 -396 l  1517 -396 l  p
1517 0 m  1517 -327 l  1572 -327 l  1572 0 l  1517 0 l  p ef
1862 0 m  1862 -207 l  1862 -229 1860 -246 1856 -257 ct 1852 -269 1845 -278 1836 -283 ct 
1826 -288 1813 -291 1795 -291 ct 1769 -291 1748 -282 1733 -264 ct 1718 -246 1710 -221 1710 -189 ct 
1710 0 l  1656 0 l  1656 -257 l  1656 -295 1655 -319 1654 -327 ct 1705 -327 l 
1706 -326 1706 -323 1706 -319 ct 1706 -314 1706 -309 1707 -304 ct 1707 -298 1707 -287 1708 -271 ct 
1709 -271 l  1721 -294 1736 -310 1752 -319 ct 1768 -328 1789 -333 1813 -333 ct 
1849 -333 1875 -324 1892 -306 ct 1909 -288 1917 -259 1917 -218 ct 1917 0 l  1862 0 l 
p ef
2173 128 m  2173 -448 l  2296 -448 l  2296 -409 l  2226 -409 l  2226 89 l 
2296 89 l  2296 128 l  2173 128 l  p ef
2829 -131 m  2829 -87 2821 -54 2804 -31 ct 2788 -8 2764 4 2732 4 ct 2701 4 2677 -7 2661 -30 ct 
2645 -53 2637 -86 2637 -131 ct 2637 -177 2645 -211 2660 -233 ct 2676 -256 2700 -267 2734 -267 ct 
2767 -267 2791 -255 2806 -232 ct 2821 -209 2829 -175 2829 -131 ct p
2460 0 m  2413 0 l  2692 -425 l  2739 -425 l  2460 0 l  p
2420 -429 m  2452 -429 2476 -418 2491 -395 ct 2507 -373 2515 -339 2515 -294 ct 
2515 -251 2507 -217 2491 -193 ct 2475 -170 2451 -158 2419 -158 ct 2387 -158 2363 -170 2347 -193 ct 
2331 -216 2323 -250 2323 -294 ct 2323 -339 2331 -373 2346 -395 ct 2362 -418 2386 -429 2420 -429 ct 
p
2784 -130 m  2784 -166 2780 -193 2773 -209 ct 2765 -225 2752 -233 2734 -233 ct 
2715 -233 2702 -225 2694 -209 ct 2686 -193 2682 -167 2682 -130 ct 2682 -96 2685 -70 2693 -54 ct 
2701 -37 2715 -29 2733 -29 ct 2751 -29 2764 -37 2772 -54 ct 2780 -71 2784 -96 2784 -130 ct 
p
2470 -294 m  2470 -329 2466 -355 2459 -372 ct 2451 -388 2438 -396 2420 -396 ct 
2401 -396 2388 -388 2380 -372 ct 2371 -356 2367 -330 2367 -294 ct 2367 -259 2371 -233 2380 -217 ct 
2388 -200 2401 -192 2419 -192 ct 2437 -192 2450 -200 2458 -217 ct 2466 -234 2470 -260 2470 -294 ct 
p ef
2856 128 m  2856 89 l  2926 89 l  2926 -409 l  2856 -409 l  2856 -448 l 
2979 -448 l  2979 128 l  2856 128 l  p ef
pom
2191 6625 m  2191 1270 l  ps
18853 6625 m  18853 1270 l  ps
2191 6625 m  2358 6625 l  ps
18853 6625 m  18686 6625 l  ps
2191 3948 m  2358 3948 l  ps
18853 3948 m  18686 3948 l  ps
2191 1270 m  2358 1270 l  ps
18853 1270 m  18686 1270 l  ps
pum
1707 6854 t
294 -198 m  294 -132 282 -82 259 -47 ct 236 -12 202 6 157 6 ct 112 6 79 -12 56 -46 ct 
33 -81 22 -132 22 -198 ct 22 -266 33 -317 55 -351 ct 77 -385 112 -402 159 -402 ct 
205 -402 239 -385 261 -351 ct 283 -316 294 -266 294 -198 ct p
243 -198 m  243 -255 236 -297 223 -323 ct 210 -348 189 -361 159 -361 ct 128 -361 106 -348 93 -323 ct 
79 -298 73 -256 73 -198 ct 73 -142 79 -101 93 -75 ct 107 -49 128 -36 158 -36 ct 
187 -36 209 -49 222 -76 ct 236 -102 243 -143 243 -198 ct p ef
pom
pum
1391 4176 t
292 -129 m  292 -87 280 -54 255 -30 ct 231 -6 197 6 153 6 ct 117 6 88 -2 65 -19 ct 
43 -35 29 -58 23 -89 ct 73 -95 l  84 -55 111 -36 154 -36 ct 181 -36 202 -44 217 -60 ct 
233 -77 240 -99 240 -128 ct 240 -153 233 -173 217 -188 ct 202 -204 181 -212 156 -212 ct 
142 -212 130 -209 118 -205 ct 106 -201 95 -193 83 -183 ct 34 -183 l  47 -396 l 
269 -396 l  269 -353 l  93 -353 l  85 -228 l  107 -244 134 -253 166 -253 ct 
204 -253 235 -241 258 -219 ct 281 -196 292 -166 292 -129 ct p ef
610 -198 m  610 -132 598 -82 575 -47 ct 552 -12 518 6 473 6 ct 428 6 395 -12 372 -46 ct 
349 -81 338 -132 338 -198 ct 338 -266 349 -317 371 -351 ct 393 -385 428 -402 475 -402 ct 
521 -402 555 -385 577 -351 ct 599 -316 610 -266 610 -198 ct p
559 -198 m  559 -255 552 -297 539 -323 ct 526 -348 505 -361 475 -361 ct 444 -361 422 -348 409 -323 ct 
395 -298 389 -256 389 -198 ct 389 -142 395 -101 409 -75 ct 423 -49 444 -36 474 -36 ct 
503 -36 525 -49 538 -76 ct 552 -102 559 -143 559 -198 ct p ef
pom
pum
1073 1499 t
43 0 m  43 -43 l  143 -43 l  143 -348 l  55 -284 l  55 -332 l  147 -396 l 
193 -396 l  193 -43 l  288 -43 l  288 0 l  43 0 l  p ef
610 -198 m  610 -132 598 -82 575 -47 ct 552 -12 518 6 473 6 ct 428 6 395 -12 372 -46 ct 
349 -81 338 -132 338 -198 ct 338 -266 349 -317 371 -351 ct 393 -385 428 -402 475 -402 ct 
521 -402 555 -385 577 -351 ct 599 -316 610 -266 610 -198 ct p
559 -198 m  559 -255 552 -297 539 -323 ct 526 -348 505 -361 475 -361 ct 444 -361 422 -348 409 -323 ct 
395 -298 389 -256 389 -198 ct 389 -142 395 -101 409 -75 ct 423 -49 444 -36 474 -36 ct 
503 -36 525 -49 538 -76 ct 552 -102 559 -143 559 -198 ct p ef
926 -198 m  926 -132 914 -82 891 -47 ct 868 -12 834 6 789 6 ct 744 6 711 -12 688 -46 ct 
665 -81 654 -132 654 -198 ct 654 -266 665 -317 687 -351 ct 709 -385 744 -402 791 -402 ct 
837 -402 871 -385 893 -351 ct 915 -316 926 -266 926 -198 ct p
875 -198 m  875 -255 868 -297 855 -323 ct 842 -348 821 -361 791 -361 ct 760 -361 738 -348 725 -323 ct 
711 -298 705 -256 705 -198 ct 705 -142 711 -101 725 -75 ct 739 -49 760 -36 790 -36 ct 
819 -36 841 -49 854 -76 ct 868 -102 875 -143 875 -198 ct p ef
pom
0.003 0.445 0.738 c 2657 6626 m  2657 2705 l  3092 2705 l  3092 6626 l  2657 6626 l 
p ef
6200 6626 m  6200 2403 l  6637 2403 l  6637 6626 l  6200 6626 l  p ef
9746 6626 m  9746 2314 l  10182 2314 l  10182 6626 l  9746 6626 l  p ef
13291 6626 m  13291 2474 l  13727 2474 l  13727 6626 l  13291 6626 l  p ef
0.003 0.003 0.003 c 2656 6625 m  2656 2705 l  3091 2705 l  3091 6625 l  2656 6625 l 
pc
6200 6625 m  6200 2403 l  6636 2403 l  6636 6625 l  6200 6625 l  pc
9745 6625 m  9745 2313 l  10181 2313 l  10181 6625 l  9745 6625 l  pc
13290 6625 m  13290 2474 l  13726 2474 l  13726 6625 l  13290 6625 l  pc
0.871 0.492 0.003 c 3202 6626 m  3202 2909 l  3638 2909 l  3638 6626 l  3202 6626 l 
p ef
6747 6626 m  6747 2369 l  7183 2369 l  7183 6626 l  6747 6626 l  p ef
10291 6626 m  10291 2217 l  10727 2217 l  10727 6626 l  10291 6626 l  p ef
13836 6626 m  13836 2498 l  14272 2498 l  14272 6626 l  13836 6626 l  p ef
0.003 0.003 0.003 c 3201 6625 m  3201 2909 l  3638 2909 l  3638 6625 l  3201 6625 l 
pc
6746 6625 m  6746 2368 l  7183 2368 l  7183 6625 l  6746 6625 l  pc
10290 6625 m  10290 2216 l  10727 2216 l  10727 6625 l  10290 6625 l  pc
13835 6625 m  13835 2498 l  14272 2498 l  14272 6625 l  13835 6625 l  pc
1.000 0.843 0.003 c 3747 6626 m  3747 2583 l  4183 2583 l  4183 6626 l  3747 6626 l 
p ef
7292 6626 m  7292 2495 l  7728 2495 l  7728 6626 l  7292 6626 l  p ef
10837 6626 m  10837 2521 l  11273 2521 l  11273 6626 l  10837 6626 l  p ef
14382 6626 m  14382 2534 l  14818 2534 l  14818 6626 l  14382 6626 l  p ef
0.003 0.003 0.003 c 3746 6625 m  3746 2582 l  4183 2582 l  4183 6625 l  3746 6625 l 
pc
7291 6625 m  7291 2494 l  7728 2494 l  7728 6625 l  7291 6625 l  pc
10836 6625 m  10836 2521 l  11273 2521 l  11273 6625 l  10836 6625 l  pc
14382 6625 m  14382 2533 l  14818 2533 l  14818 6625 l  14382 6625 l  pc
0.496 0.187 0.558 c 4292 6626 m  4292 3949 l  4728 3949 l  4728 6626 l 
4292 6626 l  p ef
7837 6626 m  7837 2660 l  8273 2660 l  8273 6626 l  7837 6626 l  p ef
11382 6626 m  11382 2199 l  11818 2199 l  11818 6626 l  11382 6626 l  p ef
14927 6626 m  14927 2936 l  15363 2936 l  15363 6626 l  14927 6626 l  p ef
0.003 0.003 0.003 c 4291 6625 m  4291 3948 l  4728 3948 l  4728 6625 l  4291 6625 l 
pc
7837 6625 m  7837 2659 l  8273 2659 l  8273 6625 l  7837 6625 l  pc
11382 6625 m  11382 2199 l  11818 2199 l  11818 6625 l  11382 6625 l  pc
14927 6625 m  14927 2935 l  15363 2935 l  15363 6625 l  14927 6625 l  pc
0.003 0.003 1.000 c 4837 6626 m  4837 2481 l  5273 2481 l  5273 6626 l  4837 6626 l 
p ef
8382 6626 m  8382 4748 l  8818 4748 l  8818 6626 l  8382 6626 l  p ef
11927 6626 m  11927 3661 l  12364 3661 l  12364 6626 l  11927 6626 l  p ef
15472 6626 m  15472 3629 l  15909 3629 l  15909 6626 l  15472 6626 l  p ef
0.003 0.003 0.003 c 4837 6625 m  4837 2481 l  5273 2481 l  5273 6625 l  4837 6625 l 
pc
8382 6625 m  8382 4748 l  8818 4748 l  8818 6625 l  8382 6625 l  pc
11927 6625 m  11927 3661 l  12363 3661 l  12363 6625 l  11927 6625 l  pc
15472 6625 m  15472 3629 l  15908 3629 l  15908 6625 l  15472 6625 l  pc
pum
7209 980 t
388 -123 m  388 -81 372 -49 342 -27 ct 311 -5 265 6 206 6 ct 151 6 108 -4 78 -23 ct 
47 -42 27 -72 18 -111 ct 104 -125 l  110 -103 121 -86 138 -76 ct 155 -66 178 -61 208 -61 ct 
270 -61 301 -80 301 -118 ct 301 -130 298 -140 291 -147 ct 283 -155 273 -162 260 -167 ct 
247 -172 223 -179 186 -186 ct 154 -194 132 -200 119 -204 ct 107 -209 96 -214 86 -220 ct 
76 -226 67 -234 60 -242 ct 53 -251 48 -261 44 -273 ct 40 -284 38 -298 38 -313 ct 
38 -351 52 -381 81 -401 ct 110 -422 152 -432 207 -432 ct 260 -432 299 -424 326 -407 ct 
352 -391 369 -364 377 -326 ct 290 -314 l  286 -332 277 -346 263 -355 ct 250 -364 230 -369 205 -369 ct 
151 -369 124 -352 124 -318 ct 124 -307 127 -298 133 -291 ct 139 -284 147 -278 158 -273 ct 
170 -268 192 -262 227 -254 ct 268 -246 297 -238 314 -230 ct 332 -223 346 -214 356 -205 ct 
366 -195 374 -183 380 -170 ct 385 -156 388 -140 388 -123 ct p ef
531 6 m  499 6 474 -3 457 -20 ct 439 -37 430 -61 430 -92 ct 430 -126 441 -152 463 -170 ct 
485 -188 517 -197 559 -197 ct 630 -198 l  630 -215 l  630 -236 626 -252 618 -262 ct 
611 -273 599 -278 582 -278 ct 566 -278 554 -274 547 -267 ct 540 -260 535 -248 533 -232 ct 
445 -236 l  450 -268 465 -292 489 -308 ct 512 -325 544 -333 585 -333 ct 627 -333 658 -323 681 -302 ct 
703 -282 714 -253 714 -216 ct 714 -97 l  714 -78 716 -66 721 -59 ct 725 -52 732 -48 741 -48 ct 
748 -48 754 -49 760 -50 ct 760 -4 l  755 -3 750 -2 746 -1 ct 742 0 738 1 734 1 ct 
730 2 726 3 721 3 ct 717 3 712 4 706 4 ct 684 4 669 -2 658 -12 ct 648 -23 642 -38 640 -58 ct 
638 -58 l  615 -15 579 6 531 6 ct p
630 -152 m  586 -151 l  566 -150 552 -148 544 -144 ct 536 -141 529 -136 525 -128 ct 
521 -121 519 -111 519 -99 ct 519 -84 522 -72 529 -64 ct 536 -57 546 -53 558 -53 ct 
571 -53 583 -57 594 -64 ct 605 -71 614 -81 620 -94 ct 626 -107 630 -121 630 -135 ct 
630 -152 l  p ef
992 0 m  992 -183 l  992 -240 975 -269 942 -269 ct 925 -269 911 -260 900 -243 ct 
889 -225 884 -203 884 -175 ct 884 0 l  799 0 l  799 -254 l  799 -271 799 -286 798 -297 ct 
798 -308 797 -318 797 -327 ct 878 -327 l  878 -323 879 -313 880 -296 ct 881 -280 882 -268 882 -262 ct 
883 -262 l  893 -287 906 -305 922 -316 ct 938 -327 956 -333 978 -333 ct 1028 -333 1058 -309 1069 -262 ct 
1071 -262 l  1082 -287 1095 -305 1111 -316 ct 1126 -327 1146 -333 1170 -333 ct 
1202 -333 1226 -322 1243 -301 ct 1259 -279 1268 -248 1268 -207 ct 1268 0 l  1183 0 l 
1183 -183 l  1183 -240 1167 -269 1134 -269 ct 1117 -269 1104 -261 1093 -245 ct 
1083 -229 1077 -207 1076 -179 ct 1076 0 l  992 0 l  p ef
1483 6 m  1434 6 1396 -9 1370 -38 ct 1343 -67 1330 -109 1330 -165 ct 1330 -219 1344 -260 1370 -289 ct 
1397 -318 1435 -333 1484 -333 ct 1531 -333 1567 -317 1592 -286 ct 1616 -255 1629 -210 1629 -149 ct 
1629 -147 l  1419 -147 l  1419 -115 1425 -91 1437 -75 ct 1449 -59 1465 -51 1487 -51 ct 
1517 -51 1536 -64 1544 -90 ct 1624 -83 l  1601 -24 1554 6 1483 6 ct p
1483 -280 m  1463 -280 1448 -273 1437 -259 ct 1426 -245 1420 -225 1420 -200 ct 
1547 -200 l  1545 -227 1539 -247 1528 -260 ct 1517 -273 1502 -280 1483 -280 ct 
p ef
1674 -123 m  1674 -197 l  1831 -197 l  1831 -123 l  1674 -123 l  p ef
2244 -123 m  2244 -81 2228 -49 2198 -27 ct 2167 -5 2121 6 2062 6 ct 2007 6 1964 -4 1934 -23 ct 
1903 -42 1883 -72 1874 -111 ct 1960 -125 l  1966 -103 1977 -86 1994 -76 ct 2011 -66 2034 -61 2064 -61 ct 
2126 -61 2157 -80 2157 -118 ct 2157 -130 2154 -140 2147 -147 ct 2139 -155 2129 -162 2116 -167 ct 
2103 -172 2079 -179 2042 -186 ct 2010 -194 1988 -200 1975 -204 ct 1963 -209 1952 -214 1942 -220 ct 
1932 -226 1923 -234 1916 -242 ct 1909 -251 1904 -261 1900 -273 ct 1896 -284 1894 -298 1894 -313 ct 
1894 -351 1908 -381 1937 -401 ct 1966 -422 2008 -432 2063 -432 ct 2116 -432 2155 -424 2182 -407 ct 
2208 -391 2225 -364 2233 -326 ct 2146 -314 l  2142 -332 2133 -346 2119 -355 ct 
2106 -364 2086 -369 2061 -369 ct 2007 -369 1980 -352 1980 -318 ct 1980 -307 1983 -298 1989 -291 ct 
1995 -284 2003 -278 2014 -273 ct 2026 -268 2048 -262 2083 -254 ct 2124 -246 2153 -238 2170 -230 ct 
2188 -223 2202 -214 2212 -205 ct 2222 -195 2230 -183 2236 -170 ct 2241 -156 2244 -140 2244 -123 ct 
p ef
2391 -327 m  2391 -143 l  2391 -86 2411 -57 2449 -57 ct 2470 -57 2486 -66 2499 -83 ct 
2512 -101 2518 -124 2518 -151 ct 2518 -327 l  2603 -327 l  2603 -73 l  2603 -45 2604 -21 2605 0 ct 
2524 0 l  2522 -29 2521 -51 2521 -65 ct 2519 -65 l  2508 -40 2494 -22 2476 -11 ct 
2459 0 2438 6 2414 6 ct 2379 6 2353 -5 2334 -26 ct 2316 -47 2306 -78 2306 -119 ct 
2306 -327 l  2391 -327 l  p ef
2999 -165 m  2999 -111 2988 -69 2966 -39 ct 2944 -9 2913 6 2873 6 ct 2850 6 2830 1 2813 -9 ct 
2796 -19 2783 -34 2774 -53 ct 2773 -53 l  2773 -45 2773 -36 2772 -24 ct 2771 -11 2770 -3 2769 0 ct 
2687 0 l  2688 -19 2689 -44 2689 -75 ct 2689 -448 l  2774 -448 l  2774 -323 l 
2773 -270 l  2774 -270 l  2793 -312 2828 -333 2879 -333 ct 2917 -333 2947 -318 2968 -289 ct 
2988 -260 2999 -218 2999 -165 ct p
2910 -165 m  2910 -202 2905 -229 2894 -247 ct 2883 -265 2866 -274 2843 -274 ct 
2820 -274 2803 -264 2791 -245 ct 2779 -226 2773 -198 2773 -162 ct 2773 -127 2779 -100 2790 -81 ct 
2802 -62 2820 -52 2843 -52 ct 2888 -52 2910 -90 2910 -165 ct p ef
3068 -386 m  3068 -448 l  3152 -448 l  3152 -386 l  3068 -386 l  p
3066 128 m  3046 128 3028 127 3014 125 ct 3014 66 l  3030 67 l  3044 67 3054 64 3060 57 ct 
3065 51 3068 38 3068 18 ct 3068 -327 l  3152 -327 l  3152 38 l  3152 67 3145 89 3130 105 ct 
3116 120 3094 128 3066 128 ct p ef
3373 6 m  3324 6 3286 -9 3260 -38 ct 3233 -67 3220 -109 3220 -165 ct 3220 -219 3234 -260 3260 -289 ct 
3287 -318 3325 -333 3374 -333 ct 3421 -333 3457 -317 3482 -286 ct 3506 -255 3519 -210 3519 -149 ct 
3519 -147 l  3309 -147 l  3309 -115 3315 -91 3327 -75 ct 3339 -59 3355 -51 3377 -51 ct 
3407 -51 3426 -64 3434 -90 ct 3514 -83 l  3491 -24 3444 6 3373 6 ct p
3373 -280 m  3353 -280 3338 -273 3327 -259 ct 3316 -245 3310 -225 3310 -200 ct 
3437 -200 l  3435 -227 3429 -247 3418 -260 ct 3407 -273 3392 -280 3373 -280 ct 
p ef
3719 6 m  3670 6 3632 -9 3605 -38 ct 3578 -68 3564 -109 3564 -162 ct 3564 -216 3578 -258 3605 -288 ct 
3632 -318 3671 -333 3721 -333 ct 3759 -333 3791 -323 3816 -304 ct 3841 -285 3857 -258 3863 -224 ct 
3778 -220 l  3776 -237 3770 -250 3760 -260 ct 3750 -270 3737 -275 3719 -275 ct 
3675 -275 3653 -238 3653 -165 ct 3653 -90 3675 -52 3720 -52 ct 3736 -52 3750 -57 3761 -67 ct 
3771 -78 3778 -93 3781 -113 ct 3866 -109 l  3863 -87 3855 -67 3842 -49 ct 3829 -32 3812 -18 3791 -8 ct 
3770 1 3746 6 3719 6 ct p ef
4011 5 m  3986 5 3967 -2 3953 -15 ct 3940 -29 3933 -50 3933 -77 ct 3933 -270 l 
3892 -270 l  3892 -327 l  3937 -327 l  3964 -404 l  4017 -404 l  4017 -327 l 
4079 -327 l  4079 -270 l  4017 -270 l  4017 -100 l  4017 -85 4020 -73 4026 -65 ct 
4032 -58 4041 -54 4054 -54 ct 4061 -54 4070 -55 4082 -58 ct 4082 -5 l  4061 2 4038 5 4011 5 ct 
p ef
4495 -356 m  4495 0 l  4406 0 l  4406 -356 l  4269 -356 l  4269 -425 l 
4633 -425 l  4633 -356 l  4495 -356 l  p ef
4683 0 m  4683 -250 l  4683 -268 4683 -283 4682 -295 ct 4682 -307 4681 -318 4681 -327 ct 
4762 -327 l  4762 -323 4763 -312 4764 -294 ct 4765 -275 4766 -263 4766 -257 ct 
4767 -257 l  4775 -280 4782 -296 4789 -305 ct 4795 -315 4803 -322 4812 -326 ct 
4821 -331 4832 -333 4845 -333 ct 4856 -333 4865 -331 4872 -328 ct 4872 -257 l 
4858 -260 4846 -262 4835 -262 ct 4814 -262 4798 -253 4786 -236 ct 4774 -219 4768 -194 4768 -160 ct 
4768 0 l  4683 0 l  p ef
5000 6 m  4968 6 4943 -3 4926 -20 ct 4908 -37 4899 -61 4899 -92 ct 4899 -126 4910 -152 4932 -170 ct 
4954 -188 4986 -197 5028 -197 ct 5099 -198 l  5099 -215 l  5099 -236 5095 -252 5087 -262 ct 
5080 -273 5068 -278 5051 -278 ct 5035 -278 5023 -274 5016 -267 ct 5009 -260 5004 -248 5002 -232 ct 
4914 -236 l  4919 -268 4934 -292 4958 -308 ct 4981 -325 5013 -333 5054 -333 ct 
5096 -333 5127 -323 5150 -302 ct 5172 -282 5183 -253 5183 -216 ct 5183 -97 l 
5183 -78 5185 -66 5190 -59 ct 5194 -52 5201 -48 5210 -48 ct 5217 -48 5223 -49 5229 -50 ct 
5229 -4 l  5224 -3 5219 -2 5215 -1 ct 5211 0 5207 1 5203 1 ct 5199 2 5195 3 5190 3 ct 
5186 3 5181 4 5175 4 ct 5153 4 5138 -2 5127 -12 ct 5117 -23 5111 -38 5109 -58 ct 
5107 -58 l  5084 -15 5048 6 5000 6 ct p
5099 -152 m  5055 -151 l  5035 -150 5021 -148 5013 -144 ct 5005 -141 4998 -136 4994 -128 ct 
4990 -121 4988 -111 4988 -99 ct 4988 -84 4991 -72 4998 -64 ct 5005 -57 5015 -53 5027 -53 ct 
5040 -53 5052 -57 5063 -64 ct 5074 -71 5083 -81 5089 -94 ct 5095 -107 5099 -121 5099 -135 ct 
5099 -152 l  p ef
5268 -386 m  5268 -448 l  5353 -448 l  5353 -386 l  5268 -386 l  p
5268 0 m  5268 -327 l  5353 -327 l  5353 0 l  5268 0 l  p ef
5652 0 m  5652 -183 l  5652 -240 5633 -269 5594 -269 ct 5573 -269 5557 -260 5544 -243 ct 
5531 -225 5525 -202 5525 -175 ct 5525 0 l  5440 0 l  5440 -254 l  5440 -271 5440 -286 5439 -297 ct 
5439 -308 5438 -318 5438 -327 ct 5519 -327 l  5519 -323 5520 -313 5521 -296 ct 
5522 -280 5523 -268 5523 -262 ct 5524 -262 l  5535 -287 5550 -305 5567 -316 ct 
5584 -327 5605 -333 5629 -333 ct 5664 -333 5690 -322 5709 -301 ct 5727 -280 5737 -248 5737 -207 ct 
5737 0 l  5652 0 l  p ef
5818 -386 m  5818 -448 l  5903 -448 l  5903 -386 l  5818 -386 l  p
5818 0 m  5818 -327 l  5903 -327 l  5903 0 l  5818 0 l  p ef
6202 0 m  6202 -183 l  6202 -240 6183 -269 6144 -269 ct 6123 -269 6107 -260 6094 -243 ct 
6081 -225 6075 -202 6075 -175 ct 6075 0 l  5990 0 l  5990 -254 l  5990 -271 5990 -286 5989 -297 ct 
5989 -308 5988 -318 5988 -327 ct 6069 -327 l  6069 -323 6070 -313 6071 -296 ct 
6072 -280 6073 -268 6073 -262 ct 6074 -262 l  6085 -287 6100 -305 6117 -316 ct 
6134 -327 6155 -333 6179 -333 ct 6214 -333 6240 -322 6259 -301 ct 6277 -280 6287 -248 6287 -207 ct 
6287 0 l  6202 0 l  p ef
6505 131 m  6465 131 6433 123 6409 108 ct 6385 93 6370 71 6364 43 ct 6449 33 l 
6452 46 6458 56 6468 64 ct 6478 71 6491 75 6508 75 ct 6531 75 6548 68 6559 53 ct 
6570 39 6576 17 6576 -11 ct 6576 -29 l  6576 -61 l  6576 -61 l  6557 -21 6522 -1 6470 -1 ct 
6432 -1 6403 -15 6382 -44 ct 6361 -72 6350 -113 6350 -166 ct 6350 -220 6361 -261 6383 -290 ct 
6404 -319 6436 -333 6477 -333 ct 6524 -333 6557 -313 6576 -274 ct 6577 -274 l 
6577 -281 6578 -291 6578 -303 ct 6579 -315 6580 -323 6581 -327 ct 6662 -327 l 
6660 -305 6660 -280 6660 -251 ct 6660 -10 l  6660 36 6647 72 6620 95 ct 6594 119 6555 131 6505 131 ct 
p
6576 -168 m  6576 -202 6570 -228 6558 -247 ct 6546 -266 6529 -275 6507 -275 ct 
6462 -275 6439 -239 6439 -166 ct 6439 -95 6461 -60 6506 -60 ct 6529 -60 6546 -69 6558 -88 ct 
6570 -107 6576 -134 6576 -168 ct p ef
pom
0.152 0.152 0.152 c 2191 6625 m  18853 6625 l  ps
1.000 1.000 1.000 c 16028 4684 m  16028 1399 l  18727 1399 l  18727 4684 l 
16028 4684 l  p ef
pum
17129 1972 t
0.003 0.003 0.003 c 271 0 m  82 -300 l  83 -276 l  85 -234 l  85 0 l  42 0 l 
42 -352 l  98 -352 l  288 -50 l  286 -83 285 -107 285 -121 ct 285 -352 l 
328 -352 l  328 0 l  271 0 l  p ef
537 -214 m  537 -251 l  786 -251 l  786 -214 l  537 -214 l  p
537 -86 m  537 -123 l  786 -123 l  786 -86 l  537 -86 l  p ef
992 0 m  992 -38 l  1082 -38 l  1082 -309 l  1002 -252 l  1002 -295 l 
1086 -352 l  1127 -352 l  1127 -38 l  1213 -38 l  1213 0 l  992 0 l  p ef
pom
0.003 0.445 0.738 c 16196 2009 m  16196 1526 l  17044 1526 l  17044 2009 l 
16196 2009 l  p ef
0.003 0.003 0.003 c 16196 2009 m  16196 1526 l  17044 1526 l  17044 2009 l 
16196 2009 l  pc
pum
17129 2608 t
271 0 m  82 -300 l  83 -276 l  85 -234 l  85 0 l  42 0 l  42 -352 l  98 -352 l 
288 -50 l  286 -83 285 -107 285 -121 ct 285 -352 l  328 -352 l  328 0 l  271 0 l 
p ef
537 -214 m  537 -251 l  786 -251 l  786 -214 l  537 -214 l  p
537 -86 m  537 -123 l  786 -123 l  786 -86 l  537 -86 l  p ef
979 0 m  979 -32 l  987 -51 998 -68 1010 -83 ct 1022 -98 1035 -112 1049 -124 ct 
1062 -136 1075 -147 1089 -158 ct 1102 -168 1114 -178 1125 -189 ct 1135 -199 1144 -210 1151 -221 ct 
1157 -233 1160 -245 1160 -260 ct 1160 -279 1155 -294 1143 -305 ct 1132 -316 1116 -321 1096 -321 ct 
1077 -321 1061 -316 1049 -305 ct 1036 -295 1029 -280 1027 -262 ct 981 -266 l 
984 -294 996 -316 1017 -333 ct 1037 -350 1064 -358 1096 -358 ct 1132 -358 1159 -350 1178 -333 ct 
1197 -316 1207 -292 1207 -261 ct 1207 -248 1204 -234 1197 -220 ct 1191 -207 1182 -193 1169 -180 ct 
1157 -166 1133 -145 1099 -117 ct 1079 -101 1064 -87 1053 -74 ct 1041 -62 1033 -50 1028 -38 ct 
1212 -38 l  1212 0 l  979 0 l  p ef
pom
0.871 0.492 0.003 c 16196 2647 m  16196 2163 l  17044 2163 l  17044 2647 l 
16196 2647 l  p ef
0.003 0.003 0.003 c 16196 2647 m  16196 2162 l  17044 2162 l  17044 2647 l 
16196 2647 l  pc
pum
17129 3245 t
271 0 m  82 -300 l  83 -276 l  85 -234 l  85 0 l  42 0 l  42 -352 l  98 -352 l 
288 -50 l  286 -83 285 -107 285 -121 ct 285 -352 l  328 -352 l  328 0 l  271 0 l 
p ef
537 -214 m  537 -251 l  786 -251 l  786 -214 l  537 -214 l  p
537 -86 m  537 -123 l  786 -123 l  786 -86 l  537 -86 l  p ef
1216 -115 m  1216 -78 1205 -48 1183 -27 ct 1161 -6 1131 5 1091 5 ct 1059 5 1032 -2 1012 -17 ct 
992 -31 979 -52 974 -79 ct 1019 -84 l  1029 -49 1053 -32 1092 -32 ct 1117 -32 1136 -39 1149 -54 ct 
1163 -68 1170 -88 1170 -114 ct 1170 -136 1163 -154 1149 -168 ct 1135 -181 1117 -188 1093 -188 ct 
1081 -188 1070 -186 1059 -182 ct 1049 -178 1038 -172 1028 -163 ct 984 -163 l 
996 -352 l  1196 -352 l  1196 -314 l  1037 -314 l  1030 -203 l  1049 -218 1074 -225 1103 -225 ct 
1137 -225 1165 -215 1186 -194 ct 1206 -174 1216 -148 1216 -115 ct p ef
pom
1.000 0.843 0.003 c 16196 3284 m  16196 2799 l  17044 2799 l  17044 3284 l 
16196 3284 l  p ef
0.003 0.003 0.003 c 16196 3283 m  16196 2799 l  17044 2799 l  17044 3283 l 
16196 3283 l  pc
pum
17129 3882 t
271 0 m  82 -300 l  83 -276 l  85 -234 l  85 0 l  42 0 l  42 -352 l  98 -352 l 
288 -50 l  286 -83 285 -107 285 -121 ct 285 -352 l  328 -352 l  328 0 l  271 0 l 
p ef
537 -214 m  537 -251 l  786 -251 l  786 -214 l  537 -214 l  p
537 -86 m  537 -123 l  786 -123 l  786 -86 l  537 -86 l  p ef
992 0 m  992 -38 l  1082 -38 l  1082 -309 l  1002 -252 l  1002 -295 l 
1086 -352 l  1127 -352 l  1127 -38 l  1213 -38 l  1213 0 l  992 0 l  p ef
1503 -177 m  1503 -118 1493 -73 1472 -42 ct 1451 -11 1420 5 1380 5 ct 1339 5 1309 -10 1289 -41 ct 
1268 -72 1258 -117 1258 -177 ct 1258 -237 1268 -282 1288 -313 ct 1307 -343 1339 -358 1381 -358 ct 
1423 -358 1454 -343 1473 -312 ct 1493 -282 1503 -236 1503 -177 ct p
1457 -176 m  1457 -227 1451 -264 1440 -287 ct 1428 -310 1408 -321 1381 -321 ct 
1354 -321 1334 -310 1322 -287 ct 1310 -265 1304 -228 1304 -176 ct 1304 -126 1310 -90 1322 -67 ct 
1334 -44 1354 -32 1380 -32 ct 1407 -32 1426 -44 1439 -67 ct 1451 -91 1457 -127 1457 -176 ct 
p ef
pom
0.496 0.187 0.558 c 16196 3921 m  16196 3437 l  17044 3437 l  17044 3921 l 
16196 3921 l  p ef
0.003 0.003 0.003 c 16196 3921 m  16196 3437 l  17044 3437 l  17044 3921 l 
16196 3921 l  pc
pum
17129 4519 t
36 106 m  36 -371 l  138 -371 l  138 -339 l  80 -339 l  80 74 l  138 74 l 
138 106 l  36 106 l  p ef
403 -184 m  403 -123 392 -76 370 -44 ct 347 -11 316 5 275 5 ct 248 5 226 -1 209 -12 ct 
192 -24 180 -43 173 -69 ct 216 -75 l  225 -46 245 -31 276 -31 ct 302 -31 322 -43 336 -67 ct 
350 -91 358 -126 358 -170 ct 352 -155 340 -143 324 -134 ct 308 -125 290 -120 271 -120 ct 
239 -120 214 -131 195 -153 ct 176 -174 166 -203 166 -239 ct 166 -276 176 -305 197 -326 ct 
218 -347 247 -358 283 -358 ct 323 -358 352 -343 372 -314 ct 393 -285 403 -242 403 -184 ct 
p
354 -227 m  354 -255 347 -278 334 -295 ct 321 -312 304 -321 282 -321 ct 260 -321 243 -314 231 -299 ct 
218 -284 212 -264 212 -239 ct 212 -214 218 -193 231 -178 ct 243 -163 260 -156 281 -156 ct 
294 -156 306 -159 318 -165 ct 329 -171 338 -179 344 -190 ct 351 -201 354 -213 354 -227 ct 
p ef
431 106 m  431 74 l  489 74 l  489 -339 l  431 -339 l  431 -371 l  533 -371 l 
533 106 l  431 106 l  p ef
pom
0.003 0.003 1.000 c 16196 4558 m  16196 4074 l  17044 4074 l  17044 4558 l 
16196 4558 l  p ef
0.003 0.003 0.003 c 16196 4557 m  16196 4073 l  17044 4073 l  17044 4557 l 
16196 4557 l  pc
0.152 0.152 0.152 c 16027 4683 m  16027 1399 l  18727 1399 l  18727 4683 l 
16027 4683 l  pc
gr
gr
gs
0 0 m 16999 0 l 16999 15799 l 0 15799 l 0 0 l eoclip newpath
gr
gr
0 15800 t 
pom
count op_count sub {pop} repeat countdictstack dict_count sub {end} repeat b4_inc_state restore
%%PageTrailer
%%Trailer
%%EOF
